<?xml version="1.0" encoding="utf-8"?>
<!-- Generator: Adobe Illustrator 18.1.0, SVG Export Plug-In . SVG Version: 6.00 Build 0)  -->
<!DOCTYPE svg PUBLIC "-//W3C//DTD SVG 1.1//EN" "http://www.w3.org/Graphics/SVG/1.1/DTD/svg11.dtd">
<svg version="1.1" id="Layer_1" xmlns="http://www.w3.org/2000/svg" xmlns:xlink="http://www.w3.org/1999/xlink" x="0px" y="0px"
	 viewBox="34.8 165.7 784.4 234.6" enable-background="new 34.8 165.7 784.4 234.6" xml:space="preserve">
<g>
	<path d="M667.8,309.3c-0.1,0.1-0.1,0.2-0.1,0.2c0.2,0,0.4,0,0.6,0c0-0.1,0-0.2,0-0.2C668,309.3,667.8,309.3,667.8,309.3z"/>
	<path d="M670,309.3C670,309.3,670,309.3,670,309.3C670,309.3,670,309.3,670,309.3C670,309.3,670,309.3,670,309.3z"/>
	<path d="M674,310.3c-0.1,0-0.3,0-0.5,0c0,0.2,0,0.3,0,0.5c0.6,0.1,1.3,0,1.9-0.1c-0.4-0.2-0.9-0.4-1.4-0.6
		C674,310.1,674,310.2,674,310.3z"/>
	<path d="M668.3,309.3c0,0,0.1-0.1,0.2-0.1c0,0-0.1,0-0.2,0C668.3,309.2,668.3,309.2,668.3,309.3z"/>
	<path d="M807.7,327.4c0-0.5,0-0.7,0-1.2c0.5,0,1.2,0,1.7,0c0,0,0-0.2,0-0.5c-1,0-1.7,0-2.5,0c0,0,0-0.2,0-0.5c0.5,0,1.2,0,1.7,0
		c0-0.5,0-0.7,0-1.2c-0.2,0-1.7,0.7-2.5,0.5c0,0,0-0.2,0-0.5l-0.5,0.5l-0.5-0.5c-0.7,0,0.2,0.5-0.5,0.5c-1,0.2-1.2-0.5-1.2-0.5
		c-1-0.2-1.2,0.5-1.2,0.5c-1.5,0.2-1.7-0.2-2.5-0.5c0,0.5,0,0.7,0,1.2c-2-0.2-2-0.5-4.2,0c0,0,0,0.2,0,0.5c-1,0-2-0.2-3-0.5
		c-0.2,0-0.2,0.7-1.2,0.5c0-0.5-0.2-0.7-0.5-1.2c-1.5,0-3.2,0-4.7,0c0,0,0,0.2,0,0.5c-0.5,0-0.7,0-1.2,0c-0.5,0.5-0.7,1.2-1.2,1.7
		l-0.5-0.5c-1.2,0.2-1,0.7-2.5,0c0,0,0-0.2,0-0.5c-0.5,0-0.7,0-1.2,0c0,0,0-0.2,0-0.5c-0.5,0-1.2,0.2-1.7,0.5c0.7-0.5,0-0.2,1.2-0.5
		c0,0,0-0.2,0-0.5c-1.5,0-2.7,0.2-4.2,0.5c0.5,1.2,0.7,1.7,1.7,2.5c0,0,0,0.2,0,0.5c-1.2,0.2-0.5-0.2-1.2,0.5c0,0-0.2,0-0.5,0
		c0-0.5,0-1.2,0-1.7c0,0-0.2,0-0.5,0c0,0,0-0.2,0-0.5c-2.7,0.5-4.5,1.5-6.4,2.5c0-0.5,0-0.7,0-1.2c-0.5,0-1.2,0-1.7,0
		c0,0,0-0.2,0-0.5c1,0,2.2,0,3.5,0c0,0,0-0.2,0-0.5c0,0,0.2,0,0.5,0c0,0,0-0.2,0-0.5c-2,0-3.7,0.2-5.5,0.5c0,0,0,0.2,0,0.5
		c-0.7,0.2,0.2-0.5-0.5-0.5c-1.5-0.2-2.2,0.5-3,1.2c0,0-0.2,0-0.5,0c0-0.5,0-1.2,0-1.7c-1,0-1.7,0-2.5,0c-0.7,0,0.2,0.5-0.5,0.5
		c0,0,0-0.2,0-0.5c-0.5,0-0.7,0-1.2,0c0-0.5,0-0.7,0-1.2c-0.5,0.7-3.7,1-5.5,0.5c0,0,0-0.2,0-0.5c-0.5,0-1.2,0.2-1.7,0.5
		c0,0.5,0,1.2,0,1.7c-0.5,0-1.2,0-1.7,0c0-0.5,0.2-0.7,0.5-1.2c-1-0.2-3,0.5-3,0.5s0-0.2,0-0.5c-1.7-0.5-1.2-0.5-2.5-1.2
		c0,0.5-0.2,1.2-0.5,1.7c-1,0-1.7-0.2-2.5-0.5c0-1,0.2-1.7,0.5-2.5c0.5,0,0.7,0,1.2,0c0.5-1.7,1-1.5,1.2-3.5c-0.5,0-0.7,0-1.2,0
		c-0.2-1.2,0.2-0.5-0.5-1.2c0,0,0-0.2,0-0.5c0.5,0,0.7,0.2,1.2,0.5c0-0.5,0.2-1.2,0.5-1.7c0,0-0.2,0-0.5,0c0-2,0-4.2,0-6.4
		c0,0-0.2,0-0.5,0c0,0,0-0.2,0-0.5c0,0,0.2,0,0.5,0c0-0.5,0-0.7,0-1.2c-0.5,0-1.2,0-1.7,0c0-2-0.2-3.7-0.5-5.5
		c-0.2-0.2-0.7,0-1.2-1.7c-2.2-0.5-2.5-2-4.2-3c0-0.5,0-0.7,0-1.2c-0.5,0-0.7,0-1.2,0c-0.5-1.7-1-1.2-1.2-1.7c0-1,0-1.7,0-2.5
		c0,0-0.2,0-0.5,0c0,0,0-0.2,0-0.5c-0.5,0-1.2,0-1.7,0c-0.5-1.5,0-1.2-1.7-1.7c0-0.5,0-0.7,0-1.2c-1.7-0.2-1.7-0.7-2.5-1.7
		c0,0-0.2,0-0.5,0c0-0.5,0.2-0.7,0.5-1.2c-1.7,0.5-1.2,0.7-3,1.2c0-0.5,0-0.7,0-1.2c-3.5-0.5-3.2-2-6.4-2.5c0,0.5,0,0.7,0,1.2
		c0.5,0,1.2,0,1.7,0c0.5,0.7,0.5,0.7,1.2,1.2c0,0,0,0.2,0,0.5c-0.5,0-0.7,0-1.2,0c0-0.5-0.2-0.7-0.5-1.2c-0.5,0-1.2,0.2-1.7,0.5
		c0.5,2,0.7,2.2,3,2.5c0,0.5,0,0.7,0,1.2c0.5,0,1.2,0.2,1.7,0.5c0.5,1,1.2,1.7,1.7,2.5c0.7-0.5,0,0,0.5-0.5c1.5,0.2,1.5,0.2,2.5,0.5
		c0,0.2,0,0.3,0,0.5c0.3,0,0.5,0,0.7,0c-1.5,1.2,0.2,1.2,0.5,1.7c0,0.5,0,1.2,0,1.7c0.5,0,0.7,0,1.2,0c0,0,0,0.2,0,0.5
		c1,0.5,1.7,1,2.5,1.7c0,0,0.2,0,0.5,0c0,0.5,0,0.7,0,1.2c1.2,0.2,0.5-0.2,1.2,0.5c0,0,0.2,0,0.5,0c0,1,0.2,2.2,0.5,3.5
		c0.5,0,0.7,0.2,1.2,0.5c0,1,0.2,2,0.5,3c0,0,0.2,0,0.5,0c0,0.5,0,0.7,0,1.2c0.5,0,0.7,0.2,1.2,0.5c0,0.5,0,0.7,0,1.2
		c0,0,0.2,0,0.5,0c0,1,0,2.2,0,3.5c0,0,0.2,0,0.5,0c0,6.7-2.5,6.4-4.7,10.2c-0.5,0-1.2,0-1.7,0c0,0.5,0,0.7,0,1.2
		c-3.5-0.2-2.2-0.7-4.2-1.7l-0.5,0.5c-1,0-2-0.2-3-0.5c0,0,0-0.2,0-0.5c-0.5,0-0.7,0-1.2,0c0,0,0-0.2,0-0.5
		c-1.5,0.5-3.2,0.7-4.7,1.2c0-0.5,0-0.7,0-1.2c-2,0-4-0.2-6-0.5c-0.5-0.5-0.7-1.2-1.2-1.7c0,0-0.2,0-0.5,0c0,0,0,0.2,0,0.5
		c0,0-0.2,0-0.5,0c-1-1,0.7-1-1.7-1.7c0,0.5,0,0.7,0,1.2c-0.5,0-1.2-0.2-1.7-0.5c0,0,0-0.2,0-0.5c-0.5,0-0.7,0-1.2,0
		c0-0.5-0.2-0.7-0.5-1.2c-1-0.5-1.2,0.5-1.2,0.5c-0.5,0-1.2-0.2-1.7-0.5c-0.2-1.2,0.2-0.5-0.5-1.2c0,0,0-0.2,0-0.5
		c-0.5,0-1.2,0-1.7,0c0,0.5,0,0.7,0,1.2c0,0-0.2,0-0.5,0c0.2-2,0.5-1.7,1.2-3c-1.2-0.7-1.7-1.5-3.5-1.7c0-0.5,0-0.7,0-1.2
		c-0.7-0.2-1.2-0.2-0.5-0.5c0-0.5-0.2-1.2-0.5-1.7c-0.5,0-0.7,0-1.2,0c-0.2-1.5-0.5-1.7-1.2-2.5c0-0.5,0-0.7,0-1.2c0,0-0.2,0-0.5,0
		c0,0.5,0,1.2,0,1.7c-0.7-0.5-0.7-0.5-1.2-1.2c0,0-0.2,0-0.5,0c0,0,0-0.2,0-0.5c0.5,0,0.7,0,1.2,0c-0.5-2-0.2-2.7,0-6
		c-2,0-3.7,0-5.5,0c0-1-0.2-1.7-0.5-2.5c0,0-0.2,0-0.5,0c-0.7-3,2-7.9,2.5-10.2c1,0,1.7-0.2,2.5-0.5c0-0.5,0-0.7,0-1.2
		c1,0,2-0.2,3-0.5c0-0.5,0.2-0.7,0.5-1.2c0.5,0,0.7,0,1.2,0c0,0,0-0.2,0-0.5c1,0,2.2,0,3.5,0c0.5,0-0.2,0.7,0.5,0.5c0,0,0-0.2,0-0.5
		c1.2-0.7,1-1,3-1.2c0-0.5-0.2-0.7-0.5-1.2c0.5-0.5,0,0.2,0.5-0.5c0.5,0,1.2,0,1.7,0c-0.5,0.7-0.5,0.7-1.2,1.2c0,0,0,0.2,0,0.5
		c0.5,0,1.2,0,1.7,0c0,0.5,0,0.7,0,1.2c1,0,2.2,0.2,3.5,0.5c0-0.3,0-0.5,0-0.7c0,0,0,0,0,0c0,0,0,0,0,0c0-0.1,0-0.3,0-0.5
		c1,0,2-0.2,3-0.5c0.2,1,0.5,1,0.5,2.5c0.5,0,1.2,0,1.7,0c0,0.5,0,0.7,0,1.2c1.5,0.5,1.5,0.7,2.5,1.2c0,0,0-0.2,0-0.5
		c0,0,0.2,0,0.5,0c0-0.4-0.2-0.9-0.3-1.4c0,0-0.1-0.1-0.2-0.1c0,0,0.1,0,0.1,0c0-0.1-0.1-0.2-0.1-0.2c0-0.5,0.2-0.7,0.5-1.2
		c-0.5,0-1.2-0.2-1.7-0.5c0-0.5,0.2-0.7,0.5-1.2c0,0-0.2,0-0.5,0c0-0.5,0-0.7,0-1.2c1,0.5,1.5,1,3,1.2c0-0.5,0-0.7,0-1.2
		c-2.5,0-5.2-0.2-7.7-0.5c-0.2-1.2,0.2-0.5-0.5-1.2c-0.5,1-0.7,1.7-1.2,2.5c-0.7,0-1.2,0-1.7,0c0,0.2,0,0.5,0,0.5
		c-1,0.5-1.5-0.2-1.7-0.5c0.3,0,0.6,0,1,0c0,0,0-0.2,0-0.5c0.5,0,1.2,0,1.7,0c0,0,0-0.2,0-0.5c0.5-0.5,0,0.2,0.5-0.5
		c-0.5,0-1.2-0.2-1.7-0.5c0,0,0-0.2,0-0.5c-0.5,0-1.2,0.2-1.7,0.5c0,0,0,0.2,0,0.5c-1.2,0.5-0.7-0.7-1.7,0.5c-0.5,0-0.7,0-1.2,0
		c0-0.5,0.2-1.2,0.5-1.7c1.2-0.2,0.5,0.2,1.2-0.5c-0.5,0-1.2-0.2-1.7-0.5c0,0.5,0,0.7,0,1.2c-3,0.2-2,0-1.7,3c0,0-0.2,0-0.5,0
		c0-0.5,0-0.7,0-1.2c-0.5,0-1.2,0.2-1.7,0.5c0-0.5,0-0.7,0-1.2c-0.5,0-1.2-0.2-1.7-0.5c0,0.5,0,0.7,0,1.2c-0.7,0.7-1.7,0-3,0.5
		c0,0,0,0.2,0,0.5c-1,0-2,0-3,0c0,0,0-0.2,0-0.5c0,0-0.2,0-0.5,0c0,0,0,0.2,0,0.5c-1.5,1-0.5,1.2-2.5,1.7c0,1,0,2,0,3
		c-1,0.5-1.7,0.7-2.5,1.2c-1,1.2,0.7,1-1.7,1.7c-0.2,2-1.2,4.5-1.7,6.4c0,2,0.2,3.7,0.5,5.5c-0.5,0-1.2,0-1.7,0c0-0.5,0-0.7,0-1.2
		c-0.5,2.5-4.7,0-6-0.5c0,0.5,0,0.7,0,1.2c0.5,0,0.7,0,1.2,0c-0.5,0.7-1,1-1.2,1.2c0,0.5,0,0.7,0,1.2c0,0-0.2,0-0.5,0
		c0,0.5,0.2,0.7,0.5,1.2c0,0-0.2,0-0.5,0c-0.7,0.7-0.2,0.5-1.2,0c0,0,0-0.2,0-0.5c-0.5,0-1.2,0-1.7,0c0,0,0-0.2,0-0.5
		c0.5,0,1.2,0,1.7,0c0-0.5,0-1.2,0-1.7c-1.5,0-1.5,0.2-2.5,0.5c-0.7-1.5-1-2.5-3-3c0,0,0-0.2,0-0.5c-1,0-2.2,0.2-3.5,0.5
		c0,0.5,0,0.7,0,1.2c-1-0.2-1-0.5-2.5-0.5c0,0,0-0.2,0-0.5c0.5,0,1.2,0,1.7,0c0,0,0-0.2,0-0.5c1.2-0.2,0.5,0.2,1.2-0.5
		c-1.7-0.5-3.7-0.2-4.7-1.7c-1,0-1.7,0-2.5,0c1.5-1.2-1.5-3-1.7-4.7c0.5,0,1.2,0,1.7,0c0,0,0-0.2,0-0.5c-0.5,0-0.7,0-1.2,0
		c0-0.5-0.2-0.7-0.5-1.2c0,0-0.2,0-0.5,0c0-1,0.2-2.2,0.5-3.5c0,0,0.2,0,0.5,0c0-0.5-0.2-1.2-0.5-1.7c0.2-0.5,0.7,0.2,0.5-0.5
		c0,0-0.2,0-0.5,0c0-0.5,0-0.7,0-1.2c0,0-0.2,0-0.5,0c0-0.5,0.2-0.7,0.5-1.2c0,0-0.2,0-0.5,0c-0.5-1-0.2-1-0.5-2.5
		c0,0-2.5,0-1.2-0.5c0,0,0.2,0,0.5,0c0,0,0-0.2,0-0.5c-0.5,0-0.7,0-1.2,0c-0.2-1.2,0.2-0.5-0.5-1.2c0-0.5,0-0.7,0-1.2
		c0.5,0,1.2,0.2,1.7,0.5c0-0.5,0-0.7,0-1.2c-1.2-0.2-0.5,0.2-1.2-0.5c0.5,0,0.7,0,1.2,0c0-1-0.2-2-0.5-3c-0.5,0-0.7,0.2-1.2,0.5
		c-0.7-1,0.5-0.5-0.5-1.2c0,0,0-0.2,0-0.5c0.5,0,0.7,0.2,1.2,0.5c0,0,0-0.2,0-0.5c0,0,0.2,0,0.5,0c0.2-0.7-0.7-0.5-1.2-1.2
		c0.5-0.5,0.7,0.2,0.5-0.5c-0.5,0-0.7,0-1.2,0c0-0.5,0.2-1.2,0.5-1.7c-0.5,0-1.2-0.2-1.7-0.5c0-0.5,0.2-0.7,0.5-1.2
		c-0.5-1.5-1-3.7-1.2-5.5c-2.5-0.5-0.5-0.5-1.7-1.7c0,0-0.2,0-0.5,0c-0.7,1.2-0.7,0.2-1.2-0.5c0,0-0.2,0-0.5,0
		c0-0.5,0.2-1.2,0.5-1.7c0,0,0.2,0,0.5,0c0-0.5-0.2-0.7-0.5-1.2c0,0,0.2,0,0.5,0c0,0,0-2.5-0.5-1.2c0,0,0,0.2,0,0.5c0,0-0.2,0-0.5,0
		c-0.2-1.2,0.2-0.5-0.5-1.2c0-1,0.2-2,0.5-3c-0.5,0-0.7,0-1.2,0c0,0,0-0.2,0-0.5c0,0,0.7-0.5,0.5-1.2c-0.5,0-0.7-0.2-1.2-0.5
		c0-1,0-1.7,0-2.5c-0.5,0-0.7-0.2-1.2-0.5c0-0.5,0.2-0.7,0.5-1.2c0,0-0.2,0-0.5,0c0-1-0.2-1.7-0.5-2.5c0.2-0.2,0.7,0.2,0.5-0.5
		c-0.2-0.2-1,0-1.2-1.7c-0.5,0-0.7,0-1.2,0c0-0.5,0.2-0.7,0.5-1.2c0,0,0.2,0,0.5,0c0-0.5-0.2-1.2-0.5-1.7c0,0-0.2,0-0.5,0
		c-0.2-0.7,0.5-1.2,0.5-1.2c0-0.5-0.2-0.7-0.5-1.2l0.5-0.5c-0.5,0-0.7,0-1.2,0c-0.2-2.7-1-4.7-2.5-6c-0.7-0.5,0-0.2-1.2-0.5
		c-0.5-1-0.7-2.2-1.2-3.5c0.5,0,0.7,0,1.2,0c0-0.5,0-1.2,0-1.7c-0.5,0-0.7,0-1.2,0c0-3.7-1.7-6.2-3-8.9c0,0-0.2,0-0.5,0
		c0-0.5,0-1.2,0-1.7c-0.5,0-0.7-0.2-1.2-0.5c0,0,0-0.2,0-0.5c0,0,0.2,0,0.5,0c0,0,0-0.2,0-0.5c0,0-0.2,0-0.5,0
		c-0.5-2.2-0.2-0.7-1.7-1.7c0-0.5-0.2-0.7-0.5-1.2c-0.5,0-0.7,0.2-1.2,0.5c0-0.5,0-0.7,0-1.2c-0.5,0-0.7,0-1.2,0
		c0.2,0.7,0.5,1.5,0.5,3c0,0-0.2,0-0.5,0c0,1,0,2,0,3c0,0,0.2,0,0.5,0c0,0.5,0,0.7,0,1.2c0.5,0,0.7,0.2,1.2,0.5
		c0,0.5-0.2,1.2-0.5,1.7c0,0,0.2,0,0.5,0c0,0.5,0,1.2,0,1.7c0.5,0,0.7,0.2,1.2,0.5c0,0.5,0,1.2,0,1.7c0,0,0.2,0,0.5,0c0,1,0,2,0,3
		c0,0,0.2,0,0.5,0c0,0,0,0.2,0,0.5c0,0-0.2,0-0.5,0c0,0,0,0.2,0,0.5c0.7,0,1.2,0.2,4.2-2.2c0.7,1.2-0.5,2.5-0.5,3c0,0,0.2,0,0.5,0
		c0,0.5,0,1.2,0,1.7c0,0,0.2,0,0.5,0c0,1,0.2,1.7,0.5,2.5c0,0,0.2,0,0.5,0c0,1,0,1.7,0,2.5c0.5,0,0.7,0.2,1.2,0.5
		c0.5,1-0.5,3.5-0.5,3.5s0.2,0,0.5,0c0,0.2-0.5,1.7,0.5,1.2c0,0,0-0.2,0-0.5c0,0,0.2,0,0.5,0c0,1.5,0.2,2.7,0.5,4.2c0,0,0.2,0,0.5,0
		c0,0.5,0,1.2,0,1.7c0,0,0.2,0,0.5,0c0,0.5,0,1.2,0,1.7c0,0,0.2,0,0.5,0c0,0.5,0,1.2,0,1.7c0,0,0.2,0,0.5,0c0,1,0,2.2,0,3.5
		c0,0,0.2,0,0.5,0c0,0.5,0,0.7,0,1.2c0,0,0.2,0,0.5,0c0,1.5,0,2.7,0,4.2c0,0,0.2,0.2,0.5,1.2c0.5,0,0.7,0,1.2,0c0,1,0,2.2,0,3.5
		c0,0,0.2,0,0.5,0c0.2,0.7-0.5-0.2-0.5,0.5c0,1,0.2,2.2,0.5,3.5c0,0,0.2,0,0.5,0c0.5,1.7,0.7,1.7,3,1.7c-0.2,0.5-1.2,1.2-1.2,1.2
		c0,3,0.2,6,0.5,8.9c0.5,0.5,1.5,0.5,2.5,0.5c-0.5,0.7-0.7,0.7-1.2,1.2c0,0-0.2,0-0.5,0c-0.5,0.2,1.7,1.2,1.7,1.2
		c0,1-0.2,2.2-0.5,3.5c0,0.7,0.7-0.2,0.5,0.5c0,0-0.2,0-0.5,0c0,0,0,0.2,0,0.5c0.5,0,1.2,0,1.7,0c0,0.5,0,1.2,0,1.7c0,0,0.2,0,0.5,0
		c0,0,0,0.2,0,0.5c-1.2,0.5-1-0.2-1.2-0.5c0,0-0.2,0-0.5,0c0,0.5,0,1.2,0,1.7c0.5,0,0.7,0,1.2,0c0,0.5,0,0.7,0,1.2c0,0-0.2,0-0.5,0
		c0.5,0.5,0.7,1.2,1.2,1.7c0,0-0.2,0-0.5,0c-0.7,1.7-1,2,0.5,3c0,0,0,0.2,0,0.5c-0.5,0-0.7,0-1.2,0c0-0.5,0-0.7,0-1.2
		c-0.2,0-2.5-0.5-1.7,0.5c0,0,0.2,0,0.5,0c0,0,0,0.2,0,0.5c-0.5,0-1.2,0-1.7,0c0,0,0-0.2,0-0.5c0,0,0.2,0,0.5,0c0,0,0-0.2,0-0.5
		c-2-1.2-2.2,1.7-3-1.7c-1.5,0-2,0-3-0.5c0,0,0-0.2,0-0.5c-0.5,0-1.2,0-1.7,0c0-0.5,0.2-0.7,0.5-1.2c0,0-4.5-1.2-4.7-1.2
		c0-0.5,0-0.7,0-1.2c0,0-2.2-0.2-1.2,0.5c0,0,0.2,0,0.5,0c0,0,0,0.2,0,0.5c-0.2,0.5-2,0.7-1.7,1.7c0,0,0.5,0.2,0.5,1.2
		c0,0-0.2,0-0.5,0c0,0,0-0.2,0-0.5c0,0-0.2,0-0.5,0c0-1,0.2-1.7,0.5-2.5c0,0-0.2-0.2-0.5-1.2c-2,0-4-0.2-6-0.5c0,0,0,0.2,0,0.5
		c-0.5,0-1.2,0.2-1.7,0.5c0-0.5-0.2-0.7-0.5-1.2c0,0-0.2,0-0.5,0c0.5,2,1,2,1.2,4.2c-1.2-0.2-0.5,0.2-1.2-0.5c-0.5,0-0.7,0-1.2,0
		c0.5,1.2,1,1,1.2,2.5c-0.5,0-1.2,0.2-1.7,0.5c0,0,0-0.2,0-0.5c-0.5,0-1.2-0.2-1.7-0.5c0,0.5,0,0.7,0,1.2c2,0.2,3,1,4.7,1.7
		c0,0,0,0.2,0,0.5c1,0,1.2-0.5,2.5-0.5c0.7,1.7-0.5,1.5,1.2,2.5c0,0,0,0.2,0,0.5c1,0,1.7-0.2,2.5-0.5c0,0.5,0.2,0.7,0.5,1.2
		l-0.5,0.5c1.5,0,2.7-0.2,3.5,0.5c0,0.5,0,0.7,0,1.2c0,0.2,2-0.7,3-0.5c0.2,0,0.2,1.2,1.2,1.2c0-0.5,0.2-0.7,0.5-1.2
		c0.2,0,2.5-0.5,1.7,0.5c0,0-0.2,0-0.5,0c0,0,0,0.2,0,0.5c1,0,2.2,0.2,3.5,0.5c0.2-1.2-0.2-0.5,0.5-1.2c0.5,1.7,1,1.7,2.5,2.5
		c0,0.5,0,0.7,0,1.2c1.7,0.2,2.2,1,3.5,1.7c-0.5,0.7-1,1-1.7,1.2c0,0,0,0.2,0,0.5c0,0,0.2,0,0.5,0c0,0,0,0.2,0,0.5
		c0.5,0,1.2-0.2,1.7-0.5c0,0.5,0,0.7,0,1.2c1.5,0.5,1.2,0,1.7,1.7c0.5,0,0.7,0,1.2,0c0,0.5-0.2,0.7-0.5,1.2c0.5,0,0.7,0,1.2,0
		c0.5,1.7,1.7,5,3,6c0,0,0,0.2,0,0.5c-1.5,1-1.2-0.5-2.5,1.2c-0.2,0-1-0.2-0.5,0.5c0.5,0,0.7,0,1.2,0c0,0.5,0,1.2,0,1.7
		c0,0,0.2,0,0.5,0c0-0.5,0.2-1.2,0.5-1.7c0,0,0.2,0,0.5,0c0,0,0,0.2,0,0.5c0.5,0,1.2-0.2,1.7-0.5c0,0.5,0,1.2,0,1.7
		c-0.5,0-1.2,0-1.7,0c0,0.5-0.2,1.2-0.5,1.7c0,0-0.2,0-0.5,0c0,1,0.2,2,0.5,3c1,0,1.7-0.2,2.5-0.5c0,0.5,0,0.7,0,1.2
		c-0.5,0-0.7,0.2-1.2,0.5c0,1,1,0.7,1.2,1.2c0,1,0,1.7,0,2.5c2.2-0.2,1.2-0.2,3.5,0c0.2,1.2-0.2,0.5,0.5,1.2c0-0.5,0-0.7,0-1.2
		c1.5-0.5,1.2,0,1.7-1.7c0.5,0,0.7,0,1.2,0c0.2-3.5,0.7-6.4-1.7-8.4c0-1,0-2,0-3c-0.5,0-0.7,0.2-1.2,0.5c0-0.5-0.2-1.2-0.5-1.7
		c1-0.7,1.5-1,1.7-2.5c-0.5,0-0.7,0-1.2,0c-0.7-0.5,0.5-0.5,0.5-0.5c0-1,0-1.7,0-2.5c2.2,0.2,1.5,0.7,3.5,1.2c0-0.5,0-0.7,0-1.2
		c0.5,0,0.7,0,1.2,0c0,0.5,0,1.2,0,1.7c0.5-0.5,0,0.2,0.5-0.5c0.8,0,1.6,0,2.3,0c-0.4-0.7,0.6-0.6-0.3-1.5c0-0.2,0-0.5,0-0.5
		c0.5,0.2,1.2,0.5,1.7,0.5c-0.1,0.1-0.2,0.4-0.2,0.6c0.3,0.1,0.6,0.2,0.9,0.3c0.7-0.1,1.5-0.2,2.1-0.2c0-0.5,0-0.7,0-1.2
		c0.2,0,0.5,0,0.5,0c0,0.2,0,0.5,0,0.5c0.7,0,2.5-0.5,2.5-0.5c0,0.2,0,0.5,0,0.5c1,0.5,1,1.2,1.7,1.7c0,0.3,0,0.6,0,0.8
		c0.4-0.1,0.7-0.2,1-0.3v0c0,0,0,0,0,0c0,0,0,0,0,0c0,0,0-0.2,0-0.5c0.1,0,0.1,0,0.2,0c0.1-0.4,0.1-0.7,0.1-1.2c0.2,0,0.5,0,0.5,0
		c0.2,0.3,0.3,0.8,0.4,1.2c0.5,0,0.9,0,1.3,0c0,0,0-0.2,0-0.5c0,0,0.2,0,0.5,0c0.7-0.7-1.2-0.5-1.2-0.5s0-0.2,0-0.5
		c0.7-0.5,0.7-0.5,1.2-1.2c1.5,0,2,0.2,3,0.5c0,0,0,0.2,0,0.5c0,0-0.2,0-0.5,0c0,0,0,0.2,0,0.5c-0.7,0.7-0.5-1.2-0.5-1.2
		s-0.2,0-0.5,0c0,1-0.2,1.7-0.5,2.5c2.5,0.5,4,0.5,4.7,3c0.5,0,1.2,0,1.7,0c0.2,4.5,2.2,10.9,4.7,13.1c0.7,0.5,0,0.2,1.2,0.5
		c0,0.5,0.2,1.2,0.5,1.7c0,0,0.2,0,0.5,0c0,0.5,0,0.7,0,1.2c0.5,0,1.2-0.2,1.7-0.5c0,0.7-1,1.5-0.5,2.5c0,0,0.2,0,0.5,0
		c1.2,1.2,3.2,0.5,4.7,1.2c0,0.5,0.2,0.7,0.5,1.2c0.5,0,0.7,0,1.2,0c0.5,0.2,0.5,0.7,1.2,1.2c0.5-2,0.5-0.7,0-2.5
		c0.7,0.5,2.5,1.7,3,2.5c0,0,2.5,0,1.2-0.5c0-0.7-0.5,0.2-0.5-0.5c2.2,0.5,2.7,1.2,5.5,1.2c0.5,1,1,2.2,1.7,3c0,0,0,0.2,0,0.5
		c0,0,0.2,0,0.5,0c0-0.5,0-0.7,0-1.2c1.5,0.2,3.5,1.2,4.7,0c1,0,2,0,3,0c0-0.5-0.2-0.7-0.5-1.2c0.5,0,1.2,0.2,1.7,0.5
		c0,0.5,0,0.7,0,1.2c1,0,2,0,3,0c0,0,0-0.2,0-0.5c0,0,0.2,0,0.5,0c0,0,0,0.2,0,0.5c0.5,0,0.7,0,1.2,0c0-0.5,0-1.2,0-1.7
		c1,0,2.5,0.5,2.5,0.5s0-0.2,0-0.5c1,0,1.7,0,2.5,0c0,0,0,0.2,0,0.5c0.5,0,1.2,0,1.7,0c0,0.5,0.2,0.7,0.5,1.2c2.5,0,4.7,0,7.2,0
		c0,0,0-0.2,0-0.5c0.5,0,0.7,0,1.2,0c0.2-0.2,0.5-1,1.2-1.2c0,0.5,0.2,0.7,0.5,1.2l-0.5,0.5c0.5,0,0.7,0,1.2,0c0.5-1.7,0.2,0,0-1.7
		c1,0.5,2.2,0.7,3.5,1.2c0,0.5,0.2,0.7,0.5,1.2c0.7,0,1-1.5,3-1.2c0,0,0,0.2,0,0.5c0,0,0.2,0,0.5,0c0,0,0-0.2,0-0.5c1,0,1.7,0,2.5,0
		c0,0,0-0.2,0-0.5c0.7-0.2-0.2,0.2,0.5,0.5c1,0,2,0,3,0c0,0,0-0.2,0-0.5c1,0,2.2,0,3.5,0c0-0.5,0.2-0.7,0.5-1.2c1,0,1.7,0,2.5,0
		c0,0,0-0.2,0-0.5c2,0,4.2-0.2,6.4-0.5c0.2,0,0.2,0.7,1.2,0.5c0,0,0-0.2,0-0.5c0.5,0,1.2,0,1.7,0c0,0,0-0.2,0-0.5
		c0.2-0.2,2,1,3.5,0.5c0,0,0-0.2,0-0.5c0.5,0,0.7,0,1.2,0c0,0,0-0.2,0-0.5c0.5,0,1.2,0.2,1.7,0.5c0,0,0-0.2,0-0.5c0.5,0,1.2,0,1.7,0
		c0,0,0-0.2,0-0.5c0,0,0.2,0,0.5,0c0,0,0,0.2,0,0.5c0,0,0.2,0,0.5,0c0,0,0-0.2,0-0.5c0.7,0,1,0.5,2.5,0.5c0-0.5,0.2-1.2,0.5-1.7
		c0,0,2.5,0,1.2-0.5c0-0.7-0.5,0.2-0.5-0.5c3-0.5,6-0.7,8.9-1.2c0.2-1.2-0.2-0.5,0.5-1.2c0.7-0.5,0-0.2,1.2-0.5
		c-0.7,0.5,0,0.2-1.2,0.5c2,2.2,4.7,0.2,6,0c0.5,0,1.2,0.2,1.7,0.5c0-0.5,0.2-0.7,0.5-1.2c1.7-0.5,1.2,2,3.5-0.5c0,0,0.2,0,0.5,0
		c0,0,0-0.2,0-0.5C809.7,326.9,808.7,327.1,807.7,327.4z M727.8,290.7c-1.2-0.2-0.5,0-1.2-0.5c0.5,0,0.7,0,1.2,0
		C727.8,290.4,727.8,290.7,727.8,290.7z M711.7,283.5c0.2,0,0.5,0,0.5,0c0,0.5,0,0.7,0,1.2c-0.2,0-0.5,0-0.5,0
		C711.7,284.2,711.7,284,711.7,283.5z M634.3,295.4c-0.5,0-1.2,0-1.7,0c0-0.2,0-0.7,0-1c0.5,0.2,1.2,0.5,1.7,0.5
		C634.3,295.2,634.3,295.4,634.3,295.4z M634.8,294.4c-0.2,0-0.5,0-0.5,0c0-0.5,0-0.7,0-1.2c0.2,0,0.5,0,0.5,0
		C634.8,293.7,634.8,293.9,634.8,294.4z M773.2,328.4c-0.2,0-0.5,0-0.5,0c0,0.2,0,0.5,0,0.5c-1,0-1.5,0-2,0c0-0.5,0-0.7,0-1.2
		c1.5,0,1.5-0.2,2.5-0.5C773.2,327.6,773.2,327.9,773.2,328.4z"/>
	<path d="M555.4,312.3c-0.5,0-1.2,0-1.7,0c1.2-1.2-1.2-3-1.2-5.5c0.5,0,0.7,0,1.2,0c0-1.2,0.5-2.2,0.5-2.5l-0.5-0.5l0.5-0.5
		c-0.5,0-0.7,0-1.2,0c0,0,0-0.2,0-0.5c-2-1-1.5,1-2.5-1.7c-1.5-0.5-1.2,0-1.7-1.7c-0.5,0-0.7,0-1.2,0c0-0.5,0-1.2,0-1.7
		c-0.5,0-1.2-0.2-1.7-0.5c-0.5-2.7-0.7-2.2,0.5-4.2c-0.5,0-0.7,0-1.2,0c-0.5-1.7-0.7-2-2.5-2.5c0-0.5,0-0.7,0-1.2c0,0-0.2,0-0.5,0
		c0,0,0,0.2,0,0.5c-0.5,0-1.2,0.2-1.7,0.5c-0.7-2-0.5-2.7,0-4.2c-1,0-2-0.2-3-0.5c0.7-1.2,1-1,1.2-3c-0.5,0-0.7,0-1.2,0
		c0-1,0.2-1.7,0.5-2.5c-0.5,0-0.7,0-1.2,0c-0.2-1.2,0.2-0.5-0.5-1.2c0,0,0-0.2,0-0.5c-1,0.5-1.7,0.7-2.5,1.2
		c-0.5-0.7-0.7-0.7-1.2-1.2c0,0-0.2,0-0.5,0c0-1,0.2-1.7,0.5-2.5c0,0-0.2,0-0.5,0c-0.2-0.2,0.2-1-0.5-0.5c0,0,0,0.2,0,0.5
		c-1.2,0-0.5,0-1.2-0.5c0,0-0.2,0-0.5,0c0.6-1,0.7-1,0-1.4c0,0.1,0,0.1,0,0.2c-0.2,0-0.5,0-0.5,0c-0.2-0.2-0.3-0.4-0.5-0.5l0,0
		c0,0-0.2,0-0.5,0c0,0,0-0.2,0-0.4c-0.9-0.4-0.8,0.9-2,0.4c0-0.2,0-0.5,0-0.5c0.2,0,0.5,0,0.5,0c0.1-0.1,0.1-0.2,0.2-0.3
		c-1.3-0.1-1.6,0.4-2.9-1c0,0-0.2,0-0.5,0c0-0.5,0-1.2,0-1.7c-1.2-0.2-0.5,0.2-1.2-0.5c0,0-0.2,0-0.5,0c0,0,0-0.2,0-0.5
		c1.2-1,3.7,0.5,4.2,0.5c0,0,0-0.2,0-0.5c1,0,1.7,0,2.5,0c0,0,0-0.2,0-0.5c-0.5,0-0.7,0-1.2,0c0,0,0-0.2,0-0.5l-0.5,0.5l-0.5-0.5
		c0,0-0.2,0-0.5,0c0,0,0,0.2,0,0.5c-1,0-2.2,0-3.5,0c0-1-0.2-2-0.5-3c-0.9-0.1-1.4-0.3-1.9-0.5c-0.9-0.2-0.3,0-1-0.5c0,0,0,0,0.1,0
		c-0.2-0.1-0.4-0.2-0.6-0.2c0,0,0-0.2,0-0.5c0,0-0.2,0-0.5,0l0.5-0.5c0-0.5-0.2-1.2-0.5-1.7c-0.5,0-1.2-0.2-1.7-0.5
		c0-0.5,0-0.7,0-1.2c-1,0-2.2,0-3.5,0c0-0.5,0.2-1.2,0.5-1.7c-0.5,0-1.2-0.2-1.7-0.5c0-0.5,0-1.2,0-1.7c-1,0-2,0.2-3,0.5
		c0-0.5-0.2-0.7-0.5-1.2c-0.5,0-0.7,0-1.2,0c0,0,0-0.2,0-0.5c-1-0.5-1.2-0.2-2.5-0.5c0-0.5,0-0.7,0-1.2c-2.7-0.2-3.7-1.7-7.2-1.7
		c0,0.5,0,0.7,0,1.2c-0.5,0-0.7,0-1.2,0c-0.2-1.2,0.2-0.5-0.5-1.2c0,0,0-0.2,0-0.5c1,0,1.7,0,2.5,0c0,0,0-0.2,0-0.5
		c-0.5,0-1.2-0.2-1.7-0.5c0,0,0,0.2,0,0.5c-0.2,0-2.5,0.5-1.7-0.5c0,0,0.2,0,0.5,0c0,0,0-0.2,0-0.5c-1.5,0-2.7,0.2-4.2,0.5
		c0-0.5,0-0.7,0-1.2c-2,0.5-2.2,1.2-4.2,1.7c0,2,0.2,3.7,0.5,5.5c-2,0.2-1.5,0-3,0.5c-0.7-1.2-2.5-1.7-3.5-3c0-0.5,0-0.7,0-1.2
		c-0.2-0.5-1-0.2-1.2-1.2c0,0,0.2,0,0.5,0c0,0,0-0.2,0-0.5c0,0-0.2,0-0.5,0c0-0.5,0-0.7,0-1.2c0,0-0.2,0-0.5,0c0-0.5,0-1.2,0-1.7
		c-0.5-0.5-1.2-0.7-1.7-1.2c-0.5-0.7,0.2-0.2,0.5-0.5c0,0,0-0.2,0-0.5c0,0-0.2,0-0.5,0c0-1,0-2,0-3c-0.2-0.5-0.7,0-1.2-1.7
		c-0.5,0-0.7,0-1.2,0c0-1.5,0.2-1.5,0.5-2.5c-0.5,0-0.7,0-1.2,0c0,0.2,0,0.7-1.2,0.7c-0.5,0-0.7,0-1.2,0c0,0.5,0,1.2,0,1.7
		c0,0-0.2,0-0.5,0c0.7,0.5,0,0.2,1.2,0.5c0,0.5,0,0.7,0,1.2c-1-0.5-1.5-1-3-1.2c0,4,1,5.5,1.2,8.9c0.5,0,0.7,0,1.2,0
		c0.2,0.2-0.7,1.5-0.5,2.5c0,0,0.2,0,0.5,0c0,1,0,1.7,0,2.5c0,0,0.2,0,0.5,0c0.5,1.5,0,1.2,1.7,1.7c0,1.5,0.2,2.7,0.5,4.2
		c0,0,0.2,0,0.5,0c0,0.5-0.2,1.2-0.5,1.7c0.5,0,0.7,0.2,1.2,0.5c0,0.5,0,0.7,0,1.2c0,0,0.2,0,0.5,0c0.2,0.5-0.7,1,0,2.5
		c0.5,0,0.7,0.2,1.2,0.5c0,0.5,0,1.2,0,1.7c0.5,0,0.7,0.2,1.2,0.5c0,0.5,0,1.2,0,1.7c0.5,0,0.7,0.2,1.2,0.5c0,0.5,0,1.2,0,1.7
		c1,0.5,1.7,1.2,2.5,1.7c0,0,0,0.2,0,0.5c-0.5,0-0.7,0-1.2,0c0.5,3.5,0.7,7.2,1.2,10.7c0.5,0,0.7,0.2,1.2,0.5c0,1,0.2,1.7,0.5,2.5
		c0.5,0,0.7,0.2,1.2,0.5c0,0.5-0.2,0.7-0.5,1.2c0.5,0,0.7,0.2,1.2,0.5c0,0.5-0.2,0.7-0.5,1.2c0.5,0,1.2,0.2,1.7,0.5
		c1,2.2-1,5.7,0.5,7.2c0.5,2,1.2,2.2,3,3c0,0,0,0.2,0,0.5c1,0,1.7-0.2,2.5-0.5c0,1.5-0.2,2.7-0.5,4.2c0,0.7-0.5-0.2-0.5,0.5
		c0,0,0.2,0,0.5,0c0,0.5,0,1.2,0,1.7c1,0.5,1.7,1.2,2.5,1.7c0,1,0,2,0,3c0.5,0,0.7,0.2,1.2,0.5c0,0.5,0,0.7,0,1.2c0,0,0.2,0,0.5,0
		c0.5,1,0.2,1.2,0.5,2.5c0.5,0,0.7,0,1.2,0c0.2,4.7,2.7,6.7,3.5,11.4c0.5,0,0.7,0,1.2,0c0,0.5,0,0.7,0,1.2c0.5,0,0.7,0,1.2,0
		c0,2-0.2,2.7-0.5,4.2c1.2,0.2,0.5-0.2,1.2,0.5c0.2,0,1.2,2.7,1.2,4.7c1,0.5,2.2,0.7,3.5,1.2c0,0,0-2.2,0.5-1.2c0,0,0,0.2,0,0.5
		c0.5,0,1.2,0,1.7,0c0.5-0.5-0.2,0,0.5-0.5c-0.5-2-0.7-4-1.2-6c0,0-0.2,0-0.5,0l0.5-0.5c0-0.7-0.2,0.2-0.5-0.5c0-1,0-1.7,0-2.5
		c-0.5,0-0.7-0.2-1.2-0.5c0-0.5,0.2-0.7,0.5-1.2c-0.5-1.5-1.5-1.7-1.7-4.2c-0.5,0-0.7,0-1.2,0c0.2-1.2-0.2-0.5,0.5-1.2
		c-0.5-3.7-2.5-5.2-2.5-9.4c0,0-0.2,0-0.5,0c0,0.5,0,0.7,0,1.2c-0.5,0-0.7,0-1.2,0c0-1.5,0-2.7,0-4.2c0,0-0.2,0-0.5,0
		c0-0.5,0-0.7,0-1.2c0,0-0.2,0-0.5,0c0-1,0.2-2.2,0.5-3.5c0,0-0.2,0-0.5,0c0-0.5,0-0.7,0-1.2c-0.5,0-0.7-0.2-1.2-0.5
		c0-2-0.2-4-0.5-6c-0.5,0-1.2-0.2-1.7-0.5c-0.5-3-1.2-5.7-1.7-8.4c-1-0.5-1.7-1.2-2.5-1.7c0-0.5,0.2-1.2,0.5-1.7
		c-0.5,0-0.7-0.2-1.2-0.5c0-0.5,0-0.7,0-1.2c0,0-0.2,0-0.5,0c0-1,0-1.7,0-2.5c-0.5,0-0.7-0.2-1.2-0.5c0-0.5,0.2-0.7,0.5-1.2
		c-0.5,0-0.7-0.2-1.2-0.5c0-0.5,0.2-0.7,0.5-1.2c-0.5,0-1.2-0.2-1.7-0.5c0-0.5,0.2-1.2,0.5-1.7c-0.5,0-0.7-0.2-1.2-0.5
		c0-0.5,0-0.7,0-1.2c0,0-0.2,0-0.5,0c0-1,0-2.2,0-3.5c0,0-0.2,0-0.5,0c0-0.5,0-0.7,0-1.2c0,0-0.2,0-0.5,0c0-1,0-2,0-3
		c0,0-0.2,0-0.5,0c0-0.7,1-2,0.5-3.5c0,0-0.2,0-0.5,0c0-0.5,1.2-3.2,0.5-4.7c0,0-0.2,0-0.5,0c0,0,0-0.2,0-0.5c3,0.5,6,1.2,8.9,1.7
		c0,0.5,0,0.7,0,1.2c0,0,0.2,0,0.5,0c0,0,0-0.2,0-0.5c0,0,0.2,0,0.5,0c1,0.2,0.7,1,1.2,1.2c0.5,0,0.7,0,1.2,0c0,0,0,0.2,0,0.5
		c0.5,0,1.2,0,1.7,0c0.5,0.2,0.2,1.7,1.7,1.2c0,0,0-0.2,0-0.5c0,0,0.2,0,0.5,0c0,0.5-0.2,1.2-0.5,1.7c0.5,0,1.2,0.2,1.7,0.5
		c1,1,1.7,2,2.5,3c1,0,2.2,0.2,3.5,0.5c0,0.5,0.2,1.2,0.5,1.7c0.5,0,0.7,0.2,1.2,0.5c1,1.2-0.2,0.7,1.2,1.7c0,0.5,0,0.7,0,1.2
		c0.5,0,1.2,0,1.7,0c0,1,0.2,2,0.5,3c1.5,0.5,1.2,0,1.7,1.7c0.5,0,0.7,0,1.2,0c0.7,2.2,2.2,2.2,4.2,3c0,0.5,0,0.7,0,1.2
		c0.5,0,1.2,0,1.7,0c0,0.5-0.2,0.7-0.5,1.2c0.5,0,0.7,0.2,1.2,0.5c0,1,0.2,2.2,0.5,3.5c1,0,1.7,0,2.5,0c0,3.7,1.2,5,4.2,5.5
		c-0.2,1.2,0.2,0.5-0.5,1.2c0.5,1.5,0,1.2,1.7,1.7c0,1,0.2,1.7,0.5,2.5c1.5,0,3.2-0.2,4.7-0.5c0,0,0,0.2,0,0.5c-1,0-1.7,0-2.5,0
		c1,1.5,0.5,0.5,1.7,1.2c-0.7,1.2-0.7,1,0.5,1.2c0.5,2,1.2,3.5,2.5,4.2c-0.5,1.5-0.7,1.5-1.2,2.5c-0.5,0-0.7,0-1.2,0
		c0-0.5,0-0.7,0-1.2c-0.5,0-1.2,0-1.7,0c0,0,0,0.2,0,0.5c-1,0.5-4.2,2.2-6,1.7c0-0.5-0.2-0.7-0.5-1.2c-1,0-1.7,0-2.5,0
		c-0.7-0.2,0.2-0.2-0.5-0.5c-3.5-0.5-5,1-7.7,0c-0.5,0-1.2,0-1.7,0c0,0,0-0.2,0-0.5c-0.5,0-1.2,0-1.7,0c0.7,1,0,5,0,6
		c-1,0-2.2-0.2-3.5-0.5c0,0.5,0,0.7,0,1.2c0.2,0.2,1.2,0.2,1.2,1.2c0,0-0.2,0-0.5,0c0,0,0,0.2,0,0.5c1,0,1.7,0,2.5,0
		c0.2,1.2-0.2,0.5,0.5,1.2c0.2,0.2,3.2,0.5,5.5,0.5c0-0.5,0-0.7,0-1.2c2.7,0,6-0.5,7.2-1.7c0,0,2.5,0,1.2,0.5c0,0.7-0.5-0.2-0.5,0.5
		c1,0,2.2-0.2,3.5-0.5c0.5-0.2,0-1.5,1.7-1.2c0,0,0,0.2,0,0.5c0.5,0,1.2,0.2,1.7,0.5c0-0.5,0-0.7,0-1.2c0.5,0,0.7,0,1.2,0
		c0,0,0,0.2,0,0.5c1.5-0.5,2.7-0.7,4.2-1.2c0-0.5-0.2-0.7-0.5-1.2c0.5,0,1.2,0,1.7,0c0.5-0.2,0.2-1.7,1.7-1.2c0,0.5,0.2,0.7,0.5,1.2
		c0.5,0,0.7,0,1.2,0c0,0.5,0,0.7,0,1.2c2.2,0.5,2.2,1.5,2.5,3.5c1-0.2,1.2-0.7,2.5-0.5c0,0,0,0.2,0,0.5c0,0,0.2,0,0.5,0
		c0,0,0-0.2,0-0.5c0.5,0,1.2,0,1.7,0c0,0.5,0,1.2,0,1.7c-2-0.2-1.7,0-2.5-1.2c0,0-0.2,0-0.5,0c0,0.5,0,1.2,0,1.7c0.5,0,1.2,0,1.7,0
		c0,0.5,0,1.2,0,1.7c0,0,0.2,0,0.5,0c0.5-2,1-2.2,3-2.5C556.6,315.7,555.9,314,555.4,312.3z M483,257.4c1.2,0.2,0.5-0.2,1.2,0.5
		C483,257.7,483.7,257.9,483,257.4z M522.4,316.2c-0.2,0-0.5,0-0.5,0c0-0.2,0-0.5,0-0.5c-0.2,0-0.5,0-0.5,0c0-0.2,0-0.5,0-0.5
		c0.5,0,0.7,0,1.2,0C522.4,315.5,522.4,316,522.4,316.2z M525.9,315.7c-1,0.5-1.5-0.2-1.7-0.5c0.5,0,1.2,0,1.7,0
		C525.9,315.5,525.9,315.7,525.9,315.7z M540.8,310.5c1.2,0.2,0.5-0.2,1.2,0.5C540.8,310.8,541.5,311,540.8,310.5z M548.5,311
		c1.2,0.2,0.5-0.2,1.2,0.5C548.5,311.3,549.2,311.5,548.5,311z"/>
	<path d="M612.2,248c0,0.5,0,0.7,0,1.2c0.5,0,1.2,0,1.7,0c0,0,0-2.5-0.5-1.2c0,0,0,0.2,0,0.5c0,0-0.2,0-0.5,0c0-0.5,0-1.2,0-1.7
		c-0.5,0-0.7,0-1.2,0c-0.5-1.2,0-0.5-0.7-1.2c0,0,0-0.2,0-0.5c0,0-0.2,0-0.5,0c-0.5,1-0.7,1.7-1.2,2.5c-0.5,0-0.7,0-1.2,0
		C609.5,249,610.2,248.5,612.2,248z"/>
	<path d="M507.5,254.5c-0.5,0-0.7,0-1.2,0c0.7,0.5,0,0.2,1.2,0.5C507.5,255,507.5,254.7,507.5,254.5z"/>
	<path d="M519.9,265.1c0,0,0-0.2,0-0.5c-0.5,0-0.7,0-1.2,0c0.3,0.2,0.6,0.3,1,0.5C519.8,265.1,519.8,265.1,519.9,265.1z"/>
	<path d="M528.1,273.2c0.1,0.1,0.3,0.2,0.5,0.4l0.5-0.5c0,0.2,0,0.5,0,0.5c0.2,0.1,0.4,0.2,0.5,0.3c0-0.9,0-1.6,0-2.3
		c-0.7,0-1.2-0.2-1.7-0.2c-0.4,0.4-0.7,1-1,1.5c0.3,0,0.8,0.1,1.3,0.3C528.1,273.1,528.1,273.2,528.1,273.2z"/>
	<path d="M705.2,281.8L705.2,281.8c-0.3,0-0.5,0-0.7,0v0C704.7,281.8,705,281.8,705.2,281.8z"/>
	<path d="M707.9,284.2c0-0.5,0-0.7,0-1.2c0,0-0.2,0-0.5,0c0,0,0,0.2,0,0.5c0,0-0.2,0-0.5,0c0,0,0,0,0,0
		C707.7,284.2,707,283.7,707.9,284.2z"/>
	<path d="M618.9,284.7c-0.2,0.5-0.5,0.7-0.5,1.2c0.5,0,1.2,0,1.7,0C620.1,286,619.9,285.5,618.9,284.7z"/>
	<path d="M715.9,286c0,0,0-0.2,0-0.5c-0.5,0-0.7,0-1.1,0c0,0,0,0.1,0.1,0.1C715.3,285.9,714.8,285.7,715.9,286z"/>
	<path d="M566.3,300.4c0,0.1,0,0.2,0,0.2C566.5,300.5,566.4,300.4,566.3,300.4z"/>
	<path d="M564.8,287.7C564.8,287.7,564.8,287.8,564.8,287.7C564.9,287.7,564.9,287.7,564.8,287.7
		C564.9,287.7,564.8,287.7,564.8,287.7z"/>
	<path d="M630.8,314c-1.5,0-1.5-0.2-2.5-0.5c0,0.5,0,0.7,0,1.2c-2-0.2-4.2-0.5-7.2,0c0,0,0,0.2,0,0.5c0,0-0.2,0-0.5,0
		c0,0,0-0.2,0-0.5c-1.5-0.2-1.7,0.2-2.5,0.5c0-0.5-0.2-1.2-0.5-1.7c-1.7-0.5-1.7-1-3-1.7c0-0.5,0-0.7,0-1.2c-0.5,0-1.2,0-1.7,0
		c-0.5-2.5-1.5-2.5-1.7-5.5c-1.2-0.5-1.7-1.2-3.5-1.7c0.5-1.5,0.7-1.5,1.2-2.5c-1.7-0.7-3-1.2-5.5-1.2c0,1,0,1.7,0,2.5
		c0.5,0,0.7,0,1.2,0c-0.7,1-0.7-0.2-1.2,0.5c0,0,0,0.2,0,0.5c1.2,0.5,0.7,4.7,1.2,6.4c0,0,0.2,0,0.5,0c0,1,0,2,0,3
		c-0.5,0-0.7,0.2-1.2,0.5c0,0.5,0,0.7,0,1.2c0,0-0.2,0-0.5,0c-0.5,0.7-0.5,1.5-0.5,3c-2,0-3.7,0.2-4.2-1.2c0.7-0.2,0.5,0.2,0.5-0.5
		c-1.2,0.2-0.5-0.2-1.2,0.5c0,0-0.2,0-0.5,0c0-0.5,0.2-0.7,0.5-1.2c-1.2-1.2-2.5-1-3.5-2.5c0,0-0.2,0-0.5,0
		c-0.7-0.7,1.2-0.5,1.2-0.5s0-0.2,0-0.5c-0.5,0-1.2-0.2-1.7-0.5c-0.7-0.5,0.5-0.5,0.5-0.5c0-0.5-0.2-1.2-0.5-1.7
		c-0.5,0-0.7-0.2-1.2-0.5c0-1-0.2-1.7-0.5-2.5c-1-0.5-1.7-1.2-2.5-1.7c-0.5-1,0.5-1.7,0.5-1.7c0-0.5-0.2-1.2-0.5-1.7
		c0,0,0.2,0,0.5,0c0,0,0-0.2,0-0.5c-1.2-0.7-2,0.2-2.5,0.5l0.5-0.5c0,0,0-0.2,0-0.5c0,0-0.2,0-0.5,0c0-1,0.2-2,0.5-3
		c-0.5,0-1.2,0.2-1.7,0.5c0-0.5,0-0.7,0-1.2c-0.5,0-0.7,0-1.2,0c0,0.5,0,0.7,0,1.2c-0.5,0-1.2,0-1.7,0c0-1-0.2-1.7-0.5-2.5
		c0.5,0,1.2,0,1.7,0c0,0,0-0.2,0-0.5c0,0-0.2,0-0.5,0c0-0.5-0.2-0.7-0.5-1.2c-0.5,0-0.7,0-1.2,0c0,0.5-0.2,1.2-0.5,1.7
		c0,0-0.2,0-0.5,0c0,1.5,0,2.7,0,4.2c0,0,0,0.2,0,0.5c0,0-0.2,0-0.5,0c-0.7,2.7,1.2,6.7-1.7,9.4c0,1,0,2,0,3c-0.5,0-0.7-0.2-1.2-0.5
		c-0.7,0.5-0.7,2.2-1.2,3c0,0-0.2,0-0.5,0c-0.5,0.5-0.7,1.2-1.2,1.7h-0.5c0,0-0.2,0-0.5,0c0,0,0,0.2,0,0.5c-1,0-2-0.2-3-0.5
		c0-1,0-1.7,0-2.5c0,0,0.2,0,0.5,0c0,0,0-0.2,0-0.5c-0.5,0-0.7-0.2-1.2-0.5c0-0.5,0-0.7,0-1.2c0,0-0.2,0-0.5,0
		c-0.5-0.7-0.5-1.5-0.5-3c-0.5,0-0.7,0-1.2,0c0.2-1.2-0.2-0.5,0.5-1.2c0-1-0.2-2-0.5-3c0,0,1,0.2,0.5-0.5c-0.5,0-0.7,0-1.2,0
		c0,0,0-0.2,0-0.5c-1.2-1.2-1,0-1.2-2.5c0.2,0,0.4,0,0.5,0c-0.1-0.5-0.3-1.1-0.5-1.5c0,0,0.2,0,0.5,0c0,0,0-0.2,0-0.5
		c0,0-0.2,0-0.5,0c-0.2-1,0.5-1.2,0.5-1.2s0-0.2,0-0.5c0,0-0.2,0-0.5,0c0-1,0-2,0-3c0,0-0.2,0-0.5,0c0-0.5,0-0.7,0-1.2
		c0,0-0.2,0-0.5,0c-0.2-1,1.2-0.7,1.2-1.2c-0.5-1-0.7-2.2-1.2-3.4c-0.1,0.2-0.2,0.5-0.3,0.7c0,0-0.2,0-0.5,0
		c-0.2,0.7,0.5,1.2,0.5,1.2s0,0.2,0,0.5c0,0-0.2,0-0.5,0c0,1,0,2,0,3c0,0-0.2,0-0.5,0c0,0.5,0,1.2,0,1.7c0,0-0.2,0-0.5,0
		c0,3,0,6.2,0,9.4c0,0,0.2,0,0.5,0c0,1.5-0.2,3.2-0.5,4.7c0,0,0.2,0,0.5,0c0,0.5-0.2,1.2-0.5,1.7c0.5,0,0.7,0,1.2,0l-0.5,0.5
		c0,2,0.2,4.2,0.5,6.4c0,0,0.2,0,0.5,0c0,0.5-0.2,1.2-0.5,1.7c0.5,0,0.7,0.2,1.2,0.5c0,1-0.2,2-0.5,3c0,0,0.2,0,0.5,0
		c0.5,2,0.2,1.2,0,2.5c0.5,0,1.2,0.2,1.7,0.5c0,0-0.2-1,0.5-0.5c0.5,0.5-0.5,0.5,0.5,1.2c0-0.5,0-0.7,0-1.2c0.5,0,1.2,0,1.7,0
		c-0.5-1-0.7-1.7-1.2-2.5c0.5-0.5,0.5,0.2,0.5-0.5c0,0-0.2,0-0.5,0c0-0.5,0-0.7,0-1.2c1,0.7,1,0.2,1.2,1.7c2-1,3.7-1.7,5.5-2.5
		c0-0.5,0.2-1.2,0.5-1.7l-0.5-0.5c1.7-0.5,0-0.2,1.7,0c0.2-3,1-3,1.2-5.5c2.2-0.5,1.7-1.2,2.5-3c0.5,0,0.7,0,1.2,0
		c0.5-0.5-1.2-0.5-1.2-1.2c0.5,0,0.7-0.2,1.2-0.5c0-0.5-0.2-0.7-0.5-1.2c0,0,0.2,0,0.5,0c0-0.5,0-0.7,0-1.2c0,0,0.2,0,0.5,0
		c0-1-0.2-1.7-0.5-2.5c0,0,0.2,0,0.5,0c0,0,0-0.2,0-0.5c0,0,0.2,0,0.5,0l0.5,0.5c0,0.5-0.2,1.2-0.5,1.7c0.5,0,1.2,0.2,1.7,0.5
		c0.5,0.7-0.5,1.2-0.5,1.2c0,1.5,0.5,1.2,1.2,1.7c0,0,0,2.5,0.5,1.2c0,0,0-0.2,0-0.5c0,0,0.2,0,0.5,0c0.2,1,0.5,1,0.5,2.5
		c0.5,0,0.7,0,1.2,0c0,0.5,0,1.2,0,1.7c0,0,0.2,0,0.5,0c0,0-0.5-2.2,0.5-1.2c0,0,0,0.2,0,0.5c1.2,0.2,0.5-0.2,1.2,0.5
		c-1,0.5-1.7,0.7-2.5,1.2c0.2,1.7,0.2,2.2,1.2,3c0,0,0,0.2,0,0.5c0.5,0,1.2-0.2,1.7-0.5c0,0.5,0.2,0.7,0.5,1.2
		c0,0.5-0.2,0.7-0.5,1.2c0.5,0,0.7,0,1.2,0c0,0.5-0.2,0.7-0.5,1.2c0,0.7,0.7-0.2,0.5,0.5l-0.5,0.5c3.2-0.5,2.7-1,6-1.2
		c-0.2,1.5-0.5,1.7-1.2,2.5c0,1,0,1.7,0,2.5c0,0,0.2,0,0.5,0c0-0.5,0.2-1.2,0.5-1.7c1,0,2,0,3,0c0,0,0,0.2,0,0.5
		c0.5,0,1.2-0.2,1.7-0.5c0-0.5,0-0.7,0-1.2c0.5,0,1.2,0,1.7,0c0,0,0,0.2,0,0.5c0.5,0,0.7,0,1.2,0c-1.2-1.2,1-2.7,1.2-4.7
		c1.5,0,2.2-0.5,2.5-0.5c0,0,0,0.2,0,0.5c1,0.2,2.7,0.7,2.5,1.7c0,0.2-1-0.2-0.5,0.5c0,0,0.2,0,0.5,0c0,0.5,0.2,1.2,0.5,1.7
		c1.7,0.5,2.5,0.7,3,2.5c3.2,0.2,3.5,1,6.4,1.2c1-1.2,2.5-1.7,3.5-3c-1-0.2-1-0.5-2.5-0.5c0-0.5,0-0.7,0-1.2c1.5,0,3.2,0.2,4.7,0.5
		c0,0,0-0.2,0-0.5c-0.5,0-1.2,0-1.7,0c0,0,0-0.2,0-0.5c0.5,0,0.7,0,1.2,0c0-0.5,0-0.7,0-1.2c0.5,0,1.2,0,1.7,0c0,0,0,0.2,0,0.5
		c1,0,1.7,0,2.5,0c0,0,0-0.2,0-0.5c-1.7-0.5,0-0.2-1.7,0c0.7-1.5,1-3,3-3.5c0,0,0-0.2,0-0.5c-0.5,0-1.2,0-1.7,0
		C630.3,315.2,630.6,314.5,630.8,314z M567.6,321.7c0,0-0.2,0-1.2-1.2C566.6,320.7,568,321.2,567.6,321.7z M586.7,308
		c-0.2,0-0.5,0-0.5,0c0-0.5,0-0.7,0-1.2c0,0,0.2,0,0.5,0C586.7,307.3,586.7,307.6,586.7,308z M588.9,309c0.2-0.5,0.2-1,0.2-1.7
		c0.2,0,0.5,0,0.5,0c0.2,0.5,0.5,1.2,0.5,1.7C589.6,309,589.4,309,588.9,309z M628.3,315.2c0.2,0,0.5,0,0.5,0c0,0.5,0,0.7,0,1.2
		c-0.2,0-0.5,0-0.5,0C628.3,316,628.3,315.7,628.3,315.2z M626.6,315.7c-0.5,0-0.7,0-1.2,0c0,0.5,0,0.7,0,1.2c-0.2,0-0.5,0-0.5,0
		c-0.2-0.5-0.5-1.2-0.5-1.7c0.5,0,1.5,0,2.2,0C626.6,315.5,626.6,315.7,626.6,315.7z M629.6,318c-0.2,0-2.5,0.2-1.7-0.5
		c0.5-0.7,0.7,0.2,0.5-0.5c0.5,0.2,0.7,0.2,1.2,0.5C629.6,317.7,629.6,318,629.6,318z"/>
	<path d="M566.1,287.2c0,0-0.2,0-0.5,0c0,0,0-0.2,0-0.5c0,0-0.2,0-0.5,0c0,0.3-0.1,0.6-0.2,0.9C565.8,286.8,565.3,288.4,566.1,287.2
		z"/>
	<path d="M691.3,286.5c-0.5-0.5,0-0.2-1.2-0.5C690.8,286.5,690.1,286.2,691.3,286.5z"/>
	<path d="M613.4,290.2c0,0.5,0,0.7,0,1.2c1.2-0.5,0.5,0,1-0.7c0,0-0.2,0-0.5,0c0,0,0-0.2,0-0.5C613.9,290.2,613.7,290.2,613.4,290.2
		z"/>
	<path d="M723.1,293.2c-0.5,0-0.7,0-1.2,0c0,0,0,0,0,0c0,0,0,0,0,0c0.2,0.5,0.2,1.2,0.5,1.7c1,0,1.7-0.2,2.5-0.5c0-0.3,0-0.5,0-0.7
		c-0.5,0-1.1,0-1.7,0C723.1,293.4,723.1,293.2,723.1,293.2z"/>
	<path d="M487.2,294.9c-0.5,0-0.7,0-1.2,0c0.5,1.2,0,0.5,0.7,1c0,0,0-0.2,0-0.5c0,0,0.2,0,0.5,0
		C487.2,295.4,487.2,295.2,487.2,294.9z"/>
	<path d="M639.7,303.3c-0.2,0.2-0.5,0.7-0.5,1.2c0,0,0.2,0,0.5,0c0,0-0.2,1,0.5,0.5c0,0,0-0.2,0-0.5
		C641.5,303.8,640.5,304.1,639.7,303.3z"/>
	<path d="M643.2,306.8c0,0,0-0.2,0-0.5c-0.5,0-0.7,0-1.2,0C642.7,306.8,642,306.6,643.2,306.8z"/>
	<path d="M667.3,309.8c0.6,0,0.2,0.2,0.4-0.2c-0.2,0-0.3,0-0.5,0C667.2,309.6,667.2,309.7,667.3,309.8z"/>
	<path d="M667.8,309c0.2,0,0.4,0.1,0.5,0.1c0-0.2,0-0.3,0-0.4c-0.2,0-0.3-0.1-0.5-0.1C667.8,308.8,667.8,309,667.8,309z"/>
	<path d="M676,311c0-0.2,0-0.3,0-0.4c-0.2,0-0.3,0.1-0.5,0.1C675.6,310.8,675.8,310.9,676,311z"/>
	<path d="M673.5,310.3c0-0.1,0-0.3,0-0.5c0.2,0.1,0.4,0.2,0.6,0.3c0.2-0.5,0.4-1.1,0.4-1.5c-0.5,0-0.7,0-1.2,0c0,0.5,0,0.7,0,1.2
		c-0.1,0-0.2,0-0.2,0c0,0.2,0,0.4,0,0.5c-0.2,0-0.5,0-0.5,0c0-0.2,0-0.5,0-0.5c0,0,0,0,0,0c-1.1-0.1-1.8-0.2-2.4-0.4
		c1.4,1,1,1.5,3.4,1.7c0-0.1,0-0.2,0-0.2c-0.5-0.1-0.9-0.2-1.2-0.5C672.6,310.3,673,310.3,673.5,310.3z"/>
	<path d="M668.4,309.2c0.2,0,0.1,0,0.6,0.4c-0.3,0-0.5,0-0.7,0c0,0.4,0,0.9,0,1.5c0.5,0,0.7,0,1.2,0c0-0.5,0.2-1.2,0.5-1.7
		c-0.3-0.1-0.6-0.2-0.8-0.3C668.8,309,668.6,309.1,668.4,309.2z"/>
	<path d="M673,308.5c-0.5,0-0.7,0-1.2,0c0.5,1.2,0,0.5,0.7,1.2c0.2,0,0.3,0,0.5,0C673,309.4,673,308.9,673,308.5z"/>
	<path d="M676.9,310.3C676.9,310.3,676.9,310.3,676.9,310.3c0.5,0,0.7,0,1.2,0c0-0.1,0-0.3-0.1-0.5c-0.3,0-0.6,0-1,0
		C677.1,310,677,310.1,676.9,310.3z"/>
	<path d="M515.2,310.3c0,0,0-0.2,0-0.5c-0.5,0-0.7,0-1.2,0C514.7,310.5,514,310,515.2,310.3z"/>
	<path d="M541.5,315.7c0,0,0-0.2,0-0.5c-0.5,0-0.7,0-1.2,0C541,315.7,540.3,315.5,541.5,315.7z"/>
	<path d="M556.4,322.4c-0.5,0-0.7,0-1.2,0c0,0.5,0,1.2,0,1.7c0.5,0,1.2,0,1.7,0c0.2-2,0-1.7,1.2-2.5c0,0,0-0.2,0-0.5
		c-0.5,0-1.2,0-1.7,0C556.4,321.4,556.4,321.9,556.4,322.4z"/>
	<path d="M596.8,322.2c-1,0-1.7,0-2.5,0c0.2,1,0.5,2,0.7,3c0.5,0,0.7,0,1.2,0c0-1,0-1.7,0-2.5c0,0,0.2,0,0.5,0
		C596.8,322.7,596.8,322.4,596.8,322.2z"/>
	<path d="M705.2,338.8c0,0,0-0.2,0-0.5c-0.5,0-0.7,0-1.2,0C704.7,339.1,704,338.6,705.2,338.8z"/>
	<path d="M724.8,340c-0.7-0.5,0-0.2-1.2-0.5C724.3,340,723.6,339.8,724.8,340z"/>
	<path d="M179.1,298.8c-1.2-0.2-0.5,0.3-1.2-0.5c0.5,0,0.7,0,1.2,0c0-1-0.3-2-0.5-3c0,0,0.7-0.5,0.5-1.7c0,0-0.2,0-0.5,0
		c0-0.5,0-0.7,0-1.2c0,0-0.2,0-0.5,0c0-0.5,0.2-1.2,0.5-1.7c-0.5,0-0.7-0.2-1.2-0.5c0-0.5,0.2-0.7,0.5-1.2c-0.3-0.5-1.2-0.2-1.3-1.2
		c0.5,0,0.7,0,1.2,0c-0.5-1-0.8-1.7-1.3-2.5c0,0,0.2,0,0.5,0c0-0.7-0.2,0.3-0.5-0.5c0-0.5,0-0.7,0-1.2c0,0-0.2,0-0.5,0
		c-1.5-1.7-2-1.2-1.3-3.5c-0.5,0-0.7,0-1.2,0c0-0.5,0-0.7,0-1.2c1,0,1.7-0.3,2.5-0.5c-0.5-1.7-1-1.5-1.3-3.5c0.5,0,0.7,0,1.2,0
		c0,0,0-0.2,0-0.5c-0.5,0-0.7,0-1.2,0c0-0.5,0.2-1.2,0.5-1.7c0,0-0.2,0-0.5,0c0-0.5,0-0.7,0-1.2c-0.5,0-0.7-0.2-1.2-0.5
		c0-0.5,0-0.7,0-1.2c0,0-0.2,0-0.5,0c0,0,0-0.2,0-0.5c0.5,0,1.2,0.2,1.7,0.5c0.2-2.2,1-2-0.5-3c0-1,0-1.7,0-2.5c0,0-0.2,0-0.5,0
		c0,0,0,0.2,0,0.5c0,0-0.2,0-0.5,0c0,0,0-0.2,0-0.5c0,0-0.2,0-0.5,0c0,0,0-0.2,0-0.5c0,0,0.2,0,0.5,0c0-0.5-0.3-0.7-0.5-1.2
		c0,0,0.2,0,0.5,0c0,0,0-0.2,0-0.5c0,0-0.2,0-0.5,0c0,0,0-0.2,0-0.5c-0.5,0-1.2,0.3-1.7,0.5c0-0.5,0-0.7,0-1.2c0.5,0,1.2,0,1.7,0
		c0,0,0-0.2,0-0.5c1-1-0.5-3-0.6-6.4c-0.5,0-0.7,0-1.2,0c1.5-1.5-0.5-4-0.6-6.4c0,0-0.2,0-0.5,0c0,0.5,0,0.7,0,1.2
		c-0.5,0-0.7,0-1.2,0c0.5-0.5,0.7-1.2,1.2-1.7c-0.5,0-0.7,0-1.2,0c0-0.5,0.2-0.7,0.5-1.2c-0.3-0.7-0.7,0.3-0.5-0.5c0,0,0.2,0,0.5,0
		c0,0,0-0.2,0-0.5c0-0.2-1.5-0.2-2-1.5c0,0,0.2,0,0.5,0c0,0,0-0.2,0-0.5c-0.5,0-1.2,0-1.7,0c0-1,0-1.7,0-2.5c0,0,0.2,0,0.5,0
		c0,0,0-0.2,0-0.5c0,0-0.2,0-0.5,0c0-1-0.3-2.2-0.5-3.5c0,0-0.2,0-0.5,0c0-1-0.3-1.7-0.5-2.5c0,0-0.2,0-0.5,0c0-0.5,0-1.2,0-1.7
		c-0.5,0-0.7-0.2-1.2-0.5c0-1-0.3-2.2-0.5-3.5c-0.5,0-0.7,0-1.2,0c0-1-0.3-1.7-0.5-2.5c-0.5,0-0.7,0-1.2,0c-0.3-2.7-1.3-3.7-1.8-5.9
		c-0.5,0-0.7,0-1.1,0c-0.1,0.5-0.1,0.9-0.1,1.2c-0.2,0-0.5,0-0.5,0c-0.3-0.5-0.5-1.2-0.5-1.7c0.4,0,0.6,0,1,0c0-0.4,0-0.9,0-1.2
		c-1,0.5-2,0.8-3,1.3c0-0.5,0-0.7,0-1.2c0.5,0,0.7,0,1.2,0c0-1.2,0.5-2.2,0.5-2.5c0,0-0.2,0-0.5,0c-0.8-2-2-2.7-2.5-4.7
		c-0.5,0-1.2,0-1.7,0c0-0.5,0-0.7,0-1.2c-0.5,0-1.2,0-1.7,0c0-0.5,0.2-1.2,0.5-1.7c-1,0-2,0-3,0c0,0,0-0.2,0-0.5c0.5,0,1.2,0,1.7,0
		c-0.5-0.5,0.2,0-0.5-0.5c-0.8-1.5-1.8-2.5-3.5-2.9c0-0.5,0-1.2,0-1.7c-0.5,0-1.2,0-1.7,0c0-0.5,0-1.2,0-1.7c-3-0.7-1.8-2-3-2.9
		c0,0-0.2,0-0.5,0c-0.7,1.5-0.7,0-1.7,0c0,0,0,0.2,0,0.5c-0.5,0-0.7,0-1.2,0c-0.3-1-0.5-1.5-0.5-3c-0.5,0-0.7,0-1.2,0
		c0-0.5,0-1.2,0-1.7c0,0-0.2,0-0.5,0c0,0,0-0.2,0-0.5c0,0-0.2,0-0.5,0c0,0,0,0.2,0,0.5c0,0-0.2,0-0.5,0c0-0.5,0.2-0.7,0.5-1.2
		c-0.7-0.2,0.2-0.3-0.5-0.5c-1,0-2,0-3,0c0-0.5-0.3-0.7-0.5-1.2c-0.5,0-0.7,0-1.2,0c0-0.5-0.3-0.7-0.5-1.2c-0.5,0-0.7,0-1.2,0
		c0,0,0-0.2,0-0.5c-1-0.7-1.3-1-2.5-1.2c-0.5-1.2,0-0.5-1.3-1c0,0,0-0.2,0-0.5c-1.2-0.2-1.7,1-2.5,1.3c0-0.5-0.3-0.7-0.5-1.2
		c0,0,0.2,0,0.5,0c0.2-1.5,0-1-0.5-1.7c-0.3-0.2,0.2-0.7-0.5-0.5c-0.2,0,0.3,1-0.5,0.5c0-0.5-0.3-0.7-0.5-1.2c-1,0-2-0.2-3-0.5
		c0-0.5-0.3-0.7-0.5-1.2c-0.5,0-0.7,0.3-1.2,0.5c0-0.5-0.3-0.7-0.5-1.2c-1-0.5-2.2-0.7-3.5-1.2c0,0-0.2,1.2-1.2,1.3
		c-1,0-2.2-0.2-3.5-0.5c0,0,0,0.2,0,0.5c-1-0.2-1.5-2.2-3-1.7c0,0,0,0.2,0,0.5c0,0-0.2,0-0.5,0c0-0.5,0.2-0.7,0.5-1.2
		c-0.5,0-1.2,0.3-1.7,0.5l-0.7-0.5c0,0.5,0,0.7,0,1.2c-0.5,0-1.2-0.2-1.7-0.5c-0.5,0.7-0.7,1.2-1.2,1.7c0,0,0,0.2,0,0.5
		c1,0,1.7-0.3,2.5-0.5c0,0.5,0.3,0.7,0.5,1.2c0.5,0,1.2-0.3,1.7-0.5c0,0,0.3,0.5,1.2,0.5c0,0,0-0.2,0-0.5c0,0,0.2,0,0.5,0
		c0.5,0.5,0.8,1.2,1.3,1.7c0.7,0.2,0.7-1,1.2-1.3c0,0,0,0.2,0,0.5c1,0.5,1.7,0.7,2.5,1.2c0.5-0.5-0.3-0.5,0.5-0.5c0,0,0,0.2,0,0.5
		c0.5,0,0.7,0,1.2,0c0,0,0,0.2,0,0.5c1,0,1.7,0,2.5,0c0,0.5,0.3,0.7,0.5,1.2c0.5,0,0.7,0,1.2,0c0,0.5,0.3,0.7,0.5,1.2
		c0.5,0,0.7,0,1.2,0c0,0,0,0.2,0,0.5c0.5,0,1.2,0,1.7,0c0,0,0,0.2,0,0.5c1,0.7,1.7,1,3,1.2c0,0.5,0,0.7,0,1.2c1.5,0.5,2,1,3,1.7
		c0,0,0,0.2,0,0.5c0.5,0,0.7,0,1.2,0c0.3,0.2,0.5,0.7,1.3,1.7c0.5,0,1.2,0,1.7,0c0,0.5,0.3,0.7,0.5,1.2c0.5,0,1.2,0.2,1.7,0.5
		c0,0,0,0.2,0,0.5c0.5,0,1.2,0.2,1.7,0.5c1,3.2,2.8,2.2,4.3,4.2c0,0.5,0,0.7,0,1.2c2,2,4.3,3.9,6.5,5.9c0,0.5,0,0.7,0,1.2
		c0,0,0.2,0,0.5,0c0.8,1.2-0.2,0.7,1.3,1.7c0,0.5,0,0.7,0,1.2c1.2,0.2,0.5-0.3,1.2,0.5c0,0,0.2,0,0.5,0c0,0.5,0,1.2,0,1.7
		c0.5,0,0.7,0,1.2,0c0.8,2.2,2,2.7,2.5,5.4c0.5,0,0.7,0,1.2,0c0,0.5,0,1.2,0,1.7c0.5,0,1.2,0,1.7,0c0,0.5-0.2,0.7-0.5,1.2
		c0.5,0,0.7,0,1.2,0c0,1.5,0,1.7,0.5,2.5c0,0,0.2,0,0.5,0c0,0.5,0,0.7,0,1.2c0,0,0.2,0,0.5,0c0,1,0,2,0,3c0,0,0.2,0,0.5,0
		c0,0.5,0,0.7,0,1.2c0.5,0,0.7,0,1.2,0c1,2.5,1.8,4.7,2.6,7.2c0,0,0.2,0,0.5,0c0,0.5,0,1.2,0,1.7c0.5,0,0.7,0.2,1.2,0.5
		c0,0.5,0,1.2,0,1.7c0,0,0.2,0,0.5,0c0,0.5,0,0.7,0,1.2c0,0,0.2,0,0.5,0c0,0.5,0,1.2,0,1.7c0,0,0.2,0,0.5,0c0,0.5,0,0.7,0,1.2
		c0.5,0,0.7,0.2,1.2,0.5c0,2,0.3,4.2,0.6,6.4c0,0,0.2,0,0.5,0c0,0.5,0,0.7,0,1.2c0.5,0,0.7,0.2,1.2,0.5c0,1,0,1.7,0,2.5
		c0,0,0.2,0,0.5,0c0,1.5,0,2.7,0,4.2c0,0,0.2,0,0.5,0c0.8,2.5,0.3,4,0.1,5.5c0.5,0,0.7,0,1.2,0c-2.2,1.5,1,3,1.3,3.5
		c0.5,1-0.4,5.5-0.4,5.5c0.5,0,1.2,0.2,1.7,0.5c0,0.5-0.2,0.7-0.5,1.2c0.3,0.7,0.7-0.3,0.5,0.5c0,0-0.2,0-0.5,0c0,0,0,0.2,0,0.5
		c0,0,0.2,0,0.5,0c0,0,0,0.2,0,0.5c0,0-0.2,0-0.5,0c0,0,0,0.2,0,0.5c0.5,0,1,0.2-1.5,2c0,0.5-0.2,1.2-0.5,1.7c0,0,0.2,0,0.5,0
		c0,1,0,2.2,0,3.5c0,0-0.2,0-0.5,0c0,1.5-0.2,3.2-0.4,4.7c0,0,2.2-0.3,1.2,0.5c0,0-0.2,0-0.5,0c0,0,0,0.2,0,0.5
		c0,0.5,0.7-0.3,0.5,0.5c0,0-0.2,0-0.5,0c0,0.2-0.5,2.5,0.5,1.7c0.5-0.5-0.3-0.5,0.5-0.5c-0.5,1.5,0,2.2,0.1,4.7c-0.5,0-0.7,0-1.2,0
		c0,0.5,0,0.7,0,1.2c0.5,0,1.2,0.2,1.7,0.5c0,1.2-0.5,1-0.5,1.2c0,0,0,0.2,0,0.5c0,0,0.2,0,0.5,0c-0.2,1.2-0.7,1-1.7,1.3
		c0.7,0.5,0,0.2,1.2,0.5c0,1-0.2,1.7-0.5,2.5c0,0-0.2,0-0.5,0c0,0,0,0.2,0,0.5c0,0,0.2,0,0.5,0c0,1.5,0,2.7,0,4.2c0,0-0.2,0-0.5,0
		c0,0.5,0,0.7,0,1.2c0,0-0.2,0-0.5,0c0,0.5,0.3,1.2,0.5,1.7c0,0.2-0.7,0.3-0.5,1.2c0,0,0.7,0.2,0.5,1.7c0,0.5-0.2,0.7-0.5,1.2
		c0,0,0.2,0,0.5,0c0,2.5-2.2,2.5,0.1,4.7c0,0,0,0.2,0,0.5c-0.5,0-1.2,0-1.7,0c0.8,1,0.7-0.3,1.2,0.5c0,0,0,0.2,0,0.5
		c0,0-0.2,0-0.5,0c0,0.7,0-0.2,0.5,0.5c0,0,0,0.2,0,0.5c0,0-0.2,0-0.5,0c0,2,0,4,0.1,6c0,0-0.2,0-0.5,0c0,0.5,0,1.2,0,1.7
		c0,0-0.2,0-0.5,0c0,1.5,0.3,2.7,0.5,4.2c-0.5,0-0.7,0.3-1.2,0.5c0,2,0.3,4,0.6,5.9c0.5,0,0.7,0.2,1.2,0.5c0,0,0,0.2,0,0.5
		c-1.2,0.3-0.5-0.2-1.2,0.5c0,0-0.2,0-0.5,0c0-0.5,0-1.2,0-1.7c0,0-0.2,0-0.5,0c0,0.5,0,0.7,0,1.2c-0.5,0-0.7,0-1.2,0
		c0,1-0.2,2-0.5,3c0,0-0.2,0-0.5,0c0,1,0,2,0,3c0,0-0.2,0-0.5,0c-0.7,2.2,0,3-1.7,4.2c0.5,0.7,0.8,0.7,1.3,1.2c-0.5,0-0.7,0-1.2,0
		c0,0.5,0,1.2,0,1.7c-0.5,0-0.7,0-1.2,0c0,1,0,2,0,3c-0.5,0-0.7,0.3-1.2,0.5c0,0.5,0,1.2,0,1.7c-0.5,0-0.7,0.3-1.2,0.5
		c0,0.5,0,1.2,0,1.7c-0.5,0.5-1.2,0.8-1.7,1.3c-0.5,2-1.2,3.7-1.7,5.5c-1,0.5-1.7,0.8-2.5,1.3c0,1-0.2,1.7-0.5,2.5
		c-1.5,1-2.7,2.3-4.2,3.5c-0.5,0.7-0.5,2.2-1.2,3c-0.5,0-0.7,0-1.2,0c-0.5,1-1.2,1.7-1.7,2.5c-1.7,1.3-3,0.5-4.2,2.5
		c-1.5,0-3.2,0.3-4.7,0.5c-0.5,0-0.7-0.2-1.2-0.5c0,0,0,0.2,0,0.5c-1.5,0-3.2-0.2-4.7-0.4c0,0,0-0.2,0-0.5c-1,0-1.7-0.2-2.5-0.5
		c0,0,0-0.2,0-0.5c-1,0-1.7-0.2-2.5-0.5c-0.8-0.7,0-1.5-0.5-2.5c0,0-0.2,0-0.5,0c0-0.5-0.3-0.7-0.5-1.2c-0.5,0-1.2,0-1.7,0
		c0-0.5-0.3-0.7-0.5-1.2c0,0-0.2,0-0.5,0c0-0.5,0.2-1.2,0.5-1.7c-0.5,0-0.7-0.2-1.2-0.5c0-0.5,0-1.2,0-1.7c-0.5-0.5-1.2-0.7-1.7-1.2
		c0-0.5,0.2-1.2,0.5-1.7c-0.2,0-0.5,0-0.5,0c-0.3-0.5-0.5-1.2-0.5-1.7h0c-0.5-0.5-1.2-0.7-1.7-1.2c0-1,0-1.7,0-2.5
		c-0.5,0-0.7-0.2-1.2-0.5c0-1,0-1.7,0-2.5c0,0-0.2,0-0.5,0c0-0.5,0-0.7,0-1.2c0,0-0.2,0-0.5,0c0-0.5,0-0.7,0-1.2
		c-0.5-0.5-1.2-0.7-1.7-1.2c0-1,0-2,0-3c0,0-0.2,0-0.5,0c0-0.5,0-0.7,0-1.2c0,0-0.2,0-0.5,0c0-1,0-2.2,0-3.5
		c-0.5-0.5-1.2-0.7-1.7-1.2c0.2-1.2,0.5-1,0-2.5c0,0-0.2,0-0.5,0c-0.3-1,0.5-1.2,0.5-1.2c0-1-0.3-1.7-0.5-2.5c-0.5,0-0.7,0-1.2,0
		c1.5-1.3-0.8-2-0.5-3c0,0,0.2,0,0.5,0c0,0,0-0.2,0-0.5c0,0-0.2,0-0.5,0l0.5-0.5c0-0.5-0.3-1.2-0.5-1.7c0,0-0.2,0-0.5,0
		c0-0.5,0.2-0.7,0.5-1.2c0,0-0.2,0-0.5,0c0-2.5-0.1-4.7-0.1-7.2c0,0-0.2,0-0.5,0c-0.5-2.2,0.7-1.7,1.2-2.5c0-0.5-0.3-0.7-0.5-1.2
		c0,0,0.2,0,0.5,0c0,0,0-0.2,0-0.5c0,0-0.2,0-0.5,0c0,0,0-0.2,0-0.5c0,0,0.7-0.5,0.5-1.7c0,0-0.2,0-0.5,0c0-1,0-1.7,0-2.5
		c0,0-0.2,0-0.5,0c-0.5-1.5,0.7-2,0.5-2.5c-0.5,0-0.7-0.2-1.2-0.5c0-0.5,0.2-1.2,0.5-1.7c0,0-0.2,0-0.5,0c0-2.7-0.8-2.5-1.8-4.2
		c-1,0-2.2-0.2-3.5-0.5c0,0,0,0.2,0,0.5c0,0-0.2,0-0.5,0c0-0.5,0-0.7,0-1.2c-0.5,0-0.7,0.3-1.2,0.5l-0.5-0.5c-0.5,0.5,0.2,0-0.5,0.5
		c0.5,1.5,0.8,2.7,1.3,4.2c0.5,0,0.7,0.2,1.2,0.5c0,1-0.2,2-0.5,3c0,1,0.3,2.2,0.5,3.5c0,0-0.2,0-0.5,0c0,1,0,1.7,0,2.5
		c0,0-0.2,0-0.5,0c0,0,0,0.2,0,0.5c0,0,0.2,0,0.5,0c0,0,0,0.2,0,0.5c0,0-0.2,0-0.5,0c0,1,0,1.7,0,2.5c0,0,0.2,0,0.5,0
		c0.3,1.5-0.7,1.7-0.5,2.5c0,0,0.2,0,0.5,0c0,0,0,0.2,0,0.5c-0.5,0-0.7,0.3-1.2,0.5l-1.3-2.5c0.3,2.7-1.5,1.8,1.3,3.5
		c0,0,0,0.2,0,0.5c-0.5,0-1.2,0-1.7,0c0.5,1,0.8,2,1.3,3c-0.5,0-0.7,0-1.2,0c1,2.2-0.5,1.5-1.7,3c0,0,0,0.2,0,0.5c0,0,0.2,0,0.5,0
		c-0.5,2-1.2,3.7-1.7,5.5c0,1,0,1.7,0,2.5c0,0-0.2,0-0.5,0c0,0.5,0,0.7,0,1.2c0,0-0.2,0-0.5,0c-0.5,1.5,0.3,1.7,0.5,2.5
		c-0.5,0-0.7,0-1.2,0c0,1-0.2,2.2-0.5,3.5c0,0-0.2,0-0.5,0c0,0.5,0.3,0.7,0.5,1.2c-0.5,0-0.7,0.3-1.2,0.5c0,0.5,0.3,0.7,0.5,1.2
		c-0.5,0-0.7,0-1.2,0c-0.5,1.5-0.5,1.5-1.2,2.5c0,0-0.2,0-0.5,0c-0.5,1-0.7,2.2-1.2,3.5c-0.5,0-0.7,0.3-1.2,0.5c0,0.5,0,0.7,0,1.2
		c-1,1.5-2.2,1-2.9,3.5c-3.2,0.5-1.7,1.3-3.4,2.5c-1,0-1.7,0.3-2.5,0.5c0,0,0,0.2,0,0.5c-3,1-5.5-0.9-7.7-1.2c0-0.5-0.3-1.2-0.5-1.7
		c-0.5-0.5-1.2-0.7-1.7-1.2c0-0.5,0-1.2,0-1.7c0,0-0.2,0-0.5,0c-0.5-0.5-0.8-1.2-1.3-1.7c-1.2-0.2-0.5,0.3-1.2-0.5
		c0.5,0,0.7,0,1.2,0c0-1.5,0-2-0.5-3c0,0-0.2,0-0.5,0c0-0.5,0-1.2,0-1.7c0,0-0.2,0-0.5,0c0-0.5,0-1.2,0-1.7c0,0-0.2,0-0.5,0
		c0-1,0-1.7,0-2.5c-0.5-0.5-1.2-0.7-1.7-1.2c0-0.5,0.2-0.7,0.5-1.2c0,0-0.2,0-0.5,0c0-1.5-0.3-3.2-0.5-4.7c0,0-0.2,0-0.5,0
		c-0.8-1.7,0.7-4,0.4-4.7c0,0-0.2,0-0.5,0c0-0.5,0-0.7,0-1.2c0,0-0.2,0-0.5,0c0-1,0-1.7,0-2.5c0,0-0.2,0-0.5,0c0-1,0-1.7,0-2.5
		c0,0-0.2,0-0.5,0c0,0,0-0.2,0-0.5c0.2-0.5,0.7,0,0.5-1.2c0,0-0.2,0-0.5,0c-0.8-2-0.8-4.5-0.1-6.4c-0.5,0-0.7,0-1.2,0
		c0-2.7,0.9-4.5-0.1-6.4c-0.5,0-0.7-0.2-1.2-0.5c-0.5-1.2,0.5-1.7,0.5-1.7c0-2-0.3-4-0.6-5.9c0.5,0,0.7,0,1.2,0c0-1-0.3-2-0.5-3
		c0,0,0.2,0,0.5,0c0,0,0-0.2,0-0.5c-0.5,0-0.7-0.2-1.2-0.5c-0.5-1.5,0.5-1.7,0.5-2.5c-0.5,0-0.7-0.2-1.2-0.5c0-0.5,0.2-0.7,0.5-1.2
		c0,0-0.2,0-0.5,0c0,0,0-0.2,0-0.5c0.2-0.5,0.5,0.2,0.5-0.5c0,0-0.2,0-0.5,0c-0.8-3,1.4-3.7,1.2-5.5c0,0-0.2,0-0.5,0
		c0-1.5,0-2.7,0-4.2c-0.5,0-0.7-0.2-1.2-0.5c-0.3-0.5,1-3,0.4-4.7c0,0-0.2,0-0.5,0c0-1,0.2-2.2,0.5-3.5c0,0-0.2,0-0.5,0
		c0-0.5,0-1.2,0-1.7c0,0-0.2,0-0.5,0c0-1,0-2.2,0-3.5c0,0,0.2,0,0.5,0c0.2-1-0.5-1.2-0.5-1.2c0-0.5,0.2-0.7,0.5-1.2c0,0-0.2,0-0.5,0
		c0-0.7,0.3,0.2,0.5-0.5c0-2,0-3.7-0.1-5.5c0,0-0.2,0-0.5,0c0,0,0-0.2,0-0.5c0,0,0.2,0,0.5,0c0-1,0-2.2,0-3.5c0,0-0.2,0-0.5,0
		c0,0,0-0.2,0-0.5c0,0,0.2,0,0.5,0c0-1,0-2.2,0-3.5c0,0,0.2,0,0.5,0c0.4-6,0.6-12.2,1-18.4c1.2-4.5,2.1-10.2,3.3-14.4
		c0-1.5,0-2.7,0-4.2c0,0,0.2,0,0.5,0c0-0.5,0-1.2,0-1.7c0,0,0.2,0,0.5,0c0-0.5,0-0.7,0-1.2c0,0,0.2,0,0.5,0c0.5-3,1.2-6,1.6-8.9
		c0.5,0,0.7,0,1.2,0c0.5-1.5,0.7-2.7,1.2-4.2c0.5,0,0.7,0,1.2,0c0-1.5,0-2.7,0-4.2c0,0,0.2,0,0.5,0c0-2.7,0.2-4.5-1.3-5.4
		c-0.5-0.5,0.2,0-0.5-0.5c-0.5,0.7-1,1-1.2,1.3c0,0.5,0,0.7,0,1.2c0,0-0.2,0-0.5,0c0,0.5,0,1.2,0,1.7c-0.5,0-0.7,0.3-1.2,0.5
		c0,0.5,0,1.2,0,1.7c0,0-0.2,0-0.5,0c0,0.5-0.2,1.2-0.5,1.7c-0.5,0-0.7,0-1.2,0c0,1.5-0.2,2.7-0.5,4.2c0,0-0.2,0-0.5,0
		c0,1,0,1.7,0,2.5c0,0-0.2,0-0.5,0c0,1-0.2,1.7-0.5,2.5c0,0-0.2,0-0.5,0c0,0.5,0,1.2,0,1.7c0,0-0.2,0-0.5,0c0,1,0,1.7,0,2.5
		c0,0-0.2,0-0.5,0c0,0.6,0,1,0,1.5c0,0.1,0,0.1,0,0.2c0,0-0.2,0-0.5-0.1c-0.1,1-0.2,1.7-0.3,2.5c0,0-0.2,0-0.5-0.1
		c0,0,0,0.2-0.1,0.5c0,0,0.2,0,0.5,0.1c0,0,0,0.2-0.1,0.5c0,0-0.2,0-0.5-0.1c0,0,0,0.2-0.1,0.5c0,0,0.2,0,0.5,0.1
		c0.1,1-0.6,1.2-0.6,1.2c-0.1,1,0,1.8,0.2,2.5c0,0-0.2,0-0.5-0.1c-0.1,0.5-0.1,1.2-0.2,1.7c0,0-0.2,0-0.5-0.1
		c-1.4,3.3,1,4.1-2.4,5.7c0.6,0.8,1.1,1.1,2.3,1.5c0,0.9,0,1.8,0,2.8c0,0-0.2,0-0.5,0c-0.1-0.3-0.1-0.6-0.2-0.9c0,0,0.2,0,0.5,0.1
		c0.1-0.5,0.1-0.7,0.1-1.2c-0.7-0.3-1.2-0.6-1.7-0.7c-0.9,1.6-2.7,7.9-2.4,9.2c0,0,0.2,0,0.5,0.1c0.1,1,0.1,1,0.2,2.5
		c1.9-1.5,1.8-4.3,0.2-5.5c0,0,0-0.2,0.1-0.5c0.5,0.1,0.7,0.3,1.2,0.6c0.1-1.2,0.8-2.2,0.8-2.4l-0.4-0.6c0.5,0.1,0.7,0.1,1.1,0.1
		c0,2.6-0.2,5.1-0.4,7.6c0,0-0.2,0-0.5,0c0,2,0,4.2,0.1,6.4c0,0.2-0.7,0.3-0.5,1.2c0,0,0.7,0.5,0.5,1.7c0,0-0.2,0-0.5,0
		c0,1,0,1.7,0,2.5c0,0-0.2,0-0.5,0c0,2.5,0.1,5.2,0.1,7.7c0.1,6,0.1,12.2,0.2,18.4c0,1,0.3,2.2,0.5,3.5c0,0-0.2,0-0.5,0
		c0,0.5,0.3,1.2,0.5,1.7c0,0.7-0.7-0.2-0.5,0.5c0,0,0.2,0,0.5,0c0,1,0.3,1.7,0.5,2.5c0,0-0.2,0-0.5,0c0,2.5,0.1,5.2,0.1,7.7
		c0,0,0.2,0,0.5,0c0,3,0.1,6.2,0.1,9.4c0,0-0.2,0-0.5,0c0.5,1,0.8,1.7,1.3,2.5c-0.2,0.5-0.7,0-0.5,1.2c0,0,0.2,0,0.5,0
		c0,0.5,0,1.2,0,1.7c0,0,0.2,0,0.5,0c0,0,0,0.2,0,0.5c0,0-0.2,0-0.5,0c-0.2,1.2,0.5,1.7,0.5,1.7c0,0.5-0.2,0.7-0.5,1.2
		c0,0,0.2,0,0.5,0c0,0.5-0.2,1.2-0.5,1.7c0,0,0.7,0.2,0.5,1.7c0,0-0.2,0-0.5,0c0,0,0,0.2,0,0.5c0,0,0.2,0,0.5,0c0,0.5,0,1.2,0,1.7
		c0,0,0.2,0,0.5,0c0,0.5-0.2,0.7-0.5,1.2c0,0,0.2,0,0.5,0c0.6,5.9,1.4,11.9,1.9,17.8c2,5.4,3.8,10.6,5.6,16.1c0.5,0,0.7,0,1.2,0
		c0.5,3.7,3.5,4.4,4.3,7.6c2.5,0.7,3,2.7,6.5,2.9c0,0-0.2,2.2,0.5,1.2c0.2,0-0.3-1,0.5-0.5c0,0.5,0.3,0.7,0.5,1.2c0.5,0,1.2,0,1.7,0
		c0,0,0-0.2,0-0.5c0.5,0,1.2,0.2,1.7,0.5c0.5,0,0.7-0.3,1.2-0.5c0,0,0.8,1,1.3,1.2c1.2-2,1-0.3,2.5-1.3c0-0.5,0.2-1.2,0.5-1.7
		c0.5,0,1.2-0.3,1.7-0.5c1-1,1.7-2,2.4-3c1,0,1.7,0,2.5,0c0,0,0-0.2,0-0.5c1-0.5,1-0.3,2.5-0.5c0.5-1.7,0.7-1.2,1.2-3
		c0.5,0,0.7,0,1.2,0c0.5-1.5,0.5-1.5,1.2-2.5c0,0,0.2,0,0.5,0c-0.3-0.5-0.8-1.7,0-3c0,0,0.2,0,0.5,0c0.7-1,1-1.3,1.2-3
		c0.5,0,0.7,0,1.2,0c0.5-1.5,0-1.2,1.7-1.8c-0.8-1.7,0.2-0.5-1.7-0.5c0.5-0.5,0.7-1.2,1.2-1.7c0.5,0,1.2,0,1.7,0
		c0.2-0.3-1-1.5-0.5-2.5c0.5,0,0.7-0.3,1.2-0.5c0-1,0-1.7,0-2.5c0,0,0.2,0,0.5,0c0,0,0-0.2,0-0.5l-0.5-0.5c0.5,0,1.2-0.3,1.7-0.5
		c0,1,0,2,0,3c0.5,0,0.7,0.2,1.2,0.5c0,1,0,1.7,0,2.5c0,0,0.2,0,0.5,0c0,1,0.3,1.7,0.5,2.5c0,0,0.2,0,0.5,0c0,0.5,0,0.7,0,1.2
		c0,0,0.2,0,0.5,0c0,1,0,1.7,0,2.5c0.5,0,0.7,0.2,1.2,0.5c0,1,0.3,1.7,0.5,2.5c0,0,0.2,0,0.5,0c0,0.5,0,0.7,0,1.2c0,0,0.2,0,0.5,0
		c0,0.5,0,0.7,0,1.2c0,0,0.2,0,0.5,0c0,0.5,0,0.7,0,1.2l1.3,1.2c0,0.5,0,0.7,0,1.2c0.5,0,0.7,0.2,1.2,0.5c0,0.5,0,0.7,0,1.2
		c0.5,0.5,1.2,0.7,1.7,1.2c0,0.5,0,1.2,0,1.7c0,0,0.2,0,0.5,0c0,0.5,0,0.7,0,1.2c0,0,0.2,0,0.5,0c0.8,1,0.3,0.7,1.7,1.2
		c0,0.5,0,1.2,0,1.7c0.5,0,0.7,0,1.2,0c0,0.5,0.3,1.2,0.5,1.7c1,0,1.7,0,2.5,0c0.5,2.7,2,3,2.5,5.4c1,0,1.7,0.2,2.5,0.5
		c0-0.5,0-0.7,0-1.2c1,0,1.7,0.2,2.5,0.5c0,0.5,0.3,0.7,0.5,1.2c3.5,0.5,6.7,0.7,10.2,1.1c0,0,0-0.2,0-0.5c2.7-0.8,4-1.5,7.2-1.8
		c0-1,0.2-1.7,0.5-2.5c1,0,2.2-0.3,3.5-0.5c0-0.5,0-0.7,0-1.2c0,0,0.2,0,0.5,0c0.5-0.5,0.7-1.2,1.2-1.7c0,0,0.2,0,0.5,0
		c0-0.5,0-0.7,0-1.2c0.5,0,0.7-0.3,1.2-0.5c0-0.5,0.2-1.2,0.5-1.7c0.5,0,0.7,0,1.2,0c0-0.5,0-0.7,0-1.2c3-0.8,2.7-2.8,5.4-3.5
		c0-0.5,0-1.2,0-1.7c0,0,2.2,0,1.2-0.5c0,0-0.2,0-0.5,0c0-0.5,0-1.2,0-1.7c0.5,0,1.2,0,1.7,0c0,0,0-0.2,0-0.5c0,0-0.2,0-0.5,0
		c0.5-2.7,1.7-1.8,2.9-3c0,0,0.2,0,0.5,0c0-0.5,0-1.2,0-1.7c0.5,0,0.7,0,1.2,0c0,0,0-0.2,0-0.5c-1.2-0.2-0.7,0.5-1.2-0.5
		c1,0,1.7-0.3,2.5-0.5c0-0.5,0-0.7,0-1.2c0,0-0.2,0-0.5,0c0-0.5,0.5-1.2,0.5-2.5c1.2-0.3,0.5,0.2,1.2-0.5c0,0,0.2,0,0.5,0
		c0-0.5-0.3-1.2-0.5-1.7c0.5,0,0.7,0,1.2,0c1-1,0-1,0-2.5c0.5,0,0.7,0,1.2,0c0-0.5,0-0.7,0-1.2c0,0,0.2,0,0.5,0
		c0.5-1.2-0.8-1.5-1.3-1.7c0-0.5,0.2-1.2,0.5-1.7c0,0,0.2,0,0.5,0c0-0.5,0-0.7,0-1.2c0.5,0,0.7-0.3,1.2-0.5c0-0.5,0-0.7,0-1.2
		c0.5-0.5,1.2-0.8,1.7-1.3c0-1,0-2.2,0-3.5c0,0,0.2,0,0.5,0c0-0.5-0.3-0.7-0.5-1.2c0.5,0,0.7-0.3,1.2-0.5c0.5-1-0.5-1.2-0.5-1.2
		c-0.3-0.7,0.5-1.2,0.5-1.2s0-0.2,0-0.5c0,0-0.2,0-0.5,0c0-1,0-2.2,0-3.5c0.5,0,1.2-0.3,1.7-0.5c0-1.5-0.3-3.2-0.5-4.7
		c0.5,0,0.7,0,1.2,0c0-2,0.2-2.7,0.5-4.2c-0.5,0-0.7,0-1.2,0c0-0.5,0.2-0.7,0.5-1.2c0,0,0.2,0,0.5,0c0,0,0-0.2,0-0.5
		c-0.5,0-1.2,0-1.7,0c0,0,0-0.2,0-0.5c0.5,0,0.7,0,1.2,0c0,0,0-0.2,0-0.5c-2-1.2,1-1.7,0-3.5c0,0-0.2,0-0.5,0c0,0,0-0.2,0-0.5
		c0.5,0,1.2,0.2,1.7,0.5c-0.3-2.2,0-2-1.8-2.5c0,0,0-0.2,0-0.5c0.5,0,1.2,0,1.7,0c-0.3-1-0.3-1.2-0.5-2.5c0,0-0.2,0-0.5,0
		c0,0,0-0.2,0-0.5c0,0,0.2,0,0.5,0c0-1.5,0-2.7,0-4.2c-0.5,0-0.7,0-1.2,0c0-1.5,0.2-3.2,0.4-4.7c0.5,0,0.7,0.2,1.2,0.5
		c0-1-0.3-2.2-0.5-3.5C178.7,301.5,179.4,301.5,179.1,298.8z M51.7,236.2c0-0.1,0-0.3,0-0.4c0.1,0.1,0.1,0.2,0.2,0.4
		C51.9,236.2,51.8,236.2,51.7,236.2z M51.9,234.3C51.9,234.3,51.9,234.3,51.9,234.3c0,0.2,0,0.4,0,0.7c0,0,0,0-0.1,0
		C51.8,234.7,51.9,234.5,51.9,234.3z M50.1,241.3c0,0,0.2,0,0.4,0.1c0,0.4,0,0.9,0,1.3c0,0,0,0,0,0c0-0.3,0-0.5,0-0.8
		c0,0-0.2,0-0.5-0.1C50,241.8,50,241.6,50.1,241.3z M50.3,244.4c0.1-0.3,0.1-0.6,0.2-0.9c0.1,0.1,0.2,0.3,0.1,0.9
		C50.5,244.4,50.4,244.4,50.3,244.4z M91.5,360.3c0.2-0.3,0.2-0.7,0.2-1c0.2,0,0.5,0,0.5,0c0.5,0.7,0,0,0.5,0.5c0,0.2,0,0.5,0,0.5
		C92.2,360.3,92,360.3,91.5,360.3z M167,342.9c0-0.5,0-1,0-1.7c0.2,0,0.5,0,0.5,0c0,0.5,0,1.2,0,1.7
		C167.2,342.8,167,342.9,167,342.9z M171.4,270.9c0.5-0.5,0.7-1.2,0.7-1.7c-0.2,0-0.5,0-0.5,0c0-0.5,0-0.7,0-1.2c0.2,0,0.5,0,0.5,0
		c0.3,1,0.5,2,0.5,3C172.1,270.9,171.9,270.9,171.4,270.9z M173.2,301.4c0-0.5,0-0.7,0-1.2c0.2,0,0.2,0,0.5,0c0,0.5,0,0.7,0,1.2
		C173.5,301.4,173.2,301.4,173.2,301.4z"/>
	<path d="M111.7,175.3c-0.5-0.1-1,0.1-2.1,0.5l-0.4-0.6c0,0,0,0.2-0.1,0.5c0,0-0.2,0-0.5-0.1c0,0,0,0.2-0.1,0.5c1,0.1,2,0.2,3,0.4
		C111.6,176,111.6,175.8,111.7,175.3z"/>
	<path d="M113.6,176c0,0,0-0.2,0.1-0.5c-0.5-0.1-0.7-0.1-1.2-0.1C113.1,175.9,112.4,175.6,113.6,176z"/>
	<path d="M98.8,174.2c-0.1,0.5-0.1,0.7-0.1,1.2c0,0,0.2,0,0.5,0.1C99.1,174.2,99.5,175,98.8,174.2z"/>
	<path d="M97.6,175.8c0,0-0.2,0-0.5-0.1c-0.1-1.3,0.3-0.5-0.3-1.3c-0.1,0.5-0.1,0.7-0.1,1.2c-1,0.4-0.5-0.1-1.5,0.3
		c1,0.1,1.7,0.2,2.5,0.3C97.6,176.3,97.6,176.1,97.6,175.8z"/>
	<path d="M102.7,175.2c-0.5-0.1-1.2-0.1-1.7-0.2c0,0.2-0.1,0.5-0.1,0.5c0.5,0.1,1.2,0.1,1.7,0.2
		C102.6,175.7,102.7,175.4,102.7,175.2z"/>
	<path d="M100.4,175.7c0,0.2-0.1,0.7-0.1,1.2c0,0,0.2,0,0.5,0.1C100.6,175.7,101.1,176.5,100.4,175.7z"/>
	<path d="M94.5,178.7c0.1-1,0.5-1.7,0.8-2.4c0,0-0.2,0-0.5-0.1c-0.8,0.4,0,0.2-1.1,0.6c0,0,0,0.2-0.1,0.5c0,0,0.2,0,0.5,0.1
		C94.3,178.7,93.9,177.9,94.5,178.7z"/>
	<path d="M91.6,178.1c0,0,0-0.2,0.1-0.5c-0.5-0.1-0.7-0.1-1.2-0.1C91.1,178,90.4,177.7,91.6,178.1z"/>
	<path d="M90.9,180c0.1-0.5,0.1-0.7,0.1-1.2c-0.5-0.1-1.2-0.1-1.7-0.2c-0.1,0.5-0.1,1-0.2,1.7C89.6,180.4,90.4,180.2,90.9,180z"/>
	<path d="M89,180.8c0,0,0-0.2,0.1-0.5c-0.5-0.1-0.7-0.1-1.2-0.1C88.5,180.7,87.8,180.4,89,180.8z"/>
	<path d="M86,181.2c0,0.2-0.1,0.7-0.1,1.2c0,0,0.2,0,0.5,0.1C86.2,181.2,86.6,182,86,181.2z"/>
	<path d="M84.5,183.5c0,0,0-0.2,0.1-0.5c-1.5-0.2-1.5,0.1-2.5,0.2c0,0,0,0.2-0.1,0.5c0.7,0.1,1.2,0.4,1.7,0.7
		C84.3,183.2,83.7,183.9,84.5,183.5z"/>
	<path d="M81.8,184.7c-0.5-0.1-1.2-0.1-1.7-0.2c0,0.2-0.1,0.5-0.1,0.5c0.5,0.1,1.2,0.1,1.7,0.2C81.8,185.2,81.8,184.9,81.8,184.7z"
		/>
	<path d="M77.3,186.6c-0.1,0.5-0.1,0.7-0.1,1.2c0,0,0.2,0,0.5,0.1C77.6,186.7,78,187.5,77.3,186.6z"/>
	<path d="M75.2,189.9c-0.5-0.1-0.7-0.1-1.2-0.1c-0.1,0.5-0.1,1-0.1,1.2c0.5,0.1,0.7,0.1,1.2,0.1C75.1,190.6,75.2,190.4,75.2,189.9z"
		/>
	<path d="M156,201.3c0,0,0-0.2,0.1-0.5c-0.5-0.1-0.7-0.1-1.2-0.1C155.5,201.5,154.8,200.9,156,201.3z"/>
	<path d="M73.2,192.1c0,0,0-0.2,0.1-0.5c-0.5-0.1-0.7-0.1-1.2-0.1C72.7,192.1,72,191.7,73.2,192.1z"/>
	<path d="M71.1,195.4c0,0,0-0.2,0.1-0.5c-0.5-0.1-0.7-0.1-1.2-0.1C70.5,195.6,69.9,195,71.1,195.4z"/>
	<path d="M66.2,200.3c-0.1,0.5-0.1,0.7-0.1,1.2c0,0,0.2,0,0.5,0.1C66.5,200.3,66.9,201.1,66.2,200.3z"/>
	<path d="M413.3,328.8c-0.5-0.1-1.3,0.1-1.8,0.3c0,0,0-0.2,0.1-0.5c-1-0.1-2.2-0.5-3.4-0.9c0,0,0-0.2,0.1-0.5
		c-1.9-0.7-4.1-1.2-6.3-2c-0.1-3-1.5-2.4-1.9-5c-0.5-0.1-0.7-0.1-1.2-0.1c0.1-0.5,0.1-1.2,0.2-1.7c-0.5-0.1-0.7-0.1-1.2-0.1
		c0.1-0.5,0.1-0.7,0.1-1.2c0.9-0.9,0.3-2.7-0.8-3.6c0-0.2,0.8-2.4-0.3-1.8c0,0,0,0.2-0.1,0.5c0,0-0.2,0-0.5-0.1
		c0.1-0.5,0.3-0.7,0.6-1.2c0,0-0.2,0-0.5-0.1c0,0,0-0.2,0.1-0.5c0,0,0.2,0,0.5,0.1c0.1-0.5,0.1-0.7,0.1-1.2
		c-0.5-0.1-0.7-0.1-1.2-0.1c0.4-1.2-0.2-0.5,0.6-1.2c0-2-0.1-1.5-0.9-2.6c0,0,0-0.2,0.1-0.5c-0.5-0.1-1.3,0.1-1.8,0.3
		c0.1-0.5,0.1-0.7,0.1-1.2c-1.3-1.7-1.5,0.1-2.2-2.8c-1-0.1-1.9-0.5-2.9-0.8c-0.2,1.5-0.3,2.7-0.5,4.2c0,0,0.2,0,0.5,0.1
		c-0.1,0.5-0.1,0.7-0.1,1.2c0,0,0.2,0,0.5,0.1c0.3,1.3-0.8,2.9-0.9,3.4c0,0,0.2,0,0.5,0.1c-0.1,1,0,2.2,0.1,3.5
		c-0.5-0.1-0.8,0.2-1.3,0.3c0,0,0,0.2-0.1,0.5c0,0,0.2,0,0.5,0.1c0,0,0,0.2-0.1,0.5c0,0-0.2,0-0.5-0.1c-0.2,2-0.4,3.7-0.6,5.4
		c0,0-0.2,0-0.5-0.1c-0.1,0.5-0.1,0.7-0.1,1.2c0,0-0.2,0-0.5-0.1c0,0,0,0.2-0.1,0.5c0,0,0.2,0,0.5,0.1c-0.2,1.5-0.6,1.2-0.6,1.2
		c-0.1,1-0.3,2.2-0.4,3.4c1.2,0.4,0.5-0.2,1.2,0.6c-1,0.1-1,0.4-2.5,0.2c-0.7,1.7-1,1.9-2.8,2.2c-0.1,0.5-0.1,0.7-0.1,1.2
		c-2.2-0.8-2-1.7-4.5-2.3c0.1-0.5,0.1-0.7,0.1-1.2c-0.5-0.1-0.7-0.3-1.2-0.6c-0.4-1,0.7-1.7,0.7-1.7c0.1-1,0-2-0.1-3
		c0,0,0.2,0,0.5,0.1c0.1-1,0.5-1.9,0.8-2.9c1.3-0.1,0.5,0.3,1.3-0.3c0,0,0.2,0,0.5,0.1c0.1-1,0.3-2.2,0.4-3.4c0,0,0.2,0,0.5,0.1
		c0,0,0-0.2,0.1-0.5c-0.5-0.1-0.7-0.1-1.2-0.1c1.1-3.1,1.2-1.9,1.1-5.4c0.5,0.1,0.7,0.1,1.2,0.1c0.1-1,0.2-2,0.4-3
		c-1.2-0.4-0.5,0.2-1.2-0.6c0,0-0.2,0-0.5-0.1c0.6-0.4,0.9-1.1,1.4-1.6c0,0-0.2,0-0.5-0.1c0.1-0.5-0.1-1.3-0.3-1.8
		c0,0,0.7,0.3,1.3-0.3c-0.5-0.1-0.7-0.1-1.2-0.1c0,0,0-0.2,0.1-0.5c0.5,0.1,0.7,0.1,1.2,0.1c0.1-0.5,0.1-0.7,0.1-1.2
		c0,0-0.2,0-0.5-0.1c0.1-1,0.2-2,0.4-3c0,0-0.2,0-0.5-0.1c0.2-1.5,0.4-3.2,0.6-4.7c0,0-0.2,0-0.5-0.1c0.1-1,0-2-0.1-3
		c-0.5-0.1-0.7-0.3-1.2-0.6c-0.3-1.3,1.8-2.3,1-4.1c-0.5-0.1-1.2-0.4-1.7-0.7c1.2-1.4,0.5-1.7-0.1-3c0,0-0.2,0-0.5-0.1
		c0.1-1,0.2-1.7,0.3-2.5c0,0,0.2,0,0.5,0.1c0.1-1,0-1.8-0.2-2.5c-0.5-0.1-1.2-0.1-1.7-0.2c0.1-0.5,0.1-1.2,0.2-1.7
		c-0.5-0.1-0.7-0.1-1.2-0.1c0.2-2,0.2-3.7-0.7-4.8c0.4-3-0.4-2.6-1.2-4.4c0.1-0.5,0.1-0.7,0.1-1.2c-0.5-0.1-0.8,0.2-1.3,0.3
		c0.1-0.5,0.3-0.7,0.6-1.2c0,0-0.2,0-0.5-0.1c-0.6-1.1-0.9-1.1-0.9-2.6c-0.5-0.1-1.2-0.1-1.7-0.2c-0.3-1.5-0.4-2.8-0.7-4.3
		c0,0-0.2,0-0.5-0.1c-0.6-1.1-0.8-1.3-0.9-2.6c-1.7-0.7-1.9-1-2.2-2.8c-1-0.1-1.7-0.5-2.4-0.8c0.4-1-0.2-0.5,1-0.4
		c0,0,0-0.2,0.1-0.5c-0.5-0.1-1.2-0.4-1.7-0.7c0.1-1,0.2-1.7,0.3-2.5c0,0-0.2,0-0.5-0.1c0.1-0.5-0.2-0.8-0.3-1.3
		c-0.5-0.1-0.7-0.1-1.2-0.1c0,0,0-0.2,0.1-0.5c0,0-0.2,0-0.5-0.1c-0.1,0.5-0.1,1.2-0.2,1.7c-0.5-0.1-0.8,0.2-1.3,0.3
		c-0.1,0.5-0.1,1.2-0.2,1.7c-0.5-0.1-0.8,0.2-1.3,0.3c-0.1,0.5-0.1,1.2-0.2,1.7c0,0-0.2,0-0.5-0.1c0,0,0,0.2-0.1,0.5
		c0,0,0.2,0,0.5,0.1c-0.2,1.5-0.6,2.7-1,4.1c0.3,1.5,1.3,3.4,0.6,5.6c0,0-0.2,0-0.5-0.1c-0.1,0.5,0.1,1.3,0.3,1.8
		c0,0.2-0.8,0.2-0.6,1.2c0,0,0.5,0.3,0.3,1.3c-0.1,0.7-0.5-0.3-0.6,0.4c0,0,0.2,0,0.5,0.1c-0.1,1,0,2.2,0.1,3.5c0,0,0.2,0,0.5,0.1
		c-0.2,2-0.2,4-0.2,6l-0.6,0.4c0.5,0.1,0.7,0.3,1.2,0.6c-0.1,1-0.3,2.2-0.4,3.4c0,0,0.2,0,0.5,0.1c-0.1,0.5-0.1,0.7-0.1,1.2
		c0.5,0.1,0.7,0.3,1.2,0.6c0.4,0.8-0.3,0.2-0.6,0.4c-0.1,0.7,0.3-0.2,0.4,0.6c-0.1,0.5-0.1,1.2-0.2,1.7c0,0,0.2,0,0.5,0.1
		c-0.1,0.5-0.1,0.7-0.1,1.2c0,0,0.2,0,0.5,0.1c-0.1,0.5-0.3,0.7-0.6,1.2c0.5,0.1,0.7,0.3,1.2,0.6c-0.1,1-0.2,2-0.4,3
		c0.5,0.1,0.7,0.1,1.2,0.1c-0.6,0.7-1.3,0.8-1.4,1.1c-0.1,0.5,0.1,1.3,0.3,1.8c0,0,0.2,0,0.5,0.1c-0.1,1-0.2,2-0.4,3
		c0,0,0.2,0,0.5,0.1c-0.1,1,0,1.8,0.2,2.5c0,0,0.2,0,0.5,0.1c-0.1,1,0,2,0.1,3c0,0,0.2,0,0.5,0.1c-0.1,0.5-0.1,0.7-0.1,1.2
		c0,0,0.2,0,0.5,0.1c0.4,1-0.9,3.4-0.9,3.4c0.5,0.1,0.7,0.3,1.2,0.6c0.5,1.8-0.3,2.2-0.5,4.2c0.5,0.1,1.2,0.1,1.7,0.2
		c0.3,2,0.8,4.1,1,6.1c0.5,0.1,0.7,0.3,1.2,0.6c0.7,2.1-0.8,2.9-0.6,4.7c0,0,0.2,0,0.5,0.1c-0.1,0.5-0.1,0.7-0.1,1.2
		c0,0,0.2,0,0.5,0.1c-0.1,0.5-0.1,0.7-0.1,1.2c0,0,0.2,0,0.5,0.1c-0.1,0.5-0.1,0.7-0.1,1.2c0.5,0.1,0.7,0.3,1.2,0.6
		c0,0,0,0.2-0.1,0.5c0,0-0.2,0-0.5-0.1c0,0,0,0.2-0.1,0.5c0,0,0.2,0,0.5,0.1c0,0,0,0.2-0.1,0.5c0,0-0.2,0-0.5-0.1
		c-0.1,1-0.2,1.7-0.3,2.5c-0.5-0.1-0.8,0.2-1.3,0.3c-0.1,1-0.5,2.2-0.9,3.4c-0.5-0.1-0.7-0.1-1.2-0.1c-0.1,1-0.2,2-0.4,3
		c-0.5-0.1-1.7-0.7-1.3,0.3c0,0,0.2,0,0.5,0.1c-0.3,0.5,0.2,0-0.6,0.4c0,0,0,0.2-0.1,0.5c-0.5-0.1-0.7-0.1-1.2-0.1
		c0,0,0-0.2,0.1-0.5c0,0,0.2,0,0.5,0.1c0,0,0-0.2,0.1-0.5c0,0-0.2,0-0.5-0.1c0.1-0.5,0.1-1.2,0.2-1.7c0,0-0.2,0-0.5-0.1
		c0.1-1,0.2-1.7,0.3-2.5c0,0-0.2,0-0.5-0.1c0.1-0.5-0.2-0.8-0.3-1.3c-0.5-0.1-0.7-0.1-1.2-0.1c0.1-0.5,0.3-0.7,0.6-1.2
		c-0.5-0.1-0.7-0.3-1.2-0.6c0.1-1,0.5-2.2,0.9-3.4c-0.5-0.1-1.2-0.4-1.7-0.7c0.1-0.5,0.1-0.7,0.1-1.2c-0.5-0.1-0.7-0.1-1.2-0.1
		c0.1-1.2,0.5-1.7-0.2-2.5c-0.5-0.1-0.7-0.1-1.2-0.1c0.1-0.5,0.4-1.2,0.7-1.7c-0.5-0.1-0.7-0.1-1.2-0.1c0.1-0.5,0.1-0.7,0.1-1.2
		c-0.5-0.1-0.7-0.1-1.2-0.1c-0.3-2-0.7-2.1-0.7-4.3c-0.5-0.1-1.2-0.4-1.7-0.7c0.1-1,0-1.8-0.2-2.5c-1-0.1-2-0.2-3-0.4
		c-0.3-1.5,0.1-1.2-1.5-1.9c0,0,0-0.2,0.1-0.5c-1.4-0.7-2.4,1-2.7,1.4c0,0-0.2,0-0.5-0.1c0.1-1,0.2-1.7,0.3-2.5
		c0.1-0.7-0.5,0.2-0.4-0.6c1.1-0.9,0.4,0.8,1.3-0.3c-2.7-0.8-2.2-0.8-4.7-0.6c0.1-0.5,0.1-0.7,0.1-1.2c-0.5-0.1-0.8,0.2-1.3,0.3
		c0,0,0-0.2,0.1-0.5c-1-0.1-1.7-0.2-2.5-0.3c0.6-0.7,0.8-0.7,1.4-1.1c0,0-0.2,0-0.5-0.1c0,0,0-0.2,0.1-0.5c-1.5-0.2-2-0.2-3,0.1
		c0,0,0,0.2-0.1,0.5c-0.5-0.1-1.2-0.1-1.7-0.2c0,0,0,0.2-0.1,0.5c0,0-0.2,0-0.5-0.1c0,0,0,0.2-0.1,0.5c0,0,0.2,0,0.5,0.1
		c0,0,0,0.2-0.1,0.5c-0.5-0.3-1-0.4-1.4-0.5c0,0.2,0,0.3,0,0.3c-0.2,0-0.5-0.1-0.5-0.1c0,0.2-0.1,0.5-0.1,0.5
		c-0.8-0.6-0.6,0-0.6-0.8c-0.8,0.1-1.7,0.3-2.8,0.4c-0.1,0.5-0.1,0.7-0.1,1.2c0,0-2.2-0.5-1.3,0.3c0.5,0.1,0.7,0.1,1.2,0.1
		c-1.1,0.6-3.1,0.9-4.4,1.2c-0.1,1-0.5,2.2-0.9,3.4c-1.3,0.1-0.5-0.3-1.3,0.3c0,0-0.2,0-0.5-0.1c-0.2,2-0.7,3.9-1.2,5.9
		c1.2,0.6,1,0.4,1.6,1.4c1.3-0.1,0.5,0.3,1.3-0.3c0,0,0.2,0,0.5,0.1c-0.4-0.8-0.4-0.8-1.1-1.4c0,0,0-0.2,0.1-0.5
		c0.5,0.1,1.2,0.1,1.7,0.2c-0.7-0.6,0-0.2-1.2-0.6c0,0,0-0.2,0.1-0.5c0.5,0.1,1.2,0.1,1.7,0.2c0.1-1,0.5-2.2,0.9-3.4
		c0.5,0.1,1.3-0.1,1.8-0.3c0.1-0.5,0.4-1.2,0.7-1.7c0.5,0.1,0.8-0.2,1.3-0.3c0-0.4,0.1-0.6,0.1-1c-0.2,0.2-0.4,0.4-0.6,0.5
		c0,0.1,0,0.2,0,0.4c-0.2,0-0.3,0-0.5,0c-1,0.5-2.1,0.7-3.4,1.1c0-0.2,0.1-0.5,0.1-0.5c-0.2,0-0.5-0.1-0.5-0.1
		c0-0.2,0.1-0.5,0.1-0.5c1.3-0.1,2.5-0.1,3.8,0c0.2-0.1,0.4-0.2,0.5-0.4c0-0.1,0-0.1,0-0.1c0.1-0.5,0.3-0.5,0.6-0.4
		c0-0.1,0-0.2,0-0.2c0.5,0.1,0.8-0.2,1.3-0.3c0.1-0.5-0.2-0.8-0.3-1.3c0.5,0.1,1.2,0.4,1.7,0.7c0.1-0.5,0.3-0.7,0.6-1.2
		c0.5,0.1,1.2,0.1,1.7,0.2c0,0,0-0.2,0.1-0.5c0.5,0.1,1.2,0.1,1.7,0.2c0,0,0-0.2,0.1-0.5c0,0,0.2,0,0.5,0.1c0,0,0,0.2-0.1,0.5
		c3,0.4,4.4,1,5.7,2.4c-0.1,0.5,0.2,0.8,0.3,1.3c0.5,0.1,0.7,0.1,1.2,0.1l1.1,1.4c-0.1,0.5-0.1,0.7-0.1,1.2c0.7,0.8,1.4,0.4,2.3,2
		c1,0.1,2,0,3-0.1c-0.1,1,0,2.2,0.1,3.5c0.5,0.1,1.3-0.1,1.8-0.3c0.3,1.5,0.8,3.3,1.2,4.9c0.4,0.6,1.1,0.9,1.6,1.4
		c-0.1,0.5-0.1,0.7-0.1,1.2c0.5,0.1,0.7,0.3,1.2,0.6c-0.1,0.5-0.1,1.2-0.2,1.7c0.5,0.1,0.7,0.3,1.2,0.6c-0.2,1.5-0.1,3.2-0.1,4.7
		c0.5,0.1,0.7,0.3,1.2,0.6c-0.4,3-0.5,6.2-0.6,9.4c0,0,0.2,0,0.5,0.1c-0.8,4.6-2,2-3.5,3.8c-0.1,0.5-0.1,0.7-0.1,1.2
		c-0.5-0.1-0.7-0.1-1.2-0.1c-0.1,0.5-0.3,0.7-0.6,1.2c-1-0.1-2-0.2-3-0.4c-0.6,0.4-0.9,1.1-1.4,1.6c-3-0.4-5.9-1-8.8-1.6
		c0.1-0.5,0.1-0.7,0.1-1.2c-0.5-0.1-1.2-0.4-1.7-0.7c0,0,0-0.2,0.1-0.5c-1.4-1.2-3.5-1.7-5.8-1.9c0.1-0.5,0.1-1.2,0.2-1.7
		c-1-0.4-1.7-0.7-3.4-0.9c0,0,0-0.2,0.1-0.5c0.5,0.1,1.2,0.1,1.7,0.2c0,0,0-0.2,0.1-0.5c-0.5-0.1-1.2-0.1-1.7-0.2
		c0.1-0.5-0.1-1.3-0.3-1.8c-0.5-0.1-0.7-0.3-1.2-0.6c-1.1-1.4-1.6-2.9-1.9-5c-1.2-0.4-0.5,0.2-1.2-0.6c0,0-0.2,0-0.5-0.1
		c0.1-1,0-2-0.1-3c-0.5-0.1-0.7-0.3-1.2-0.6c-1-2.1-1.2-6.4-0.2-8.5c-1-0.1-2.2-0.3-3.4-0.4c-0.1,0.5-0.1,1.2-0.2,1.7
		c0.5,0.1,0.7,0.3,1.2,0.6c-0.7,1.4-1.1,2.6-1.7,4c0,0,0.2,0,0.5,0.1c-0.1,1,0,2,0.1,3c0,0,0.2,0,0.5,0.1c-0.1,0.5-0.4,1.2-0.7,1.7
		c0.4,0.6,1.1,0.9,1.6,1.4c-0.1,1,0,2.2,0.1,3.5c0,0-0.2,0-0.5-0.1c-0.1,1-0.2,2-0.4,3c0,0-0.2,0-0.5-0.1c-0.1,0.5-0.1,1.2-0.2,1.7
		c0,0-0.2,0-0.5-0.1c-0.1,0.5-0.4,1.2-0.7,1.7c-0.5-0.1-0.7-0.1-1.2-0.1c0,0,0,0.2-0.1,0.5c-1.6,0.8-3,1.9-4.6,2.9
		c-0.1,0.5-0.4,1.2-0.7,1.7c-1.6,1.1-3.6,0.8-5,2.4c-1-0.1-1.7-0.2-2.5-0.3c-0.1,0.5-0.1,0.7-0.1,1.2c-1-0.1-2-0.2-3-0.4
		c0,0,0,0.2-0.1,0.5c-0.5-0.1-0.7-0.1-1.2-0.1c0,0,0,0.2-0.1,0.5c0,0-0.2,0-0.5-0.1c0,0,0-0.2,0.1-0.5c-2.2-0.8-4,0-4.2,0
		c-0.5-0.1-1.2-0.4-1.7-0.7c0,0,0,0.2-0.1,0.5c0,0-0.2,0-0.5-0.1c0.1-0.5,0.3-0.7,0.6-1.2c-1-0.1-1.9-0.5-2.9-0.8
		c0-1.8-1.1-3.1-3-3.9c-0.3-1.8-0.8-1.8-1.4-3.2c0,0-0.2,0-0.5-0.1c0.1-0.7,1.2-1.6,0.8-2.9c-0.5-0.1-0.7-0.3-1.2-0.6
		c0.3-2.5,0.6-4.7,0.9-7.1c0,0-0.2,0-0.5-0.1c0,0,0-0.2,0.1-0.5c0.3-0.7,2.1-3,1.8-4.5c-0.5-0.1-0.7-0.3-1.2-0.6
		c0.1-0.5,0.1-0.7,0.1-1.2c0,0-0.2,0-0.5-0.1c0.1-1,0.5-1.7,0.8-2.4c0,0-0.2,0-0.5-0.1c0.1-0.5,0.1-1.2,0.2-1.7
		c0-0.2-0.9-0.9-1.1-1.4c-0.5-0.1-0.7-0.3-1.2-0.6c-0.1,0.5-0.4,1.2-0.7,1.7c0,0-0.2,0-0.5-0.1c-0.1,0.5-0.1,1.2-0.2,1.7
		c0,0-0.2,0-0.5-0.1c-0.1,1,0,1.8,0.2,2.5c-0.3,0.5-2,0.3-1.6,2.8c0,0,0.2,0,0.5,0.1c-0.1,1-0.2,1.7-0.3,2.5c0,0,0.2,0,0.5,0.1
		c0.2,0.8-0.2-0.3-0.6,0.4c-0.8,2.2,0,4.2-0.2,5.5c0,0-0.2,0-0.5-0.1c-0.1,0.5-0.1,0.7-0.1,1.2c0,0-0.2,0-0.5-0.1c0,0,0,0.2-0.1,0.5
		c0,0,0.2,0,0.5,0.1c0,0,0,0.2-0.1,0.5c0,0-0.2,0-0.5-0.1c0,0,0,0.2-0.1,0.5c0,0,0.2,0,0.5,0.1c-0.2,1.5-0.6,3.2-1.1,4.6
		c-1,1.9-1.9,1.5-2.3,4.5c-0.5-0.1-1.2-0.1-1.7-0.2c-0.1,1.2-0.8,2.2-0.8,2.4l0.4,0.6c-1,0.1-1.5,0.3-3,0.1c-0.1,1-0.2,1.7-0.3,2.5
		c-0.6,0.4-1.3,0.6-1.9,1c-0.1,0.5-0.4,1.2-0.7,1.7c-0.5-0.1-0.7-0.1-1.2-0.1c0,0,0,0.2-0.1,0.5c-0.5-0.1-0.7-0.1-1.2-0.1
		c-0.1,0.5-0.3,0.7-0.6,1.2c-1-0.1-1.7-0.2-2.5-0.3c0,0,0,0.2-0.1,0.5c-2,0.3-3.8,0.8-5.6,1.1c-0.7-0.6,0-0.2-1.2-0.6
		c0.1-0.5,0.1-0.7,0.1-1.2c-0.5-0.1-0.7-0.1-1.2-0.1c-0.3-2-1-2.4-2.6-3.3c0.1-0.5,0.1-0.7,0.1-1.2c-1.2-0.4-0.5,0.2-1.2-0.6
		c0,0-0.2,0-0.5-0.1c0.1-1,0.5-1.9,0.8-2.9c0,0-0.2,0-0.5-0.1c0,0,0-0.2,0.1-0.5c0,0,0-0.2,0.1-0.5c0,0,0.2,0,0.5,0.1
		c0.1-1,0.5-1.7,0.8-2.4c0,0,0.2,0,0.5,0.1c0.2-2,0.7-3.7,1.1-5.4c0.5,0.1,0.7,0.1,1.2,0.1c-0.1-1.5-0.7-2.1,0.4-3.4
		c0.5,0.1,0.8-0.2,1.3-0.3c0.1-0.5-0.2-0.8-0.3-1.3c0.6-0.4,0,0.2,0.6-0.4c-0.5-0.1-1.2-0.1-1.7-0.2c0.1-1,0-2-0.1-3
		c2-0.3,2.3-0.5,2.8-2.7c0.5,0.1,0.7,0.1,1.2,0.1c0.2-2,0.2-3.7,0.2-5.5c0,0,0.2,0,0.5,0.1c0.8-2.7-0.8-4.1,0.6-5.4
		c0.1-0.5,0.1-0.7,0.1-1.2c-0.5-0.1-1.3,0.1-1.8,0.3c0.1-1,0.2-1.7,0.3-2.5c0,0,0.2,0,0.5,0.1c0.1-1,0.2-2,0.4-3c0,0-0.2,0-0.5-0.1
		c-0.1-1,0.6-1.2,0.6-1.2s0-0.2,0.1-0.5c0,0-0.2,0-0.5-0.1c0.1-0.5,0.4-1.2,0.7-1.7c-0.5-0.1-1.2-0.4-1.7-0.7
		c0.2-1.5,0.4-1.4,0.8-2.4c0,0-0.2,0-0.5-0.1c0,0,0-0.2,0.1-0.5c0.5,0.1,0.8-0.2,1.3-0.3c0.3-0.7,0,0-0.4-0.6c0.1-1,0.2-1.7,0.3-2.5
		c0,0,0.2,0,0.5,0.1c0.1-0.5-0.1-1.3-0.3-1.8c-1.2-0.4-0.5,0.2-1.2-0.6c0,0-0.2,0-0.5-0.1c0.1-1,0.5-1.7,0.8-2.4
		c-0.5-0.1-1.2-0.4-1.7-0.7c-0.7-0.8,1-0.4,1.3-0.3c0.4-1-1.1-1.1-1.1-1.4c0.1-0.5,0.4-1.2,0.7-1.7c-0.5-0.1-1.2-0.1-1.7-0.2
		c0.1-0.5,0.1-0.7,0.1-1.2c0.5,0.1,0.7,0.1,1.2,0.1c0.2-1.5,0.2-2-0.1-3c0,0-0.2,0-0.5-0.1c0.1-1,0.3-2.2,0.4-3.4c0,0-0.2,0-0.5-0.1
		c0.1-0.5,0.1-0.7,0.1-1.2c-0.5-0.1-0.7-0.3-1.2-0.6c0.1-0.5,0.3-0.7,0.6-1.2c0,0-0.2,0-0.5-0.1c0,0,0-0.2,0.1-0.5l0.6-0.4
		c-0.5-0.1-0.7-0.1-1.2-0.1c0.1-1,0-2.2-0.1-3.5c-0.5-0.1-0.7-0.3-1.2-0.6c0.1-0.5,0.1-1.2,0.2-1.7c-0.5-0.1-0.7-0.3-1.2-0.6
		c0.1-0.5,0.1-1.2,0.2-1.7c-0.4-0.6-1.5-0.2-1-1.9c0,0,0.8-0.2,0.6-1.2c-0.5-0.1-0.8,0.2-1.3,0.3c0.1-0.5,0.3-0.7,0.6-1.2
		c-0.2-0.5-0.7-0.1-1-1.9c-0.8,0.4-0.8,0.4-1.4,1.1c0,0-0.2,0-0.5-0.1c0.4-1.4,0.7-1.7,1.5-2.3c0,0,0.3-2.5-0.3-1.3
		c-0.7-0.1,0.2,0.5-0.6,0.4c0.2-2,0.2-4,0.2-6c-1.2-0.4-0.5,0.2-1.2-0.6c-0.5-0.1-0.7-0.1-1.2-0.1c-0.2-0.3,0.9-1.4,0.8-2.4
		c0,0-0.2,0-0.5-0.1c0.1-1,0-2.2-0.1-3.5c0,0-0.2,0-0.5-0.1c0-0.2,0.7-1.4,0.8-2.4c-0.5-0.1-1.2-0.4-1.7-0.7
		c0.1-0.5-0.2-0.8-0.3-1.3l0.6-0.4c-0.5-0.1-0.7-0.1-1.2-0.1c0.1-0.5,0.1-1.2,0.2-1.7c0,0-0.2,0-0.5-0.1c-0.2-2.5-0.2-0.8-1.5-1.9
		c-0.4-0.6-0.4-0.8-1.1-1.4c-0.7-0.6-3.2-0.4-4.3,0.7c0,0-0.2,0-0.5-0.1c0,0,0,0.2-0.1,0.5c0.5,0.1,1.3-0.1,1.8-0.3
		c-0.9,1.1-0.9,0.9-2.6,0.9c-0.1,0.5,0.1,1.3,0.3,1.8c0,0-0.2,0-0.5-0.1c0,0,0,0.2-0.1,0.5l-0.3,2.5c-0.5-0.1-1.3,0.1-1.8,0.3
		c-0.1,1.2-0.6,1.2-0.6,1.2c-0.1,1-0.3,2.2-0.4,3.4c0,0-0.2,0-0.5-0.1c-0.1,1,0,2,0.1,3c0,0-0.2,0-0.5-0.1c-0.1,1-0.2,1.7-0.3,2.5
		c0,0-0.2,0-0.5-0.1c0,0,0,0.2-0.1,0.5c0.6,1.3,0.6,3.1,0.7,4.8c0.4-0.2,0.6-0.3,0.7-0.5c0,0-0.1-0.1-0.4-0.5c0.3,0,0.5,0.1,0.8,0.1
		c0.1-0.1,0.2-0.1,0.3-0.2c0,0.1,0,0.2,0,0.2c0.1,0,0.2,0,0.2,0c0,0.2-0.1,0.5-0.1,0.5c-0.1,0-0.2,0-0.2-0.1c0,0.2,0,0.3-0.1,0.5
		c0.5,0.1,0.7,0.1,1.2,0.1c-0.1,0.5-0.1,1.2-0.2,1.7c-0.5-0.1-1.2-0.1-1.7-0.2c-0.1,1-0.5,1.9-0.8,2.9c0,0,0.2,0,0.5,0.1
		c0,0,0,0.2-0.1,0.5s-1,0.1-0.6,1.2c0.5,0.1,1.2,0.4,1.7,0.7c0,0,0,0.2-0.1,0.5c-1.3,0.6,0.1,1.3-0.8,2.4c0,0-0.2,0-0.5-0.1
		c0.9,1.1,0.8-0.2,1.7,0.7c-2.1,1,1.1,3.6,0.7,4.3c-0.1,0.7-0.7-0.3-0.6,0.4c0,0,0.2,0,0.5,0.1c-0.1,0.5-0.1,0.7-0.1,1.2
		c0,0,0.2,0,0.5,0.1c-0.1,0.5-0.4,1.2-0.7,1.7c0.5,0.1,0.7,0.3,1.2,0.6c-0.1,1,0,2.2,0.1,3.5c-1.3,0.1-0.5-0.3-1.3,0.3
		c-0.5-0.1-0.7-0.1-1.2-0.1c0.7,0.6,0,0.2,1.2,0.6c-0.4,1.2-1.3,2.6-1.1,4.6c0,0,0.2,0,0.5,0.1c-0.1,0.5-0.1,1.2-0.2,1.7
		c0,0,0.2,0,0.5,0.1c0.2,0.8-1.4,1.1-0.8,2.4c0,0,0.2,0,0.5,0.1c-0.1,0.5-0.1,1.2-0.2,1.7c0,0,0.1,1.3,0.4,0.6c0,0,0.3-0.5,1.3-0.3
		c-0.3,0.7-1,1.9-0.9,3.4c0,0,0.2,0,0.5,0.1c0,0,0,0.2-0.1,0.5c0,0-0.2,0-0.5-0.1c-0.1,1,0,2.2,0.1,3.5c0.5,0.1,0.7,0.1,1.2,0.1
		c-0.3,0.7-1,1.9-0.9,3.4c0,0,0.2,0,0.5,0.1c0,0,0,0.2-0.1,0.5c0,0-0.2,0-0.5-0.1c-0.1,1,0,2.2,0.1,3.5c0.5,0.1,0.7,0.1,1.2,0.1
		c-0.1,1-0.5,2.2-0.9,3.4c0,0,0.2,0,0.5,0.1c-0.1,0.5-0.1,1.2-0.2,1.7c0,0,0.2,0,0.5,0.1c-0.1,0.5-0.4,1.2-0.7,1.7
		c0.5,0.1,0.7,0.1,1.2,0.1c0.7,0.6-0.6,0.4-0.6,0.4c-0.2,1.7-0.1,3.2,0,4.2c0,0,0.2,0,0.5,0.1c-0.1,0.5-0.1,0.7-0.1,1.2
		c0,0,0.2,0,0.5,0.1c0.2,0.8-1.1,0.9-0.3,2.5c0.9,1.1,1.8,2,2.7,2.8c-0.1,0.5-0.3,0.7-0.6,1.2c0.5,0.1,0.7,0.1,1.2,0.1
		c-0.9,0.9-2.6,0.4-1.4,1.6c-0.1,0.5-0.1,1.2-0.2,1.7c0,0,0.1,1.3,0.4,0.6c0,0,0.3-0.5,1.3-0.3c-1.3,2.3-1.6,2.8-1.2,5.9
		c0.5,0.1,0.7,0.1,1.2,0.1c-0.6,4.9,0.6,5.8,2.4,8.8c0,0-0.2,0-0.5-0.1c-0.1,0.5,0.2,0.8,0.3,1.3c-0.5-0.1-0.8,0.2-1.3,0.3
		c-0.1,1-0.5,2.2-0.9,3.4c-0.6,0.4-1.3,0.6-1.9,1c-0.1,0.5-0.1,0.7-0.1,1.2c-0.5-0.1-0.8,0.2-1.3,0.3c-0.1,0.5-0.4,1.2-0.7,1.7
		c0,0-0.2,0-0.5-0.1c-0.1,0.5-0.4,1.2-0.7,1.7c-0.5-0.1-0.7-0.1-1.2-0.1c-0.1,0.5-0.1,0.7-0.1,1.2c-1.8,0.3-2.4,1.2-3.7,2
		c0,0,0,0.2-0.1,0.5c-0.5-0.1-0.7-0.1-1.2-0.1c-0.6,0.4-0.9,1.1-1.4,1.6c-0.5-0.1-1.2-0.1-1.7-0.2c0,0,0,0.2-0.1,0.5
		c-0.5-0.1-1.2-0.1-1.7-0.2c0,0,0,0.2-0.1,0.5c-0.5-0.1-1.2-0.1-1.7-0.2c-0.8,0.2-0.5,1.7-2.6,0.9c0,0,0-0.2,0.1-0.5
		c-0.5-0.1-1.3,0.1-1.8,0.3c0,0,0-0.2,0.1-0.5c-1-0.1-1.7-0.2-2.5-0.3c0,0,0-0.2,0.1-0.5c1.5-0.3,3.3-0.8,4.9-1.2
		c0.6-0.9,1-2.1,1.6-3.3c0,0-0.2,0-0.5-0.1c0,0,0-0.2,0.1-0.5c1,0.1,1.7,0.2,2.5,0.3c0.1-0.5-0.2-0.8-0.3-1.3c0,0-0.2,0-0.5-0.1
		c0.1-0.5,0.4-1.2,0.7-1.7c0.5,0.1,1.2,0.1,1.7,0.2c0.6-0.4-0.2,0,0.6-0.4c0.1-1,0.2-1.7,0.3-2.5c0,0,0.2,0,0.5,0.1
		c0,0,0-0.2,0.1-0.5c-0.5-0.1-0.7-0.1-1.2-0.1c0.1-0.5,0.4-1.2,0.7-1.7c0,0-0.2,0-0.5-0.1c0.1-0.5,0.3-0.7,0.6-1.2
		c-0.5-0.1-0.7-0.3-1.2-0.6c0.1-0.5,0.3-0.7,0.6-1.2c0,0-0.2,0-0.5-0.1c0.1-0.5,0.1-0.7,0.1-1.2c-1.2-0.4-0.5,0.2-1.2-0.6
		c0,0-0.2,0-0.5-0.1c0.1-0.5,0.4-1.2,0.7-1.7c-0.5-0.1-0.7-0.1-1.2-0.1c0.1-0.5,0.1-0.7,0.1-1.2c0,0-0.2,0-0.5-0.1
		c-0.6-1.1-1.2-2.4-2.1-3.3c0,0,0-0.2,0.1-0.5c-1.5-0.2-2.7-0.6-4.1-1c0.1-0.5-0.2-0.8-0.3-1.3c-2.1-1.5-2.9-1.1-5.9-1.2
		c-0.1,0.5-0.1,0.7-0.1,1.2c-1.3,0.1-0.5-0.3-1.3,0.3c0,0-0.2,0-0.5-0.1c-0.1,0.5,0.2,0.8,0.3,1.3c0,0-0.2,0-0.5-0.1
		c0,0,0,0.2-0.1,0.5c0,0-0.2,0-0.5-0.1c0.1-0.5,0.3-0.7,0.6-1.2c-1-0.1-1.7-0.2-2.5-0.3l-0.6,0.4c-0.1,0.5,0.1,1.3,0.3,1.8
		c-1,0.4-1.9,1-2.7,1.4c-0.1,0.5-0.1,1.2-0.2,1.7c0,0-0.2,0-0.5-0.1c-0.1,0.5-0.1,0.7-0.1,1.2c0,0-0.2,0-0.5-0.1
		c-0.8,2.9-1.5,6.1-2.4,9.2c0,0-0.2,0-0.5-0.1c0-2-0.4-1,0.4-3c-0.5-0.1-0.7-0.1-1.2-0.1c0-1.8-0.8-3.3-1.2-4.9
		c0.1-1,0.2-1.7,0.3-2.5c0,0-0.2,0-0.5-0.1c0.1-0.5,0.1-0.7,0.1-1.2c0,0-0.2,0-0.5-0.1c0.2-2,0.2-3.7,0.2-5.5c0,0-0.2,0-0.5-0.1
		c-0.3-1.8,0-2,0.4-3c-0.5-0.1-1.2-0.4-1.7-0.7c-1.3,2.6-1.2,4.1-1.3,7.1c0.5,0.1,0.7,0.1,1.2,0.1c0,0,0,0.2-0.1,0.5
		c-0.5-0.1-1.2-0.1-1.7-0.2c0.4,1,0.5,2.3,0.8,3.6c0,0,0.2,0,0.5,0.1c0.5,2.1-0.3,4.5-0.7,5.9c0.5,0.1,0.7,0.3,1.2,0.6
		c-0.1,0.5-0.1,0.7-0.1,1.2c0.5,0.1,0.7,0.3,1.2,0.6c0.4,0.8-0.3,0.2-0.6,0.4c-0.1,1,0,1.8,0.2,2.5c0.5,0.1,1.2,0.1,1.7,0.2
		c0,2.5,0.7,2.3,0.7,4.8c0.6-0.7,0.2,0,0.6-1.2c0,0,0.2,0,0.5,0.1c-0.1,0.5-0.4,1.2-0.7,1.7c0.5,0.1,1.3-0.1,1.8-0.3
		c0.4,0.6-0.2,0,0.4,0.6c0,0,0,0.2-0.1,0.5c-0.5-0.1-1.2-0.1-1.7-0.2c0.2,2.5,0.2,0.5,1.5,1.9c0,0,0,0.2-0.1,0.5c0,0,0.2,0,0.5,0.1
		c-0.1,0.5-0.1,0.7-0.1,1.2c0.6,1.1,2.5,1.8,4,2.2c-0.1,0.5-0.1,0.7-0.1,1.2c0.5,0.1,1.2,0.4,1.7,0.7c0,0,0,0.2-0.1,0.5
		c0.5,0.1,0.7,0.1,1.2,0.1c0,0,0,0.2-0.1,0.5c1,0.1,2,0,3-0.1c0,0,0,0.2-0.1,0.5c-0.5-0.1-1.2-0.1-1.7-0.2c0,0,0,0.2-0.1,0.5
		c1,0.1,2,0.2,3,0.4c0.1-0.5,0.1-0.7,0.1-1.2c0.5,0.1,0.7,0.1,1.2,0.1c-0.1,0.5-0.1,1.2-0.2,1.7c1,0.1,2.2,0.5,3.4,0.9
		c0,0,0.9-0.9,1.8-0.3c0,0,0,0.2-0.1,0.5c0.5,0.1,1.2,0.1,1.7,0.2c0,0,0-0.2,0.1-0.5c0,0,0.2,0,0.5,0.1c0,0,0-0.2,0.1-0.5
		c-1-0.1-2-0.2-3-0.4c0.6-0.7,0.6-0.7,1.4-1.1c0,0,0-0.2,0.1-0.5c0.5,0.1,1.2,0.4,1.7,0.7c0.1-1,0-1.8-0.2-2.5
		c0.5,0.1,0.7,0.1,1.2,0.1c-0.1,0.5-0.1,0.7-0.1,1.2c1,0.1,1.7,0.5,2.4,0.8c0.1-0.5,0.1-0.7,0.1-1.2c1.3-0.1,0.5,0.3,1.3-0.3
		c0.5,0.1,1.2,0.1,1.7,0.2c0,0,0-0.2,0.1-0.5c0,0-0.2,0-0.5-0.1c0,0,0-0.2,0.1-0.5c0,0,0.2,0,0.5,0.1c0,0,0-0.2,0.1-0.5
		c0.5,0.1,2.1,1.5,3.4,0.9c0,0,0-0.2,0.1-0.5c1.6-0.8,2.5-2.2,3-3.9c1,0.1,1.8,0,2.5-0.2c0.1-0.5,0.1-0.7,0.1-1.2
		c0.5,0.1,0.7,0.1,1.2,0.1c-0.1,0.5-0.1,0.7-0.1,1.2c-0.5-0.1-0.8,0.2-1.3,0.3c-0.1,0.5,0.1,1.3,0.3,1.8c1.3-0.1,0.5,0.3,1.3-0.3
		c0,0,0.2,0,0.5,0.1c-0.4-1-0.3-1.8-0.1-3.5c1.5-0.3,2.8-0.4,4.3-0.7c0.1-1,0.5-1.7,0.8-2.4c-0.5-0.1-0.7-0.1-1.2-0.1
		c0,0,0-0.2,0.1-0.5c1-0.4,1.8-0.5,2.6-0.9c0.1-0.5,0.1-0.7,0.1-1.2c1,0.1,1.7,0.2,2.5,0.3c0,0,0-0.2,0.1-0.5c0,0,0.2,0,0.5,0.1
		c0.4,0.6,0.6,1.3,1,1.9c0.5,0.1,0.7,0.1,1.2,0.1c-0.1,0.5,0.2,0.8,0.3,1.3c1.4,0.9,3.4,0.7,4.7,0.6c-0.1,0.5-0.1,1.2-0.2,1.7
		c0.2,0,0.5,0.1,0.7,0.1c0-0.1,0.1-0.3,0.1-0.5c0.2,0,0.5,0.1,0.5,0.1c0.4,0.8,0,0,0.4,0.6c0.8,0.1,1.6,0.2,2.5,0.3
		c0.1-0.5,0.3-0.7,0.6-1.2c1.5,0.2,3.2,0.4,4.7,0.6c0,0,0-0.2,0.1-0.5c0.5,0.1,1.2,0.1,1.7,0.2c0,0,0-0.2,0.1-0.5
		c0.5,0.1,1.2,0.4,1.7,0.7c0.7-1.9,1.7-3.5,2.4-5.2l0.4,0.6c1.7,0.5,1.3-0.8,1.9-1c0.5,0.1,1.2,0.1,1.7,0.2c0.1-0.5-0.2-0.8-0.3-1.3
		c0,0,0-0.2,0.1-0.5c0,0,0.2,0,0.5,0.1c0.7-1.4,0.1-1.2,1.9-1.5c0.1-0.5,0.1-0.7,0.1-1.2c0.5,0.1,0.7,0.1,1.2,0.1
		c0.4-1.4,1.2-1.9,2.1-2.7c0,0,0.2,0,0.5,0.1c0,0,0-0.2,0.1-0.5c0,0-0.2,0-0.5-0.1c0.4-1.2,0.5,0.3,1.3-0.3c0.8-0.4-0.4-0.6-0.4-0.6
		c0.4-1,0.8-0.7,1.4-1.1s-0.2,0,0.6-0.4c0.6,1.6,2.4,5,3.5,5.9c-0.1,0.5-0.1,0.7-0.1,1.2c1,0.1,1.7,0.2,2.5,0.3
		c-0.1,0.5-0.3,0.7-0.6,1.2c0.4,0,0.7,0.1,1.1,0.1c0-0.1-0.1-0.1-0.3-0.3c1,0.3,0.7,0,1,0.4c0.8,0.1,1.6,0.2,2.5,0.3
		c0,0,0,0.2-0.1,0.5c1,0.1,1.7,0.2,2.5,0.3c0,0,0-0.2,0.1-0.5c0,0,0.2,0,0.5,0.1c0.1-0.5-0.1-1.3-0.3-1.8c0.5,0.1,0.8,0.2,1.1,0.3
		c-0.2-0.2-0.3-0.3-0.3-0.4c0.5,0.1,1,0.1,1.7,0.2c0,0.2-0.1,0.5-0.1,0.5c-0.2,0.1-0.5,0.1-0.6,0.1c0.3,0.3,0.2,0.7,0.9,1.4
		c0,0,0,0.2-0.1,0.5c1.6,1.2,2-0.3,3,0.4c0,0,0,0.2-0.1,0.5c0,0,0.2,0,0.5,0.1c0.1-1,0.5-2.2,0.9-3.4c1,0.1,2,0,3-0.1
		c0.1-0.5,0.1-0.7,0.1-1.2c0.5,0.1,0.7,0.3,1.2,0.6c0,0,0-0.2,0.1-0.5c1,0.1,1.7,0.2,2.5,0.3c0,0,0-0.2,0.1-0.5l-0.4-0.6
		c-0.5-0.1-1.3,0.1-1.8,0.3c0.6-0.7,1.5-0.3,1.9-1.5c-0.4-0.6-0.5,0.2-0.4-0.6c2.2,0.3,4.9,0.6,6.3,1.3c0.1-0.5,0.1-0.7,0.1-1.2
		c1.8-0.5,0.5,0.3,0.7-1.7c2.7,0.1,2.8-0.4,4.8-0.7c0.1-0.5,0.4-1.2,0.7-1.7c0,0-1,0.1-0.4-0.6c0.9-0.9,0.9,0.9,1.9-1.5
		c1.3-0.1,0.5,0.3,1.3-0.3c1.3,1.7,0.2,2.5,0.7,4.8c0.8,3.3,3.3,6.1,3.6,9.9c0.5,0.1,1.2,0.1,1.7,0.2c0.4,1,0.8,1.6,0.9,3.1
		c1.9,0.7,3.6,1.2,5.3,1.9c-0.1,0.5,0.2,0.8,0.3,1.3c1.4,0.7,4.9-1.2,5.6-1.1c1,0.1,0.6,1.3,1.1,1.4c1,0.1,2.2,0,3.5-0.1
		c0,0,0-0.2,0.1-0.5c1,0.1,2.2,0.3,3.4,0.4c-1.3-1.4,0.4-1.4,1.9-1.5c-0.4-0.8-0.7-0.8-1.1-1.4c1.8-0.3,2.1-0.5,2.8-2.2
		c0.5,0.1,1.2,0.4,1.7,0.7c0.1-0.5,0.1-0.7,0.1-1.2c0.5,0.1,0.7,0.1,1.2,0.1c1.5-4.1,4.7-5.7,5.9-10c0.5,0.1,0.7,0.1,1.2,0.1
		c0.7-1.7,0.9-1.1,1.6-2.8c0.5,0.1,0.7,0.1,1.2,0.1c0.1-0.5,0.1-0.7,0.1-1.2c0.5,0.1,0.7,0.1,1.2,0.1c0.1-0.5,0.1-0.7,0.1-1.2
		c0.5,0.1,0.7,0.1,1.2,0.1c0.7-3.7,0.9-1.6,0-4.2c0.8-0.4,1.3-0.6,1.9-1c0,0,0.2,0,0.5,0.1c0.8-0.7-1.2-0.6-1.2-0.6s0-0.2,0.1-0.5
		c0.5,0.1,0.7,0.1,1.2,0.1c0.7-1.4,0.7-1.4,1.5-2.3c0,0,0.2,0,0.5,0.1c0,0,0-0.2,0.1-0.5c0,0-0.2,0-0.5-0.1c0.1-0.7,0.2,0.3,0.6-0.4
		c0.1-0.5,0.1-1.2,0.2-1.7c0,0,0.2,0,0.5,0.1c0,0,0-0.2,0.1-0.5c0,0,0.2,0,0.5,0.1c0,0,0,0.2-0.1,0.5c1,0.1,1.7,0.2,2.5,0.3
		c-0.1,0.5-0.3,0.7-0.6,1.2c0.5,0.1,1.2,0.4,1.7,0.7c0.1-0.5,0.1-0.7,0.1-1.2c1.4,0.4,1.7,0.7,2.3,1.5c0.5,0.1,0.7,0.1,1.2,0.1
		c-0.4-0.8-0.9-1.1-1.5-1.9c0.5,0.1,1.3-0.1,1.8-0.3c-0.1,0.5,0.2,0.8,0.3,1.3c1,0.1,2.2,0,3.5-0.1c0.1-0.5,0.1-0.7,0.1-1.2
		c0.5,0.1,1.3-0.1,1.8-0.3c0.4,0.6-0.3,0.5,0.4,0.6c0.1-0.5,0.1-0.7,0.1-1.2c0.6-0.7,1.3-0.3,1.9-1.5c0,0-0.2,0-0.5-0.1
		c0,0,0-0.2,0.1-0.5c1-0.4,1.9-1,2.7-1.4c0.1-0.5,0.1-1.2,0.2-1.7c0.5,0.1,0.8-0.2,1.3-0.3c0.9-1.4,0.3-2.7,1-4.1c0,0,0.2,0,0.5,0.1
		c0,0,0-0.2,0.1-0.5c0,0,0.2,0,0.5,0.1c-0.1,0.5-0.1,1.2-0.2,1.7c0.9,0.6,1.6,1.4,2.3,2c-0.1,0.5-0.1,1.2-0.2,1.7
		c0.5,0.1,1.2,0.4,1.7,0.7c0.4,0.6,0.6,1.3,1,1.9c0.5,0.1,1.2,0.1,1.7,0.2c-0.1,0.5-0.1,1.2-0.2,1.7c1,0.1,2,0.2,3,0.4
		c0,0,0,0.2-0.1,0.5c1.5,0.2,3.2,0.6,4.6,1.1c0,0,0-0.2,0.1-0.5c0.5,0.1,0.7,0.1,1.2,0.1c0,0,0-0.2,0.1-0.5
		c-1.2-0.4-0.8,0.4-1.2-0.6c0,0,0.2,0,0.5,0.1c0,0,0-0.2,0.1-0.5c0,0,2.5,0.3,1.2,0.6c-0.1,0.7-0.5-0.3-0.6,0.4
		c0.5,0.1,1.2,0.1,1.7,0.2c0.1-0.5-0.2-0.8-0.3-1.3c0.5,0.1,0.7,0.1,1.2,0.1c0,0,0-0.2,0.1-0.5c1,0.1,2,0,3-0.1
		c0.7-1.7,0.9-1.1,1.6-2.8c-1-0.1-1.9-0.5-2.9-0.8C413.4,328.4,413.3,328.6,413.3,328.8z M322.8,310.7c-1.2-0.4-0.5-0.1-1.2-0.6
		C322.8,310.5,322.1,309.9,322.8,310.7z M257.3,319.4c-0.3,0.2-0.3,0.5-0.4,1c-0.2,0-0.5-0.1-0.5-0.1c0-0.2,0.1-0.5,0.1-0.5
		c-0.7-0.6,0,0-0.4-0.6C256.6,319.3,256.8,319.3,257.3,319.4z M233.7,289.3c1.2,0.4,0.5,0.1,1.2,0.6
		C233.6,289.6,234.4,289.9,233.7,289.3z M198.9,354.1c-0.2,0-0.5-0.1-0.5-0.1c0.1-0.5,0.1-0.7,0.1-1.2c0,0,0.2,0,0.5,0.1
		C199,353.4,199,353.6,198.9,354.1z M212.6,369.5c-0.2,0-0.5-0.1-0.5-0.1c0.1-0.5,0.1-0.7,0.1-1.2c0.2,0,0.2,0,0.5,0.1
		C212.7,368.7,212.6,369,212.6,369.5z M211.5,359.9c-1.5,0.1-2.8,0.2-4.2,0c0,0.2-0.1,0.5-0.1,0.5c-2.7-0.6-2.4-1-4-2.2
		c0-1.8-0.8-3.6-1.2-4.9c0.3-0.5,0.6-0.7,0.6-1.2c-0.2-0.8-0.8,0.2-0.4-0.6c0.2,0,0.5,0.1,0.5,0.1c0.1-0.5,0.1-1.2,0.2-1.7
		c-0.2-0.5-0.4-0.8-0.3-1.3c0.5-0.2,0.8-0.4,1.3-0.3c-0.2-0.5-0.3-1.3-0.3-1.8c0.2,0,0.5,0.1,0.5,0.1c0.1-0.5,0.1-0.7,0.1-1.2
		c0.2,0,0.5,0.1,0.5,0.1c0.6-0.7,0.6-0.9,0.8-2.4c0.5,0.1,1,0.1,1.2,0.1c-0.4-0.6-0.7-0.6-1.1-1.4c0.8-0.2,1.3-0.3,1.9-1
		c4.7,0.6,5.7,2.4,7.9,5.2c0.4,0.6,1.1,0.9,1.6,1.4c0.8,1.6,0.7,2.6,2,3.7c-0.4,1.2-0.8,2.4-0.9,3.4c-2.1,0.7-1.2-0.6-2.8,2.2
		c-0.5-0.1-0.7-0.1-1.2-0.1c-0.1,0.5-0.1,0.7-0.1,1.2c-0.2,0-0.5-0.1-0.5-0.1C212.4,358.7,212.2,357.9,211.5,359.9z M245.9,251.8
		c-1.2-0.4-0.5-0.1-1.2-0.6C245.9,251.6,245.3,251,245.9,251.8z M237.9,308.6c-0.2,0-0.5-0.1-0.5-0.1c0.1-0.5,0.1-0.7,0.1-1.2
		c0.2,0,0.2,0,0.5,0.1C237.9,307.8,237.9,308.1,237.9,308.6z M247.8,330c0.3,1.5,0,2.5-0.2,3.5c-0.5-0.1-0.7-0.1-1.2-0.1
		c0.2,0.8,0.3,1.5,0.2,2.5c-0.2,0-0.5-0.1-0.5-0.1c0,0.2-0.1,0.5-0.1,0.5c-0.2,0-0.5-0.1-0.5-0.1c-0.3-1.8-0.3-3.5-0.6-5.6
		c-0.2,0-0.5-0.1-0.5-0.1c0.3-0.5,0.6-0.7,0.6-1.2c-0.2,0-0.5-0.1-0.5-0.1c0.1-0.5,0.1-0.7,0.1-1.2c-0.2,0-0.5-0.1-0.5-0.1
		c0.1-0.7,0.2-1.5,0.3-2.5c-0.2,0-0.5-0.1-0.5-0.1c0-0.2,0.1-0.5,0.1-0.5c0.2,0,0.5,0.1,0.5,0.1c0-0.2,0.1-0.5,0.1-0.5
		c-0.2,0-0.5-0.1-0.5-0.1c0.1-0.5,0.1-0.7,0.1-1.2c-0.2,0-0.5-0.1-0.5-0.1c0-1.8-0.1-3.5,0.2-5.5c-0.2,0-0.5-0.1-0.5-0.1
		c0.1-0.7,0.2-1.5,0.3-2.5c-0.2,0-0.5-0.1-0.5-0.1c0.1-1.2,0.3-2.5,0.4-3.4c0,0-0.5-0.1-0.3-1.3c0.2,0,0.5,0.1,0.5,0.1
		c0-0.2,0.1-0.5,0.1-0.5c-0.5-0.3-0.7-0.6-1.2-0.6c-0.1-1.5-0.1-3.3,0.1-4.7c-0.5-0.1-0.7-0.1-1.2-0.1c1.1-0.6,0-4.5,0.2-6
		c-0.5-0.1-0.7-0.1-1.2-0.1c-0.2-0.5-0.3-1.3-0.3-1.8c0.5,0.1,0.7,0.1,1.2,0.1c-0.2-0.8-0.1-1.3-0.4-0.6c-0.5-0.3-1.2-0.6-1.7-0.7
		c0.1-0.5,0.1-1.2,0.2-1.7c0.5,0.3,1.2,0.6,1.7,0.7c0-0.2,0.1-0.5,0.1-0.5c0.2,0,0.5,0.1,0.5,0.1c-0.3-1.3-0.4-2.6-0.8-3.6
		c-0.2,0-0.5-0.1-0.5-0.1c0.3-0.5,0.6-1.2,0.7-1.7c-0.5-0.1-0.7-0.1-1.2-0.1c0.3-0.5,0.6-0.7,0.6-1.2c-0.5-0.1-0.7-0.1-1.2-0.1
		c0.4-1.4,1-2.4,0.6-4.7c-0.2,0-0.5-0.1-0.5-0.1c0.3-0.5,0.6-0.7,0.6-1.2c-0.2,0-0.5-0.1-0.5-0.1c-0.1-1,0.6-1.2,0.6-1.2
		c0.4-1.2-0.3-1.3-0.3-1.3c0.1-1.2,0.3-2.5,0.4-3.4c-0.2,0-0.5-0.1-0.5-0.1c0.1-0.5,0.1-1.2,0.2-1.7c-0.2,0-0.5-0.1-0.5-0.1
		c0.1-0.5,0.1-1.2,0.2-1.7c-0.2,0-0.5-0.1-0.5-0.1c0.1-0.5,0.1-1.2,0.2-1.7c-0.2,0-0.5-0.1-0.5-0.1c0.1-1,0.2-2,0.4-3
		c-0.2,0-0.5-0.1-0.5-0.1c0.1-0.5,0.1-0.7,0.1-1.2c-0.2,0-0.5-0.1-0.5-0.1c-0.2-0.5-0.3-1.3-0.3-1.8c0.3-0.5,0.8-0.2,1.4-1.1
		c-0.2,0-0.5-0.1-0.5-0.1c-0.4-0.8,0,0-0.4-0.6c-0.1,0.5-0.1,0.7-0.1,1.2c-0.5-0.1-0.7-0.1-1.2-0.1c0.1-0.5,0.1-0.7,0.1-1.2
		c-0.4-0.8-1.2-0.4-0.4-1c0.2,0,0.5,0.1,0.5,0.1c0-0.2,0.1-0.5,0.1-0.5c-0.7-0.6-0.6-1.3-0.2-2.5c0.2,0,0.5,0.1,0.5,0.1
		c0-0.2,0.1-0.5,0.1-0.5c-0.5-0.3-0.7-0.6-1.2-0.6c0.2-1.5,0.3-2.7,0.5-4.2c-0.2,0-0.5-0.1-0.5-0.1c0.1-0.5,0.1-0.7,0.1-1.2
		c-0.2,0-0.5-0.1-0.5-0.1c0-0.2,0.1-0.5,0.1-0.5c0.2,0,0.5,0.1,0.5,0.1c0.1-1.2,0.3-2.5,0.4-3.4c0.2,0,0.5,0.1,0.5,0.1
		c0.4-1-0.3-1.3-0.3-1.3c0.3-0.7,0.7-1.4,0.8-2.4c0.2,0,0.5,0.1,0.5,0.1c-0.2-0.5-0.4-0.8-0.3-1.3c0.5-0.2,1.3-0.3,1.8-0.3
		c0.6,1.3,1.2,2.4,1.2,4.4c0.5,0.3,1.2,0.6,1.7,0.7c-0.6,2.9-0.9,3.1-0.7,5.9c0.5,0.1,0.7,0.1,1.2,0.1c0.1-0.5,0.1-0.7,0.1-1.2
		c0.2,0,0.5,0.1,0.5,0.1c-0.1,0.5-0.1,1.2-0.2,1.7c0.2,0,0.5,0.1,0.5,0.1c0.2,0.5,0.3,1.3,0.3,1.8c-0.5-0.1-1.2-0.1-1.7-0.2
		c0.4,0.8,0.9,0.9,1.1,1.4c-0.3,0.5-0.6,0.7-0.6,1.2c0.5,0.3,0.7,0.6,1.2,0.6c0.4,1-0.9,3.4-0.9,3.4c0.2,0,0.5,0.1,0.5,0.1
		c0.4,1,0.4,1,0.2,2.5c0.5,0.1,0.7,0.1,1.2,0.1c0.3,1.8,0.3,3.5,0.6,5.6c0.2,0,0.5,0.1,0.5,0.1c-0.3,0.5-0.6,1.2-0.7,1.7
		c0.7,0.6,1.3,1.4,2.3,2c-0.8,0.7,0,0.2-1.3,0.3c0.6,1.6,1.1,3.4,1.9,5c-0.3,0.5-0.6,0.7-0.6,1.2c0.5,0.3,0.7,0.6,1.2,0.6
		c0,2,0,4-0.2,6c0.5,0.3,0.7,0.6,1.2,0.6c-0.1,0.5-0.1,0.7-0.1,1.2c0.2,0,0.5,0.1,0.5,0.1c-0.1,1.2-0.3,2.5-0.4,3.4
		c0.2,0,0.5,0.1,0.5,0.1c-0.1,1.2-0.3,2.5-0.4,3.4c0.2,0,0.5,0.1,0.5,0.1c-0.1,0.5-0.1,0.7-0.1,1.2c0.2,0,0.5,0.1,0.5,0.1
		c-0.3,0.5-0.6,0.7-0.6,1.2c0.2,0,0.5,0.1,0.5,0.1c-0.1,1.2-0.3,2.5-0.4,3.4c0.2,0,0.5,0.1,0.5,0.1c0.1,1.3,0.2,2.5,0.1,3.5
		c0.2,0,0.5,0.1,0.5,0.1c0.1,1-0.6,0.9-0.6,1.2c-0.4,3.4-0.9,7.1-1.3,10.6c0.2,0,0.5,0.1,0.5,0.1c-0.1,0.7-0.5-0.3-0.6,0.4
		c0,2,0,4-0.2,6c-0.5,0.2-0.8,0.4-1.3,0.3c-1,1.9,0.5,4.1-0.2,5.5C248,330,247.8,330,247.8,330z M251.8,359.2c0,0-2.2-0.3-1.2-0.6
		c0.3-0.7,0.5,0.3,0.6-0.4c1.2,0.4,0.5-0.2,1.2,0.6C251.5,359.2,252.3,358.8,251.8,359.2z M289.4,353.7c-0.2,0-0.5-0.1-0.5-0.1
		c0.1-0.5,0.1-0.7,0.1-1.2c0.2,0,0.2,0,0.5,0.1C289.5,353,289.5,353.2,289.4,353.7z M298.6,352.3c-0.2,0-0.5-0.1-0.5-0.1
		c0.1-0.5,0.1-0.7,0.1-1.2c0.2,0,0.2,0,0.5,0.1C298.7,351.6,298.6,351.8,298.6,352.3z M314.9,347c-0.2,0-0.5-0.1-0.5-0.1
		c0-0.2,0.1-0.5,0.1-0.5c0.2,0,0.5,0.1,0.5,0.1c-0.1-1-0.4-0.8-1.1-1.4c0.6-0.4,0.8-0.4,1.4-1.1c0.4,0.6,0.9,0.9,1.6,1.4
		C316.3,346.4,315.5,346.4,314.9,347z M327.5,350.8c-0.5-0.3-1.2-0.6-1.7-0.7c0.1-0.5,0.1-0.7,0.1-1.2c0.5,0.1,0.7,0.1,1.2,0.1
		C327.4,349.5,327.5,350.3,327.5,350.8z M331.5,348.5c0.5,0.1,1.2,0.1,1.7,0.2c-0.1,0.5-0.1,0.7-0.1,1.2c-0.5-0.1-1.2-0.1-1.7-0.2
		C331.4,349.3,331.4,349,331.5,348.5z M329.2,357.2c1.2,0.4,0.5-0.2,1.2,0.6C329.2,357.5,329.9,357.8,329.2,357.2z M346.9,357.4
		c-1,2.4-0.3,0.7-1.9,1.5c-0.3,0.5-0.6,0.7-0.6,1.2c-2.4,1.2-6.1,0.5-9.5,0.1c0.1-0.5,0.1-0.7,0.1-1.2c-0.5-0.1-0.7-0.1-1.2-0.1
		c0.1-0.5,0.1-0.7,0.1-1.2c-0.7-0.3-1.3-0.6-2.2-0.8c0,0.1,0,0.4,0,0.7c-0.2,0-0.5-0.1-0.5-0.1c0.1-0.2,0.3-0.4,0.4-0.7c0,0,0,0,0,0
		c0,0,0.1,0,0.1,0c0.1-0.3,0.3-0.6,0.3-0.9c-0.4-0.8-2.1-1-2.8-1.6c-0.5-0.3-0.3-1.3-1-1.9c0.1-0.5,0.1-1.2,0.2-1.7
		c0.5,0.3,0.7,0.6,1.2,0.6c0-0.2,0.1-0.5,0.1-0.5c0.2,0,0.5,0.1,0.5,0.1c0.4,0.8-0.2,1.7,0.2,2.5c1.8-0.3,1-0.4,3,0.4
		c0.4-1.2,0.1-0.5,0.6-1.2c-0.1,0.5-0.1,0.7-0.1,1.2c1.7,0.7,1.4,0.4,1.4,2.7c1.8-0.5,2.4-1.2,3.4,0.4c2,0.2,3.9,0.5,5.9,0.7
		c-0.7-0.8,0-0.2-1.2-0.6c0-0.2,0.1-0.5,0.1-0.5c1.5,0.2,2.7,0.3,4.2,0.5C346.9,357.6,347.5,356.9,346.9,357.4z M349.8,356
		c-0.2,0-0.5-0.1-0.5-0.1c0.1-0.5,0.1-0.7,0.1-1.2c0,0,0.2,0,0.5,0.1C349.9,355.2,349.9,355.5,349.8,356z M349.9,353.7
		c1.2,0.4,0.8-0.2,1.2,0.6C349.8,354,350.5,354.3,349.9,353.7z M362.9,247.4c0,0,0.2,0,0.5,0.1c-0.1,0.5-0.1,1.2-0.2,1.7
		c-0.2,0-0.5-0.1-0.5-0.1C362.7,248.6,362.8,247.8,362.9,247.4z M373.2,315c0.5,0.1,1.2,0.1,1.7,0.2c0,0.2-0.1,0.5-0.1,0.5
		c-0.5-0.1-0.7-0.1-1.2-0.1c-0.1,0.5-0.1,1.2-0.2,1.7c-1-0.1-2-0.2-3-0.4c-0.2-0.5-0.3-1.3-0.3-1.8c0.1-0.5,1.3-0.1,1.4-1.1
		c-0.2,0-0.5-0.1-0.5-0.1c0.1-0.5,0.1-0.7,0.1-1.2c-0.2,0-0.5-0.1-0.5-0.1c0.1-0.7,1.1-0.9,0.8-2.4c-0.2,0-0.5-0.1-0.5-0.1
		c0.1-0.5,0.1-0.7,0.1-1.2c-0.2,0-0.5-0.1-0.5-0.1c-0.1-1-0.3-2-0.1-3c-0.5-0.1-0.7-0.1-1.2-0.1c0.1-3-1-4.4-0.9-7.3
		c-0.5-0.1-0.7-0.1-1.2-0.1c0.2-3.7-1.3-5.9-2-8.7c-0.1-1.3-0.2-2.5-0.1-3.5c-0.5-0.3-0.7-0.6-1.2-0.6c-0.1-3.5-0.4-7.3-0.5-10.8
		c-0.2,0-0.5-0.1-0.5-0.1c0.1-0.5,0.1-0.7,0.1-1.2c-0.2,0-0.5-0.1-0.5-0.1c-0.2-2.5-0.1-5.3-0.3-7.8c-0.2,0-0.5-0.1-0.5-0.1
		c0-2.2,0-4.5,0.3-6.5c-0.2,0-0.5-0.1-0.5-0.1c0.1-3.2,0.3-6.5,0.6-9.4c-0.1,0.7,0.9,1.1,1.8,1.5c0,2.2,0.6,3.3,2.5,3.8
		c0.3,1.8,0.6,1.3,0.9,3.1c0.5,0.1,0.7,0.1,1.2,0.1c-0.3,4.5,2.1,5.5,2.4,9.3c0.5,0.1,0.7,0.1,1.2,0.1c-0.1,0.5-0.1,0.7-0.1,1.2
		c0.5,0.1,0.7,0.1,1.2,0.1c-0.3,4.2,2,6,1.8,9.7c0.5,0.1,0.7,0.1,1.2,0.1c0.2,0.5,0.3,1.3,0.3,1.8c-0.2,0-0.5-0.1-0.5-0.1
		c-0.1,0.7-0.2,1.5-0.3,2.5c0.2,0,0.5,0.1,0.5,0.1c-0.1,0.5-0.1,0.7-0.1,1.2c0.2,0,0.5,0.1,0.5,0.1c-0.1,0.5-0.1,1.2-0.2,1.7
		c0.5,0.3,0.7,0.6,1.2,0.6c-0.4,1.2-0.9,0.9-0.4,3c0.2,0,0.5,0.1,0.5,0.1c0.3,1.3-1.1,3.1-0.9,3.4c0.2,0,0.5,0.1,0.5,0.1
		c-0.1,0.7-0.2,1.5-0.3,2.5c0.2,0,0.5,0.1,0.5,0.1c0,0.2-0.1,0.5-0.1,0.5c-0.2,0-0.5-0.1-0.5-0.1c-0.1,0.5-0.1,1.2-0.2,1.7
		c0.2,0,0.5,0.1,0.5,0.1c0,0.2-0.1,0.5-0.1,0.5c-0.2,0-0.5-0.1-0.5-0.1c-0.8,2.4-0.3,4.7-0.3,6.5c-1.8,0.5-0.7-0.1-0.7,1.7
		c0.5,0.1,0.7,0.1,1.2,0.1c-0.4,1-0.6,0.9-0.8,2.4c-1.3,0.1-0.5-0.1-1.3,0.3C374.3,310.2,373.5,313.1,373.2,315z M402.4,332.3
		c-0.2,0-2.5,0-1.7-0.7c0.2,0,0.5,0.1,0.5,0.1c0-0.2,0.1-0.5,0.1-0.5c0.5,0.1,0.7,0.3,1.2,0.6C402.4,332,402.4,332.3,402.4,332.3z
		 M411.5,331.1c-0.2,0-0.5-0.1-0.5-0.1c0.1-0.5,0.1-0.7,0.1-1.2c0,0,0.2,0,0.5,0.1C411.6,330.4,411.6,330.6,411.5,331.1z"/>
	<path d="M168.1,223.3c-0.1,0-0.2,0-0.2,0c0,0.2,0,0.3-0.1,0.5c0,0,0.1,0,0.1,0C168,223.6,168.1,223.4,168.1,223.3z"/>
	<path d="M232.6,259.2c-0.1,0.1-0.3,0.3-0.4,0.4c0,0,0.1,0,0.6,0.1c0-0.1,0-0.3,0.1-0.5C232.7,259.2,232.6,259.2,232.6,259.2z"/>
	<path d="M45.7,256.5c0.1-0.5,0.4-1.2,0.7-1.7c-0.5-0.1-0.7-0.1-1.2-0.1c-0.1,0.5-0.1,1.2,0,1.8C45.2,256.5,45.5,256.5,45.7,256.5z"
		/>
	<path d="M44.2,258.9c0,0,0,0.2-0.1,0.5c1.5-0.1,1.8-0.3,2.6-0.9c0.6-0.4,0,0.2,0.6-0.4c-0.5-0.1-1.2-0.4-1.7-0.7
		C45,258.5,45.3,258.2,44.2,258.9z"/>
	<path d="M45,260.2c0,0,0,0.2-0.1,0.5c-0.6,0.4,0-0.2-0.6,0.4c0.5,0.1,0.7,0.1,1.2,0.1C45.5,260.3,46,260.8,45,260.2z"/>
	<path d="M47,260.9c0,0-0.2,0-0.5-0.1c-0.3,0.5-1.4,1.1-1.6,0.8c-0.1,0.5-0.1,1.2-0.2,1.7c0,0-0.2,0-0.5-0.1c0,0,0,0.2-0.1,0.5
		c0,0,0.2,0,0.5,0.1c-0.1,1-0.2,1.7-0.3,2.5c0,0-0.2,0-0.5-0.1c-0.1,0.5,0.1,1.3,0.3,1.8c0,0-0.2,0-0.5-0.1
		c-0.1,0.5-0.1,1.2-0.2,1.7c0,0,0.2,0,0.5,0.1c0.6-0.9,1-2.1,1.6-3.3c0.5,0.1,0.8-0.2,1.3-0.3l-0.4-0.6c0.1-0.5,0.1-1.2,0.2-1.7
		c-0.5-0.1-0.7-0.3-1.2-0.6C45.8,262.3,47.3,262.2,47,260.9z"/>
	<path d="M330.5,302.4c0-0.1,0-0.1,0-0.2c-0.5-0.1-0.7-0.1-1.2-0.1c0,0.1,0,0.2,0,0.3C329.7,302.3,330.1,302.3,330.5,302.4z"/>
	<path d="M44.5,270.9c-0.5-0.1-0.7-0.1-1.2-0.1c0.7,0.6,0,0.2,1.2,0.6C44.5,271.4,44.5,271.1,44.5,270.9z"/>
	<polygon points="327.5,307.1 327.5,307.1 327.5,307.1 	"/>
	<path d="M44.1,274.3c-0.1,0.5-0.1,0.7-0.1,1.2c0,0,0.2,0,0.5,0.1C44.3,274.4,44.7,275.2,44.1,274.3z"/>
	<path d="M43.8,278.5c0,0,0.2,0,0.5,0.1c0.4-1,0.6-0.9,0.8-2.4c-0.5-0.1-0.7-0.1-1.2-0.1C43.8,277,43.7,277.8,43.8,278.5z"/>
	<path d="M333.3,354.5c0,0,0-0.2,0.1-0.5c-0.5-0.1-0.7-0.1-1.2-0.1C332.5,354.6,332.1,354.1,333.3,354.5z"/>
	<path d="M294.3,353.7c-0.1-0.1-0.3-0.2-0.7-0.4C293.8,353.5,294,353.7,294.3,353.7z"/>
	<path d="M351.4,361.4c0,0,0-0.2,0.1-0.5c-0.5-0.1-0.7-0.1-1.2-0.1C350.9,361.6,350.2,361,351.4,361.4z"/>
	<path d="M287.6,354.5c-0.1-0.1-0.2-0.2-0.2-0.3c-0.2,0-0.4-0.1-0.7-0.1C286.8,354.3,286.7,354.2,287.6,354.5z"/>
	<path d="M293.3,356.4c0,0,0-0.2,0.1-0.5c-0.5-0.1-0.7-0.1-1.2-0.1C292.8,356.4,292.1,356,293.3,356.4z"/>
	<path d="M331,363.4c0,0.2-0.1,0.7-0.1,1.2c0,0,0.2,0,0.5,0.1C331.2,363.5,331.6,364.3,331,363.4z"/>
	<path d="M267.6,360.3c0,0,0-0.2,0.1-0.5c-0.5-0.1-0.7-0.1-1.2-0.1C267.1,360.5,266.4,360,267.6,360.3z"/>
	<path d="M253,361.6c0.5,0.1,0.7,0.1,1.2,0.1c0,0,0-0.2,0.1-0.5c-0.3,0-0.7-0.1-1-0.1C253.2,361.3,253.1,361.5,253,361.6z"/>
	<path d="M108.2,371.5c0.2,0,0.5,0.1,0.5,0.1c0.1-0.5,0.1-1.2,0.2-1.7c-0.5-0.1-0.7-0.1-1-0.1C108.1,370.2,108.2,371,108.2,371.5z"
		/>
</g>
</svg>
