<?xml version="1.0" encoding="utf-8"?>
<!-- Generator: Adobe Illustrator 18.1.0, SVG Export Plug-In . SVG Version: 6.00 Build 0)  -->
<!DOCTYPE svg PUBLIC "-//W3C//DTD SVG 1.1//EN" "http://www.w3.org/Graphics/SVG/1.1/DTD/svg11.dtd">
<svg version="1.1" id="Layer_1" xmlns="http://www.w3.org/2000/svg" xmlns:xlink="http://www.w3.org/1999/xlink" x="0px" y="0px"
	 viewBox="0 0 87.3 163.9" enable-background="new 0 0 87.3 163.9" xml:space="preserve">
<g>
	<path fill="#FFFFFF" d="M84.4,152.4c0,2.5-0.8,4.5-2.5,6.2c-1.7,1.7-3.7,2.5-6.2,2.5H11.5c-2.5,0-4.5-0.8-6.2-2.5
		c-1.7-1.6-2.5-3.7-2.5-6.2V11.5C2.8,9,3.7,7,5.3,5.3C7,3.7,9,2.8,11.5,2.8h64.3c2.5,0,4.5,0.8,6.2,2.5c1.6,1.7,2.5,3.7,2.5,6.2
		V152.4z M8.1,134.2h70.8v-110H8.1V134.2z M37.1,18.9h13.3c0.4,0,0.6-0.3,0.6-0.9c0-1.2-0.2-1.9-0.6-1.9H37.1
		c-0.6,0-0.9,0.6-0.9,1.9C36.2,18.6,36.5,18.9,37.1,18.9z M51.4,147.4c0-2.1-0.7-3.8-2.2-5.3c-1.4-1.4-3.2-2.2-5.3-2.2
		c-2.1,0-3.8,0.7-5.3,2.2c-1.4,1.4-2.2,3.2-2.2,5.3c0,2.1,0.7,3.8,2.2,5.3c1.4,1.4,3.2,2.2,5.3,2.2c2.1,0,3.8-0.7,5.3-2.2
		C50.6,151.3,51.4,149.5,51.4,147.4z M43.6,14c1.2,0,1.9-0.6,1.9-1.9c0-1.2-0.6-1.9-1.9-1.9s-1.9,0.6-1.9,1.9
		C41.8,13.3,42.4,14,43.6,14z"/>
</g>
</svg>
