<?xml version="1.0" encoding="utf-8"?>
<!-- Generator: Adobe Illustrator 18.1.0, SVG Export Plug-In . SVG Version: 6.00 Build 0)  -->
<!DOCTYPE svg PUBLIC "-//W3C//DTD SVG 1.1//EN" "http://www.w3.org/Graphics/SVG/1.1/DTD/svg11.dtd">
<svg version="1.1" id="Layer_1" xmlns="http://www.w3.org/2000/svg" xmlns:xlink="http://www.w3.org/1999/xlink" x="0px" y="0px"
	 viewBox="0 0 634.1 120.9" enable-background="new 0 0 634.1 120.9" xml:space="preserve">
<g>
	<g>
		<g>
			<path fill="#B2D235" d="M31.3,11.4h5.4l21.2,53.7h-5l-6.5-16.4H21.2l-6.4,16.4H10L31.3,11.4z M44.8,44.5L33.8,16.4L22.9,44.5
				H44.8z"/>
			<path fill="#B2D235" d="M68.8,11.4h5l30,46.5V11.4h4.5v53.7h-5L73.3,18.4v46.7h-4.5V11.4z"/>
			<path fill="#B2D235" d="M124.5,11.4h4.5v53.7h-4.5V11.4z"/>
			<path fill="#B2D235" d="M158.9,15.6h-18.7v-4.2H182v4.2h-18.6v49.5h-4.5V15.6z"/>
			<path fill="#B2D235" d="M201.8,11.4h5.4l21.2,53.7h-5L217,48.7h-25.3l-6.4,16.4h-4.8L201.8,11.4z M215.4,44.5l-11.1-28.1
				l-10.9,28.1H215.4z"/>
			<path fill="#B2D235" d="M254.7,11.4h5.1l12.6,48l13.3-47.8h5l12.9,47.7l12.8-47.9h4.8l-15.1,53.7h-5.3l-12.9-47.8L275,65.1h-5
				L254.7,11.4z"/>
			<path fill="#B2D235" d="M344.8,11.4h5.4l21.2,53.7h-5L360,48.7h-25.3l-6.4,16.4h-4.8L344.8,11.4z M358.3,44.5l-11.1-28.1
				l-10.9,28.1H358.3z"/>
			<path fill="#B2D235" d="M382.3,11.4h4.5v49.4H416l-1,4.3h-32.7V11.4z"/>
			<path fill="#B2D235" d="M466.3,47.9c-0.4,2.7-1,5.1-2.1,7.4c-1,2.3-2.4,4.2-4.2,5.9c-1.8,1.7-3.9,3-6.4,3.9
				c-2.5,1-5.4,1.4-8.7,1.4c-3.5,0-6.7-0.6-9.6-1.8c-2.9-1.2-5.4-3-7.5-5.4c-2.1-2.4-3.7-5.3-4.9-8.8c-1.2-3.5-1.7-7.5-1.7-12.1
				c0-4.6,0.6-8.7,1.9-12.2c1.3-3.5,2.9-6.5,5.1-8.9c2.1-2.4,4.6-4.2,7.4-5.4c2.8-1.2,5.9-1.8,9.1-1.8c3.3,0,6.1,0.4,8.4,1.3
				c2.4,0.9,4.4,2.1,6,3.6c1.6,1.5,2.9,3.4,4,5.5c1,2.1,1.8,4.4,2.4,6.8l-4.4,1c-0.6-2.2-1.2-4.2-2.1-5.9c-0.8-1.8-1.9-3.2-3.2-4.4
				c-1.3-1.2-2.8-2.1-4.6-2.8c-1.8-0.7-4-1-6.6-1c-3,0-5.6,0.6-7.9,1.8c-2.3,1.2-4.3,2.9-5.9,5c-1.6,2.2-2.8,4.7-3.7,7.7
				c-0.9,3-1.3,6.2-1.3,9.7c0,3.6,0.4,6.8,1.2,9.7c0.8,2.9,2,5.5,3.6,7.6c1.6,2.2,3.6,3.8,5.9,5c2.4,1.2,5.1,1.8,8.1,1.8
				c2.9,0,5.4-0.4,7.4-1.1c2-0.7,3.6-1.7,4.9-3c1.3-1.3,2.3-2.8,3-4.6c0.7-1.8,1.3-3.7,1.6-5.8H466.3z"/>
			<path fill="#B2D235" d="M475.1,61.3l33.1-45.9h-32.5v-4.1h37.9v3.8l-33,45.7h33.7l-1,4.2h-38.2V61.3z"/>
			<path fill="#B2D235" d="M543.5,11.4h5.4l21.2,53.7h-5l-6.5-16.4h-25.3l-6.4,16.4h-4.8L543.5,11.4z M557.1,44.5L546,16.4
				l-10.9,28.1H557.1z"/>
			<path fill="#B2D235" d="M581,11.4h4.5v28.1l28.2-28.1h5.5l-19.9,20.1l22,33.6h-5.6l-19.9-30.6l-10.3,10.2v20.5H581V11.4z"/>
		</g>
	</g>
	<g>
		<g>
			<path fill="#B2D235" d="M199.9,108.3l16.9-23.5h-16.6v-2.1h19.3v2L202.7,108h17.2l-0.5,2.2h-19.5V108.3z"/>
			<path fill="#B2D235" d="M226.2,82.7h9.3c1.9,0,3.7,0.3,5.2,0.8c1.5,0.6,2.8,1.4,3.9,2.5c1.1,1.1,1.9,2.5,2.5,4.2
				c0.6,1.7,0.9,3.7,0.9,6c0,2.3-0.3,4.4-0.9,6.1c-0.6,1.7-1.5,3.2-2.7,4.3s-2.6,2-4.2,2.6c-1.6,0.6-3.5,0.9-5.5,0.9h-8.4V82.7z
				 M234.7,108.1c3.7,0,6.4-1,8.1-3.1c1.7-2,2.6-4.9,2.6-8.7c0-3.7-0.8-6.6-2.4-8.6c-1.6-2-4.1-3-7.6-3h-6.9v23.3H234.7z"/>
			<path fill="#B2D235" d="M255.1,82.7h8.6c2,0,3.6,0.2,4.9,0.7c1.3,0.4,2.3,1,3,1.7s1.2,1.5,1.5,2.4c0.3,0.9,0.4,1.8,0.4,2.7
				c0,1.7-0.4,3.2-1.2,4.5c-0.8,1.2-2.1,2.2-3.8,2.8l5.9,12.7h-2.7L266.2,98c-0.4,0.1-0.9,0.1-1.3,0.1c-0.5,0-0.9,0.1-1.5,0.1h-6v12
				h-2.3V82.7z M264,96.1c1.4,0,2.5-0.1,3.4-0.4c0.9-0.3,1.6-0.7,2.2-1.2c0.5-0.5,0.9-1.1,1.1-1.8c0.2-0.7,0.3-1.5,0.3-2.5
				c0-0.9-0.1-1.7-0.3-2.4c-0.2-0.7-0.6-1.2-1.2-1.7c-0.6-0.5-1.3-0.8-2.3-1s-2.2-0.3-3.6-0.3h-6.2v11.3H264z"/>
			<path fill="#B2D235" d="M291.9,110.9c-1.8,0-3.4-0.3-4.9-0.9c-1.5-0.6-2.8-1.5-3.9-2.7c-1.1-1.2-2-2.7-2.6-4.5
				c-0.6-1.8-0.9-3.9-0.9-6.2s0.3-4.4,0.9-6.3c0.6-1.8,1.5-3.3,2.6-4.5c1.1-1.2,2.4-2.1,3.9-2.8c1.5-0.6,3.2-0.9,4.9-0.9
				c1.8,0,3.4,0.3,4.9,0.9c1.5,0.6,2.8,1.5,3.9,2.7c1.1,1.2,1.9,2.7,2.6,4.5c0.6,1.8,0.9,3.9,0.9,6.2c0,2.4-0.3,4.5-0.9,6.3
				c-0.6,1.8-1.5,3.3-2.6,4.5c-1.1,1.2-2.4,2.1-3.9,2.8C295.4,110.6,293.7,110.9,291.9,110.9z M291.9,108.8c1.6,0,3-0.3,4.3-0.9
				c1.2-0.6,2.3-1.4,3.1-2.5s1.5-2.4,1.9-3.9c0.4-1.5,0.6-3.2,0.6-5c0-1.8-0.2-3.5-0.7-5s-1.1-2.8-1.9-3.9c-0.8-1.1-1.9-1.9-3.1-2.5
				s-2.6-0.9-4.2-0.9c-1.7,0-3.1,0.3-4.4,0.9c-1.2,0.6-2.3,1.4-3.1,2.5c-0.8,1.1-1.4,2.4-1.9,3.9c-0.4,1.5-0.6,3.2-0.6,5
				c0,1.8,0.2,3.5,0.6,5c0.4,1.5,1,2.8,1.9,3.9c0.8,1.1,1.9,1.9,3.1,2.5C288.8,108.5,290.3,108.8,291.9,108.8z"/>
			<path fill="#B2D235" d="M308.5,82.7h2.6l6.5,24.5l6.8-24.4h2.5l6.6,24.4l6.5-24.5h2.5l-7.7,27.5h-2.7l-6.6-24.4l-6.6,24.4h-2.6
				L308.5,82.7z"/>
			<path fill="#B2D235" d="M348.1,82.7h2.3v27.5h-2.3V82.7z"/>
			<path fill="#B2D235" d="M358.7,82.7h17.2v2.1H361v10.1h14.2v2.2H361V108h15.6l-0.5,2.2h-17.3V82.7z"/>
			<path fill="#B2D235" d="M393.8,82.7h2.3v27.5h-2.3V82.7z"/>
			<path fill="#B2D235" d="M414.9,82.7h17.2v2.1h-14.9v10.1h14.2v2.2h-14.2V108h15.6l-0.5,2.2h-17.3V82.7z"/>
			<path fill="#B2D235" d="M439.4,82.7h9.3c1.9,0,3.7,0.3,5.2,0.8c1.5,0.6,2.8,1.4,3.9,2.5c1.1,1.1,1.9,2.5,2.5,4.2s0.9,3.7,0.9,6
				c0,2.3-0.3,4.4-0.9,6.1c-0.6,1.7-1.5,3.2-2.7,4.3c-1.2,1.2-2.6,2-4.2,2.6c-1.6,0.6-3.5,0.9-5.5,0.9h-8.4V82.7z M448,108.1
				c3.7,0,6.4-1,8.1-3.1s2.6-4.9,2.6-8.7c0-3.7-0.8-6.6-2.4-8.6s-4.1-3-7.6-3h-6.9v23.3H448z"/>
			<path fill="#B2D235" d="M468.2,82.7h2.3v16.7c0,3.1,0.6,5.4,1.8,7c1.2,1.6,3.2,2.3,6,2.3c1.4,0,2.6-0.2,3.6-0.6
				c1-0.4,1.8-1,2.4-1.8c0.6-0.8,1-1.8,1.3-2.9s0.4-2.5,0.4-4.1V82.7h2.3v16.7c0,2-0.2,3.8-0.7,5.2c-0.4,1.4-1.1,2.6-2,3.6
				c-0.9,0.9-1.9,1.6-3.2,2c-1.2,0.4-2.6,0.7-4.2,0.7c-1.6,0-3-0.2-4.3-0.7c-1.2-0.4-2.3-1.1-3.2-2.1c-0.9-0.9-1.5-2.1-2-3.6
				c-0.4-1.5-0.7-3.2-0.7-5.3V82.7z"/>
			<path fill="#B2D235" d="M496.3,82.7h2.3v14.3L513,82.7h2.8L505.6,93l11.2,17.2H514l-10.2-15.7l-5.3,5.2v10.5h-2.3V82.7z"/>
			<path fill="#B2D235" d="M531.6,82.7h2.8l10.8,27.5h-2.5l-3.3-8.4h-12.9l-3.3,8.4h-2.5L531.6,82.7z M538.5,99.7l-5.7-14.3
				l-5.6,14.3H538.5z"/>
			<path fill="#B2D235" d="M571.7,101.4c-0.2,1.4-0.5,2.6-1.1,3.8s-1.2,2.2-2.1,3c-0.9,0.8-2,1.5-3.3,2c-1.3,0.5-2.8,0.7-4.5,0.7
				c-1.8,0-3.4-0.3-4.9-0.9c-1.5-0.6-2.7-1.5-3.8-2.8c-1.1-1.2-1.9-2.7-2.5-4.5s-0.9-3.8-0.9-6.2c0-2.4,0.3-4.4,1-6.3
				c0.6-1.8,1.5-3.3,2.6-4.5c1.1-1.2,2.4-2.1,3.8-2.8c1.4-0.6,3-0.9,4.6-0.9c1.7,0,3.1,0.2,4.3,0.7c1.2,0.4,2.2,1.1,3.1,1.8
				c0.8,0.8,1.5,1.7,2,2.8s0.9,2.2,1.2,3.5l-2.2,0.5c-0.3-1.1-0.6-2.1-1.1-3s-1-1.7-1.6-2.3c-0.7-0.6-1.4-1.1-2.4-1.4
				c-0.9-0.3-2-0.5-3.4-0.5c-1.5,0-2.9,0.3-4,0.9c-1.2,0.6-2.2,1.5-3,2.6c-0.8,1.1-1.5,2.4-1.9,3.9s-0.7,3.2-0.7,5
				c0,1.8,0.2,3.5,0.6,5c0.4,1.5,1,2.8,1.9,3.9c0.8,1.1,1.8,2,3,2.6s2.6,0.9,4.2,0.9c1.5,0,2.7-0.2,3.8-0.6c1-0.4,1.8-0.9,2.5-1.6
				s1.2-1.5,1.5-2.4c0.4-0.9,0.6-1.9,0.8-2.9H571.7z"/>
			<path fill="#B2D235" d="M579.1,102.6c0.1,0.9,0.3,1.7,0.6,2.4c0.3,0.8,0.7,1.4,1.2,2c0.5,0.6,1.2,1,2,1.3s1.8,0.5,3,0.5
				c2.5,0,4.2-0.7,5.1-2c1-1.3,1.4-3.2,1.4-5.7V82.7h2.3v18.6c0,3.2-0.8,5.6-2.3,7.2c-1.5,1.6-3.7,2.4-6.5,2.4c-2.6,0-4.7-0.7-6.4-2
				s-2.7-3.4-3-6.3H579.1z"/>
			<path fill="#B2D235" d="M610.5,82.7h2.8l10.8,27.5h-2.5l-3.3-8.4h-12.9l-3.3,8.4h-2.5L610.5,82.7z M617.4,99.7l-5.7-14.3
				l-5.6,14.3H617.4z"/>
		</g>
	</g>
</g>
</svg>
